org.mockito.AdditionalMatchers,<init>,<>,0,1,3
org.mockito.AdditionalMatchers,geq,<java.lang.Comparable>,1,1,8
org.mockito.AdditionalMatchers,geq,<byte>,1,1,8
org.mockito.AdditionalMatchers,geq,<double>,1,1,9
org.mockito.AdditionalMatchers,geq,<float>,1,1,9
org.mockito.AdditionalMatchers,geq,<int>,1,1,8
org.mockito.AdditionalMatchers,geq,<long>,1,1,9
org.mockito.AdditionalMatchers,geq,<short>,1,1,9
org.mockito.AdditionalMatchers,leq,<java.lang.Comparable>,1,1,8
org.mockito.AdditionalMatchers,leq,<byte>,1,1,8
org.mockito.AdditionalMatchers,leq,<double>,1,1,9
org.mockito.AdditionalMatchers,leq,<float>,1,1,9
org.mockito.AdditionalMatchers,leq,<int>,1,1,8
org.mockito.AdditionalMatchers,leq,<long>,1,1,9
org.mockito.AdditionalMatchers,leq,<short>,1,1,9
org.mockito.AdditionalMatchers,gt,<java.lang.Comparable>,1,1,8
org.mockito.AdditionalMatchers,gt,<byte>,1,1,8
org.mockito.AdditionalMatchers,gt,<double>,1,1,9
org.mockito.AdditionalMatchers,gt,<float>,1,1,9
org.mockito.AdditionalMatchers,gt,<int>,1,1,8
org.mockito.AdditionalMatchers,gt,<long>,1,1,9
org.mockito.AdditionalMatchers,gt,<short>,1,1,9
org.mockito.AdditionalMatchers,lt,<java.lang.Comparable>,1,1,8
org.mockito.AdditionalMatchers,lt,<byte>,1,1,8
org.mockito.AdditionalMatchers,lt,<double>,1,1,9
org.mockito.AdditionalMatchers,lt,<float>,1,1,9
org.mockito.AdditionalMatchers,lt,<int>,1,1,8
org.mockito.AdditionalMatchers,lt,<long>,1,1,9
org.mockito.AdditionalMatchers,lt,<short>,1,1,9
org.mockito.AdditionalMatchers,cmpEq,<java.lang.Comparable>,1,1,8
org.mockito.AdditionalMatchers,find,<java.lang.String>,1,1,8
org.mockito.AdditionalMatchers,aryEq,<java.lang.Object[]>,1,1,8
org.mockito.AdditionalMatchers,aryEq,<short[]>,1,1,8
org.mockito.AdditionalMatchers,aryEq,<long[]>,1,1,8
org.mockito.AdditionalMatchers,aryEq,<int[]>,1,1,8
org.mockito.AdditionalMatchers,aryEq,<float[]>,1,1,8
org.mockito.AdditionalMatchers,aryEq,<double[]>,1,1,8
org.mockito.AdditionalMatchers,aryEq,<char[]>,1,1,8
org.mockito.AdditionalMatchers,aryEq,<byte[]>,1,1,8
org.mockito.AdditionalMatchers,aryEq,<boolean[]>,1,1,8
org.mockito.AdditionalMatchers,and,<boolean;boolean>,2,2,5
org.mockito.AdditionalMatchers,and,<byte;byte>,2,2,5
org.mockito.AdditionalMatchers,and,<char;char>,2,2,5
org.mockito.AdditionalMatchers,and,<double;double>,2,2,6
org.mockito.AdditionalMatchers,and,<float;float>,2,2,6
org.mockito.AdditionalMatchers,and,<int;int>,2,2,5
org.mockito.AdditionalMatchers,and,<long;long>,2,2,6
org.mockito.AdditionalMatchers,and,<short;short>,2,2,6
org.mockito.AdditionalMatchers,and,<java.lang.Object;java.lang.Object>,2,2,5
org.mockito.AdditionalMatchers,or,<boolean;boolean>,2,2,5
org.mockito.AdditionalMatchers,or,<java.lang.Object;java.lang.Object>,2,2,5
org.mockito.AdditionalMatchers,or,<short;short>,2,2,6
org.mockito.AdditionalMatchers,or,<long;long>,2,2,6
org.mockito.AdditionalMatchers,or,<int;int>,2,2,5
org.mockito.AdditionalMatchers,or,<float;float>,2,2,6
org.mockito.AdditionalMatchers,or,<double;double>,2,2,6
org.mockito.AdditionalMatchers,or,<char;char>,2,2,5
org.mockito.AdditionalMatchers,or,<byte;byte>,2,2,5
org.mockito.AdditionalMatchers,not,<java.lang.Object>,1,1,5
org.mockito.AdditionalMatchers,not,<short>,1,1,6
org.mockito.AdditionalMatchers,not,<int>,1,1,5
org.mockito.AdditionalMatchers,not,<long>,1,1,6
org.mockito.AdditionalMatchers,not,<float>,1,1,6
org.mockito.AdditionalMatchers,not,<double>,1,1,6
org.mockito.AdditionalMatchers,not,<char>,1,1,5
org.mockito.AdditionalMatchers,not,<boolean>,1,1,5
org.mockito.AdditionalMatchers,not,<byte>,1,1,5
org.mockito.AdditionalMatchers,eq,<double;double>,2,2,11
org.mockito.AdditionalMatchers,eq,<float;float>,2,2,11
org.mockito.AdditionalMatchers,reportMatcher,<org.mockito.ArgumentMatcher>,1,1,5
org.mockito.AdditionalMatchers,<clinit>,<>,0,0,5
org.mockito.ArgumentCaptor,<init>,<>,0,1,8
org.mockito.ArgumentCaptor,capture,<>,0,1,6
org.mockito.ArgumentCaptor,getValue,<>,0,1,4
org.mockito.ArgumentCaptor,getAllValues,<>,0,1,4
org.mockito.ArgumentMatcher,<init>,<>,0,1,3
org.mockito.ArgumentMatcher,matches,<java.lang.Object>,1,0,0
org.mockito.ArgumentMatcher,describeTo,<org.hamcrest.Description>,1,3,10
org.mockito.BDDMockito$BDDMyOngoingStubbing,willAnswer,<org.mockito.stubbing.Answer>,1,0,0
org.mockito.BDDMockito$BDDMyOngoingStubbing,willReturn,<java.lang.Object>,1,0,0
org.mockito.BDDMockito$BDDMyOngoingStubbing,willReturn,<java.lang.Object;java.lang.Object[]>,2,0,0
org.mockito.BDDMockito$BDDMyOngoingStubbing,willThrow,<java.lang.Throwable[]>,1,0,0
org.mockito.BDDMockito$BDDMyOngoingStubbing,willCallRealMethod,<>,0,0,0
org.mockito.BDDMockito$BDDOngoingStubbingImpl,<init>,<org.mockito.stubbing.OngoingStubbing>,1,2,6
org.mockito.BDDMockito$BDDOngoingStubbingImpl,willAnswer,<org.mockito.stubbing.Answer>,1,2,8
org.mockito.BDDMockito$BDDOngoingStubbingImpl,willReturn,<java.lang.Object>,1,2,8
org.mockito.BDDMockito$BDDOngoingStubbingImpl,willReturn,<java.lang.Object;java.lang.Object[]>,2,3,9
org.mockito.BDDMockito$BDDOngoingStubbingImpl,willThrow,<java.lang.Throwable[]>,1,2,8
org.mockito.BDDMockito$BDDOngoingStubbingImpl,willCallRealMethod,<>,0,1,7
org.mockito.BDDMockito$BDDStubber,willAnswer,<org.mockito.stubbing.Answer>,1,0,0
org.mockito.BDDMockito$BDDStubber,willNothing,<>,0,0,0
org.mockito.BDDMockito$BDDStubber,willReturn,<java.lang.Object>,1,0,0
org.mockito.BDDMockito$BDDStubber,willThrow,<java.lang.Throwable>,1,0,0
org.mockito.BDDMockito$BDDStubber,given,<java.lang.Object>,1,0,0
org.mockito.BDDMockito$BDDStubberImpl,<init>,<org.mockito.stubbing.Stubber>,1,2,6
org.mockito.BDDMockito$BDDStubberImpl,given,<java.lang.Object>,1,2,5
org.mockito.BDDMockito$BDDStubberImpl,willAnswer,<org.mockito.stubbing.Answer>,1,2,8
org.mockito.BDDMockito$BDDStubberImpl,willNothing,<>,0,1,7
org.mockito.BDDMockito$BDDStubberImpl,willReturn,<java.lang.Object>,1,2,8
org.mockito.BDDMockito$BDDStubberImpl,willThrow,<java.lang.Throwable>,1,2,8
org.mockito.BDDMockito,<init>,<>,0,1,3
org.mockito.BDDMockito,given,<java.lang.Object>,1,1,6
org.mockito.BDDMockito,willThrow,<java.lang.Throwable>,1,1,6
org.mockito.BDDMockito,willAnswer,<org.mockito.stubbing.Answer>,1,1,6
org.mockito.BDDMockito,willDoNothing,<>,0,0,5
org.mockito.BDDMockito,willReturn,<java.lang.Object>,1,1,6
org.mockito.BDDMockito,willCallRealMethod,<>,0,0,5
org.mockito.InOrder,verify,<java.lang.Object>,1,0,0
org.mockito.InOrder,verify,<java.lang.Object;org.mockito.internal.verification.api.VerificationMode>,2,0,0
org.mockito.Matchers,<init>,<>,0,1,3
org.mockito.Matchers,anyBoolean,<>,0,0,4
org.mockito.Matchers,anyByte,<>,0,0,4
org.mockito.Matchers,anyChar,<>,0,0,4
org.mockito.Matchers,anyInt,<>,0,0,4
org.mockito.Matchers,anyLong,<>,0,0,5
org.mockito.Matchers,anyFloat,<>,0,0,5
org.mockito.Matchers,anyDouble,<>,0,0,5
org.mockito.Matchers,anyShort,<>,0,0,5
org.mockito.Matchers,anyObject,<>,0,0,4
org.mockito.Matchers,any,<java.lang.Class>,1,1,2
org.mockito.Matchers,any,<>,0,0,2
org.mockito.Matchers,anyString,<>,0,0,4
org.mockito.Matchers,anyList,<>,0,0,4
org.mockito.Matchers,anyListOf,<java.lang.Class>,1,1,4
org.mockito.Matchers,anySet,<>,0,0,4
org.mockito.Matchers,anySetOf,<java.lang.Class>,1,1,4
org.mockito.Matchers,anyMap,<>,0,0,4
org.mockito.Matchers,anyCollection,<>,0,0,4
org.mockito.Matchers,anyCollectionOf,<java.lang.Class>,1,1,4
org.mockito.Matchers,isA,<java.lang.Class>,1,1,7
org.mockito.Matchers,eq,<boolean>,1,1,8
org.mockito.Matchers,eq,<byte>,1,1,8
org.mockito.Matchers,eq,<char>,1,1,8
org.mockito.Matchers,eq,<double>,1,1,9
org.mockito.Matchers,eq,<float>,1,1,9
org.mockito.Matchers,eq,<int>,1,1,8
org.mockito.Matchers,eq,<long>,1,1,9
org.mockito.Matchers,eq,<short>,1,1,9
org.mockito.Matchers,eq,<java.lang.Object>,1,1,7
org.mockito.Matchers,refEq,<java.lang.Object;java.lang.String[]>,2,2,8
org.mockito.Matchers,same,<java.lang.Object>,1,1,7
org.mockito.Matchers,isNull,<>,0,0,4
org.mockito.Matchers,notNull,<>,0,0,4
org.mockito.Matchers,isNotNull,<>,0,0,2
org.mockito.Matchers,contains,<java.lang.String>,1,1,7
org.mockito.Matchers,matches,<java.lang.String>,1,1,7
org.mockito.Matchers,endsWith,<java.lang.String>,1,1,7
org.mockito.Matchers,startsWith,<java.lang.String>,1,1,7
org.mockito.Matchers,argThat,<org.hamcrest.Matcher>,1,1,4
org.mockito.Matchers,charThat,<org.hamcrest.Matcher>,1,1,4
org.mockito.Matchers,booleanThat,<org.hamcrest.Matcher>,1,1,4
org.mockito.Matchers,byteThat,<org.hamcrest.Matcher>,1,1,4
org.mockito.Matchers,shortThat,<org.hamcrest.Matcher>,1,1,5
org.mockito.Matchers,intThat,<org.hamcrest.Matcher>,1,1,4
org.mockito.Matchers,longThat,<org.hamcrest.Matcher>,1,1,5
org.mockito.Matchers,floatThat,<org.hamcrest.Matcher>,1,1,5
org.mockito.Matchers,doubleThat,<org.hamcrest.Matcher>,1,1,5
org.mockito.Matchers,reportMatcher,<org.hamcrest.Matcher>,1,1,5
org.mockito.Matchers,<clinit>,<>,0,0,5
org.mockito.MockSettings,extraInterfaces,<java.lang.Class[]>,1,0,0
org.mockito.MockSettings,name,<java.lang.String>,1,0,0
org.mockito.MockSettings,spiedInstance,<java.lang.Object>,1,0,0
org.mockito.MockSettings,defaultAnswer,<org.mockito.stubbing.Answer>,1,0,0
org.mockito.Mockito,<init>,<>,0,1,3
org.mockito.Mockito,mock,<java.lang.Class>,1,1,6
org.mockito.Mockito,mock,<java.lang.Class;java.lang.String>,2,2,8
org.mockito.Mockito,mock,<java.lang.Class;org.mockito.ReturnValues>,2,2,9
org.mockito.Mockito,mock,<java.lang.Class;org.mockito.stubbing.Answer>,2,2,6
org.mockito.Mockito,mock,<java.lang.Class;org.mockito.MockSettings>,2,2,5
org.mockito.Mockito,spy,<java.lang.Object>,1,1,10
org.mockito.Mockito,stub,<java.lang.Object>,1,1,4
org.mockito.Mockito,when,<java.lang.Object>,1,1,4
org.mockito.Mockito,verify,<java.lang.Object>,1,1,6
org.mockito.Mockito,reset,<java.lang.Object[]>,1,1,4
org.mockito.Mockito,verify,<java.lang.Object;org.mockito.internal.verification.api.VerificationMode>,2,2,5
org.mockito.Mockito,verifyNoMoreInteractions,<java.lang.Object[]>,1,1,4
org.mockito.Mockito,verifyZeroInteractions,<java.lang.Object[]>,1,1,4
org.mockito.Mockito,stubVoid,<java.lang.Object>,1,1,4
org.mockito.Mockito,doThrow,<java.lang.Throwable>,1,1,7
org.mockito.Mockito,doCallRealMethod,<>,0,0,6
org.mockito.Mockito,doAnswer,<org.mockito.stubbing.Answer>,1,1,4
org.mockito.Mockito,doNothing,<>,0,0,6
org.mockito.Mockito,doReturn,<java.lang.Object>,1,1,7
org.mockito.Mockito,inOrder,<java.lang.Object[]>,1,1,4
org.mockito.Mockito,times,<int>,1,1,3
org.mockito.Mockito,never,<>,0,0,3
org.mockito.Mockito,atLeastOnce,<>,0,0,2
org.mockito.Mockito,atLeast,<int>,1,1,3
org.mockito.Mockito,atMost,<int>,1,1,3
org.mockito.Mockito,validateMockitoUsage,<>,0,0,3
org.mockito.Mockito,withSettings,<>,0,0,6
org.mockito.Mockito,<clinit>,<>,0,0,21
org.mockito.MockitoAnnotations,<init>,<>,0,1,3
org.mockito.MockitoAnnotations,initMocks,<java.lang.Object>,1,2,21
org.mockito.MockitoAnnotations,scan,<java.lang.Object;java.lang.Class>,2,15,83
org.mockito.ReturnValues,valueFor,<org.mockito.invocation.InvocationOnMock>,1,0,0
org.mockito.configuration.AnnotationEngine,createMockFor,<java.lang.annotation.Annotation;java.lang.reflect.Field>,2,0,0
org.mockito.configuration.DefaultMockitoConfiguration,<init>,<>,0,1,3
org.mockito.configuration.DefaultMockitoConfiguration,getReturnValues,<>,0,1,5
org.mockito.configuration.DefaultMockitoConfiguration,getDefaultAnswer,<>,0,1,4
org.mockito.configuration.DefaultMockitoConfiguration,getAnnotationEngine,<>,0,1,4
org.mockito.configuration.DefaultMockitoConfiguration,cleansStackTrace,<>,0,1,2
org.mockito.configuration.IMockitoConfiguration,getReturnValues,<>,0,0,0
org.mockito.configuration.IMockitoConfiguration,getDefaultAnswer,<>,0,0,0
org.mockito.configuration.IMockitoConfiguration,getAnnotationEngine,<>,0,0,0
org.mockito.configuration.IMockitoConfiguration,cleansStackTrace,<>,0,0,0
org.mockito.exceptions.Discrepancy,<init>,<int;int>,2,3,9
org.mockito.exceptions.Discrepancy,getWantedCount,<>,0,1,3
org.mockito.exceptions.Discrepancy,getPluralizedWantedCount,<>,0,1,4
org.mockito.exceptions.Discrepancy,getActualCount,<>,0,1,3
org.mockito.exceptions.Discrepancy,getPluralizedActualCount,<>,0,1,4
org.mockito.exceptions.Pluralizer,<init>,<>,0,1,3
org.mockito.exceptions.Pluralizer,pluralize,<int>,1,1,14
org.mockito.exceptions.PrintableInvocation,toString,<>,0,0,0
org.mockito.exceptions.PrintableInvocation,getLocation,<>,0,0,0
org.mockito.exceptions.Reporter,<init>,<>,0,1,3
org.mockito.exceptions.Reporter,checkedExceptionInvalid,<java.lang.Throwable>,1,2,22
org.mockito.exceptions.Reporter,cannotStubWithNullThrowable,<>,0,1,11
org.mockito.exceptions.Reporter,unfinishedStubbing,<org.mockito.internal.debugging.Location>,1,2,55
org.mockito.exceptions.Reporter,missingMethodInvocation,<>,0,1,35
org.mockito.exceptions.Reporter,unfinishedVerificationException,<org.mockito.internal.debugging.Location>,1,3,45
org.mockito.exceptions.Reporter,notAMockPassedToVerify,<>,0,1,27
org.mockito.exceptions.Reporter,nullPassedToVerify,<>,0,1,31
org.mockito.exceptions.Reporter,notAMockPassedToWhenMethod,<>,0,1,19
org.mockito.exceptions.Reporter,nullPassedToWhenMethod,<>,0,1,23
org.mockito.exceptions.Reporter,mocksHaveToBePassedToVerifyNoMoreInteractions,<>,0,1,23
org.mockito.exceptions.Reporter,notAMockPassedToVerifyNoMoreInteractions,<>,0,1,23
org.mockito.exceptions.Reporter,nullPassedToVerifyNoMoreInteractions,<>,0,1,23
org.mockito.exceptions.Reporter,notAMockPassedWhenCreatingInOrder,<>,0,1,23
org.mockito.exceptions.Reporter,nullPassedWhenCreatingInOrder,<>,0,1,23
org.mockito.exceptions.Reporter,mocksHaveToBePassedWhenCreatingInOrder,<>,0,1,23
org.mockito.exceptions.Reporter,inOrderRequiresFamiliarMock,<>,0,1,23
org.mockito.exceptions.Reporter,invalidUseOfMatchers,<int;int>,2,3,62
org.mockito.exceptions.Reporter,argumentsAreDifferent,<java.lang.String;java.lang.String;org.mockito.internal.debugging.Location>,3,5,46
org.mockito.exceptions.Reporter,wantedButNotInvoked,<org.mockito.exceptions.PrintableInvocation>,1,2,7
org.mockito.exceptions.Reporter,wantedButNotInvoked,<org.mockito.exceptions.PrintableInvocation;java.util.List>,2,9,50
org.mockito.exceptions.Reporter,createWantedButNotInvokedMessage,<org.mockito.exceptions.PrintableInvocation>,1,2,23
org.mockito.exceptions.Reporter,wantedButNotInvokedInOrder,<org.mockito.exceptions.PrintableInvocation;org.mockito.exceptions.PrintableInvocation>,2,3,44
org.mockito.exceptions.Reporter,tooManyActualInvocations,<int;int;org.mockito.exceptions.PrintableInvocation;org.mockito.internal.debugging.Location>,4,6,12
org.mockito.exceptions.Reporter,createTooManyInvocationsMessage,<int;int;org.mockito.exceptions.PrintableInvocation;org.mockito.internal.debugging.Location>,4,5,51
org.mockito.exceptions.Reporter,neverWantedButInvoked,<org.mockito.exceptions.PrintableInvocation;org.mockito.internal.debugging.Location>,2,3,34
org.mockito.exceptions.Reporter,tooManyActualInvocationsInOrder,<int;int;org.mockito.exceptions.PrintableInvocation;org.mockito.internal.debugging.Location>,4,6,25
org.mockito.exceptions.Reporter,createTooLittleInvocationsMessage,<org.mockito.exceptions.Discrepancy;org.mockito.exceptions.PrintableInvocation;org.mockito.internal.debugging.Location>,3,6,62
org.mockito.exceptions.Reporter,tooLittleActualInvocations,<org.mockito.exceptions.Discrepancy;org.mockito.exceptions.PrintableInvocation;org.mockito.internal.debugging.Location>,3,5,11
org.mockito.exceptions.Reporter,tooLittleActualInvocationsInOrder,<org.mockito.exceptions.Discrepancy;org.mockito.exceptions.PrintableInvocation;org.mockito.internal.debugging.Location>,3,5,24
org.mockito.exceptions.Reporter,noMoreInteractionsWanted,<org.mockito.exceptions.PrintableInvocation>,1,2,30
org.mockito.exceptions.Reporter,cannotMockFinalClass,<java.lang.Class>,1,2,35
org.mockito.exceptions.Reporter,cannotStubVoidMethodWithAReturnValue,<>,0,1,19
org.mockito.exceptions.Reporter,onlyVoidMethodsCanBeSetToDoNothing,<>,0,1,35
org.mockito.exceptions.Reporter,wrongTypeOfReturnValue,<java.lang.String;java.lang.String;java.lang.String>,3,4,35
org.mockito.exceptions.Reporter,wantedAtMostX,<int;int>,2,3,23
org.mockito.exceptions.Reporter,misplacedArgumentMatcher,<org.mockito.internal.debugging.Location>,1,2,55
org.mockito.exceptions.Reporter,smartNullPointerException,<org.mockito.internal.debugging.Location>,1,2,29
org.mockito.exceptions.Reporter,noArgumentValueWasCaptured,<>,0,1,47
org.mockito.exceptions.Reporter,extraInterfacesDoesNotAcceptNullParameters,<>,0,1,11
org.mockito.exceptions.Reporter,extraInterfacesAcceptsOnlyInterfaces,<java.lang.Class>,1,2,25
org.mockito.exceptions.Reporter,extraInterfacesCannotContainMockedType,<java.lang.Class>,1,2,27
org.mockito.exceptions.Reporter,extraInterfacesRequiresAtLeastOneInterface,<>,0,1,11
org.mockito.exceptions.base.MockitoAssertionError,<init>,<java.lang.String>,1,3,15
org.mockito.exceptions.base.MockitoAssertionError,getUnfilteredStackTrace,<>,0,1,3
org.mockito.exceptions.base.MockitoException,<init>,<java.lang.String;java.lang.Throwable>,2,3,7
org.mockito.exceptions.base.MockitoException,<init>,<java.lang.String>,1,2,6
org.mockito.exceptions.base.MockitoException,filterStackTrace,<>,0,2,12
org.mockito.exceptions.base.MockitoException,getUnfilteredStackTrace,<>,0,1,3
org.mockito.exceptions.misusing.InvalidUseOfMatchersException,<init>,<java.lang.String>,1,2,4
org.mockito.exceptions.misusing.MissingMethodInvocationException,<init>,<java.lang.String>,1,2,4
org.mockito.exceptions.misusing.MockitoConfigurationException,<init>,<java.lang.String>,1,2,4
org.mockito.exceptions.misusing.MockitoConfigurationException,<init>,<java.lang.String;java.lang.Exception>,2,3,5
org.mockito.exceptions.misusing.NotAMockException,<init>,<java.lang.String>,1,2,4
org.mockito.exceptions.misusing.NullInsteadOfMockException,<init>,<java.lang.String>,1,2,4
org.mockito.exceptions.misusing.UnfinishedStubbingException,<init>,<java.lang.String>,1,2,4
org.mockito.exceptions.misusing.UnfinishedVerificationException,<init>,<java.lang.String>,1,2,4
org.mockito.exceptions.misusing.WrongTypeOfReturnValue,<init>,<java.lang.String>,1,2,4
org.mockito.exceptions.verification.ArgumentsAreDifferent,<init>,<java.lang.String>,1,2,4
org.mockito.exceptions.verification.NeverWantedButInvoked,<init>,<java.lang.String>,1,2,4
org.mockito.exceptions.verification.NoInteractionsWanted,<init>,<java.lang.String>,1,2,4
org.mockito.exceptions.verification.SmartNullPointerException,<init>,<java.lang.String>,1,2,4
org.mockito.exceptions.verification.TooLittleActualInvocations,<init>,<java.lang.String>,1,2,4
org.mockito.exceptions.verification.TooManyActualInvocations,<init>,<java.lang.String>,1,2,4
org.mockito.exceptions.verification.VerificationInOrderFailure,<init>,<java.lang.String>,1,2,4
org.mockito.exceptions.verification.WantedButNotInvoked,<init>,<java.lang.String>,1,2,4
org.mockito.exceptions.verification.junit.ArgumentsAreDifferent,<init>,<java.lang.String;java.lang.String;java.lang.String>,3,5,20
org.mockito.exceptions.verification.junit.ArgumentsAreDifferent,getMessage,<>,0,1,3
org.mockito.exceptions.verification.junit.ArgumentsAreDifferent,getUnfilteredStackTrace,<>,0,1,3
org.mockito.exceptions.verification.junit.JUnitTool,<init>,<>,0,1,3
org.mockito.exceptions.verification.junit.JUnitTool,hasJUnit,<>,0,0,2
org.mockito.exceptions.verification.junit.JUnitTool,createArgumentsAreDifferentException,<java.lang.String;java.lang.String;java.lang.String>,3,6,32
org.mockito.exceptions.verification.junit.JUnitTool,<clinit>,<>,0,1,10
org.mockito.internal.InOrderImpl,<init>,<java.util.List>,1,2,23
org.mockito.internal.InOrderImpl,verify,<java.lang.Object>,1,2,6
org.mockito.internal.InOrderImpl,verify,<java.lang.Object;org.mockito.internal.verification.api.VerificationMode>,2,3,38
org.mockito.internal.MockHandler,<init>,<org.mockito.internal.util.MockName;org.mockito.internal.progress.MockingProgress;org.mockito.internal.invocation.MatchersBinder;org.mockito.internal.creation.MockSettingsImpl>,4,5,26
org.mockito.internal.MockHandler,<init>,<org.mockito.internal.MockHandler>,1,2,11
org.mockito.internal.MockHandler,intercept,<java.lang.Object;java.lang.reflect.Method;java.lang.Object[];org.mockito.cglib.proxy.MethodProxy>,4,14,131
org.mockito.internal.MockHandler,verifyNoMoreInteractions,<>,0,2,12
org.mockito.internal.MockHandler,voidMethodStubbable,<java.lang.Object>,1,2,7
org.mockito.internal.MockHandler,getRegisteredInvocations,<>,0,1,4
org.mockito.internal.MockHandler,getMockName,<>,0,1,3
org.mockito.internal.MockHandler,setAnswersForStubbing,<java.util.List>,1,2,5
org.mockito.internal.MockitoCore,<init>,<>,0,1,18
org.mockito.internal.MockitoCore,mock,<java.lang.Class;org.mockito.MockSettings>,2,3,15
org.mockito.internal.MockitoCore,stub,<>,0,2,14
org.mockito.internal.MockitoCore,stub,<java.lang.Object>,1,2,7
org.mockito.internal.MockitoCore,when,<java.lang.Object>,1,2,7
org.mockito.internal.MockitoCore,verify,<java.lang.Object;org.mockito.internal.verification.api.VerificationMode>,2,3,20
org.mockito.internal.MockitoCore,reset,<java.lang.Object[]>,1,6,32
org.mockito.internal.MockitoCore,verifyNoMoreInteractions,<java.lang.Object[]>,1,7,38
org.mockito.internal.MockitoCore,assertMocksNotEmpty,<java.lang.Object[]>,1,2,9
org.mockito.internal.MockitoCore,inOrder,<java.lang.Object[]>,1,7,46
org.mockito.internal.MockitoCore,doAnswer,<org.mockito.stubbing.Answer>,1,2,12
org.mockito.internal.MockitoCore,stubVoid,<java.lang.Object>,1,3,12
org.mockito.internal.MockitoCore,validateMockitoUsage,<>,0,1,4
org.mockito.internal.MockitoCore,getLastInvocation,<>,0,3,17
org.mockito.internal.configuration.ClassPathLoader,<init>,<>,0,1,3
org.mockito.internal.configuration.ClassPathLoader,loadConfiguration,<>,0,5,27
org.mockito.internal.configuration.DefaultAnnotationEngine,<init>,<>,0,1,3
org.mockito.internal.configuration.DefaultAnnotationEngine,createMockFor,<java.lang.annotation.Annotation;java.lang.reflect.Field>,2,3,14
org.mockito.internal.configuration.GlobalConfiguration,getIt,<>,0,1,4
org.mockito.internal.configuration.GlobalConfiguration,<init>,<>,0,1,10
org.mockito.internal.configuration.GlobalConfiguration,createConfig,<>,0,3,15
org.mockito.internal.configuration.GlobalConfiguration,validate,<>,0,0,5
org.mockito.internal.configuration.GlobalConfiguration,getReturnValues,<>,0,1,5
org.mockito.internal.configuration.GlobalConfiguration,getAnnotationEngine,<>,0,1,5
org.mockito.internal.configuration.GlobalConfiguration,cleansStackTrace,<>,0,1,5
org.mockito.internal.configuration.GlobalConfiguration,getDefaultAnswer,<>,0,1,5
org.mockito.internal.configuration.GlobalConfiguration,<clinit>,<>,0,0,5
org.mockito.internal.creation.ClassNameFinder,<init>,<>,0,1,3
org.mockito.internal.creation.ClassNameFinder,classNameForMock,<java.lang.Object>,1,1,18
org.mockito.internal.creation.MethodInterceptorFilter,<init>,<java.lang.Class;org.mockito.cglib.proxy.MethodInterceptor>,2,4,36
org.mockito.internal.creation.MethodInterceptorFilter,intercept,<java.lang.Object;java.lang.reflect.Method;java.lang.Object[];org.mockito.cglib.proxy.MethodProxy>,4,5,38
org.mockito.internal.creation.MethodInterceptorFilter,hashCodeForMock,<java.lang.Object>,1,2,7
org.mockito.internal.creation.MethodInterceptorFilter,getDelegate,<>,0,1,3
org.mockito.internal.creation.MockSettingsImpl,<init>,<>,0,1,3
org.mockito.internal.creation.MockSettingsImpl,extraInterfaces,<java.lang.Class[]>,1,6,45
org.mockito.internal.creation.MockSettingsImpl,getMockName,<>,0,1,3
org.mockito.internal.creation.MockSettingsImpl,getExtraInterfaces,<>,0,1,3
org.mockito.internal.creation.MockSettingsImpl,getSpiedInstance,<>,0,1,3
org.mockito.internal.creation.MockSettingsImpl,name,<java.lang.String>,1,2,5
org.mockito.internal.creation.MockSettingsImpl,spiedInstance,<java.lang.Object>,1,2,5
org.mockito.internal.creation.MockSettingsImpl,defaultAnswer,<org.mockito.stubbing.Answer>,1,2,5
org.mockito.internal.creation.MockSettingsImpl,getDefaultAnswer,<>,0,1,3
org.mockito.internal.creation.cglib.CGLIBHacker,<init>,<>,0,1,3
org.mockito.internal.creation.cglib.CGLIBHacker,setMockitoNamingPolicy,<org.mockito.cglib.proxy.MethodProxy>,1,6,36
org.mockito.internal.creation.cglib.CGLIBHacker,reflectOnCreateInfo,<org.mockito.cglib.proxy.MethodProxy>,1,3,15
org.mockito.internal.creation.cglib.MockitoNamingPolicy,<init>,<>,0,1,3
org.mockito.internal.creation.cglib.MockitoNamingPolicy,getTag,<>,0,1,2
org.mockito.internal.creation.cglib.MockitoNamingPolicy,<clinit>,<>,0,0,5
org.mockito.internal.creation.jmock.ClassImposterizer$1,<init>,<>,0,1,3
org.mockito.internal.creation.jmock.ClassImposterizer$1,getClassName,<java.lang.String;java.lang.String;java.lang.Object;org.mockito.cglib.core.Predicate>,4,5,14
org.mockito.internal.creation.jmock.ClassImposterizer$2,<init>,<>,0,1,3
org.mockito.internal.creation.jmock.ClassImposterizer$2,accept,<java.lang.reflect.Method>,1,2,7
org.mockito.internal.creation.jmock.ClassImposterizer$3,<init>,<org.mockito.internal.creation.jmock.ClassImposterizer>,1,1,6
org.mockito.internal.creation.jmock.ClassImposterizer$3,filterConstructors,<java.lang.Class;java.util.List>,2,3,1
org.mockito.internal.creation.jmock.ClassImposterizer$ClassWithSuperclassToWorkAroundCglibBug,<init>,<>,0,1,3
org.mockito.internal.creation.jmock.ClassImposterizer,<init>,<>,0,1,8
org.mockito.internal.creation.jmock.ClassImposterizer,canImposterise,<java.lang.Class>,1,2,14
org.mockito.internal.creation.jmock.ClassImposterizer,imposterise,<org.mockito.cglib.proxy.MethodInterceptor;java.lang.Class;java.lang.Class[]>,3,5,29
org.mockito.internal.creation.jmock.ClassImposterizer,setConstructorsAccessible,<java.lang.Class;boolean>,2,7,21
org.mockito.internal.creation.jmock.ClassImposterizer,createProxyClass,<java.lang.Class;java.lang.Class[]>,2,5,106
org.mockito.internal.creation.jmock.ClassImposterizer,createProxy,<java.lang.Class;org.mockito.cglib.proxy.MethodInterceptor>,2,4,20
org.mockito.internal.creation.jmock.ClassImposterizer,prepend,<java.lang.Class;java.lang.Class[]>,2,4,19
org.mockito.internal.creation.jmock.ClassImposterizer,<clinit>,<>,0,0,13
org.mockito.internal.creation.jmock.SearchingClassLoader,<init>,<java.lang.ClassLoader;java.lang.ClassLoader>,2,3,7
org.mockito.internal.creation.jmock.SearchingClassLoader,combineLoadersOf,<java.lang.Class[]>,1,1,6
org.mockito.internal.creation.jmock.SearchingClassLoader,combineLoadersOf,<java.lang.Class;java.lang.Class[]>,2,7,39
org.mockito.internal.creation.jmock.SearchingClassLoader,combine,<java.util.List>,1,3,28
org.mockito.internal.creation.jmock.SearchingClassLoader,addIfNewElement,<java.util.List;java.lang.ClassLoader>,2,2,11
org.mockito.internal.creation.jmock.SearchingClassLoader,findClass,<java.lang.String>,1,2,12
org.mockito.internal.debugging.DebuggingInfo,<init>,<>,0,1,13
org.mockito.internal.debugging.DebuggingInfo,addStubbedInvocation,<org.mockito.internal.invocation.Invocation>,1,4,29
org.mockito.internal.debugging.DebuggingInfo,addPotentiallyUnstubbed,<org.mockito.internal.invocation.InvocationMatcher>,1,2,10
org.mockito.internal.debugging.DebuggingInfo,reportUsedStub,<org.mockito.internal.invocation.InvocationMatcher>,1,4,19
org.mockito.internal.debugging.DebuggingInfo,collectData,<>,0,1,4
org.mockito.internal.debugging.DebuggingInfo,clearData,<>,0,1,10
org.mockito.internal.debugging.DebuggingInfo,printWarnings,<org.mockito.internal.util.MockitoLogger>,1,3,15
org.mockito.internal.debugging.DebuggingInfo,hasData,<>,0,1,12
org.mockito.internal.debugging.Localized,<init>,<java.lang.Object>,1,2,11
org.mockito.internal.debugging.Localized,getObject,<>,0,1,3
org.mockito.internal.debugging.Localized,getLocation,<>,0,1,3
org.mockito.internal.debugging.Location,<init>,<>,0,3,18
org.mockito.internal.debugging.Location,toString,<>,0,1,11
org.mockito.internal.debugging.WarningsPrinter,<init>,<java.util.List;java.util.List>,2,3,15
org.mockito.internal.debugging.WarningsPrinter,print,<org.mockito.internal.util.MockitoLogger>,1,10,73
org.mockito.internal.debugging.WarningsPrinter,thisStubWasNotUsed,<org.mockito.internal.invocation.Invocation>,1,2,21
org.mockito.internal.debugging.WarningsPrinter,thisMethodWasNotStubbed,<org.mockito.internal.invocation.InvocationMatcher>,1,2,22
org.mockito.internal.debugging.WarningsPrinter,stubbedMethodCalledWithDifferentArguments,<org.mockito.internal.invocation.Invocation;org.mockito.internal.invocation.InvocationMatcher>,2,3,43
org.mockito.internal.exceptions.base.ConditionalStackTraceFilter,<init>,<>,0,1,13
org.mockito.internal.exceptions.base.ConditionalStackTraceFilter,filter,<java.lang.Throwable>,1,3,16
org.mockito.internal.exceptions.base.StackTraceFilter,<init>,<>,0,1,3
org.mockito.internal.exceptions.base.StackTraceFilter,isBad,<java.lang.StackTraceElement>,1,6,32
org.mockito.internal.exceptions.base.StackTraceFilter,filter,<java.lang.StackTraceElement[];boolean>,2,11,68
org.mockito.internal.invocation.AllInvocationsFinder$SequenceNumberComparator,<init>,<org.mockito.internal.invocation.AllInvocationsFinder>,1,1,6
org.mockito.internal.invocation.AllInvocationsFinder$SequenceNumberComparator,compare,<org.mockito.internal.invocation.Invocation;org.mockito.internal.invocation.Invocation>,2,4,17
org.mockito.internal.invocation.AllInvocationsFinder$SequenceNumberComparator,compare,<java.lang.Object;java.lang.Object>,2,3,7
org.mockito.internal.invocation.AllInvocationsFinder$SequenceNumberComparator,<init>,<org.mockito.internal.invocation.AllInvocationsFinder;org.mockito.internal.invocation.AllInvocationsFinder$1>,2,3,4
org.mockito.internal.invocation.AllInvocationsFinder$SequenceNumberComparator,<clinit>,<>,0,0,8
org.mockito.internal.invocation.AllInvocationsFinder,<init>,<>,0,1,3
org.mockito.internal.invocation.AllInvocationsFinder,getAllInvocations,<java.util.List>,1,6,35
org.mockito.internal.invocation.Invocation,<init>,<java.lang.Object;java.lang.reflect.Method;java.lang.Object[];int;org.mockito.internal.invocation.realmethod.RealMethod>,5,6,29
org.mockito.internal.invocation.Invocation,expandVarArgs,<boolean;java.lang.Object[]>,2,7,71
org.mockito.internal.invocation.Invocation,getMock,<>,0,1,3
org.mockito.internal.invocation.Invocation,getMethod,<>,0,1,3
org.mockito.internal.invocation.Invocation,getArguments,<>,0,1,3
org.mockito.internal.invocation.Invocation,markVerified,<>,0,1,4
org.mockito.internal.invocation.Invocation,isVerified,<>,0,1,3
org.mockito.internal.invocation.Invocation,getSequenceNumber,<>,0,1,4
org.mockito.internal.invocation.Invocation,markVerifiedInOrder,<>,0,1,6
org.mockito.internal.invocation.Invocation,isVerifiedInOrder,<>,0,1,3
org.mockito.internal.invocation.Invocation,equals,<java.lang.Object>,1,3,34
org.mockito.internal.invocation.Invocation,equalArguments,<java.lang.Object[]>,1,2,5
org.mockito.internal.invocation.Invocation,hashCode,<>,0,1,5
org.mockito.internal.invocation.Invocation,toString,<>,0,1,8
org.mockito.internal.invocation.Invocation,toString,<java.util.List;org.mockito.internal.reporting.PrintSettings>,2,6,43
org.mockito.internal.invocation.Invocation,qualifiedMethodName,<>,0,1,18
org.mockito.internal.invocation.Invocation,argumentsToMatchers,<>,0,6,47
org.mockito.internal.invocation.Invocation,isToString,<org.mockito.invocation.InvocationOnMock>,1,1,4
org.mockito.internal.invocation.Invocation,isToString,<java.lang.reflect.Method>,1,1,17
org.mockito.internal.invocation.Invocation,isValidException,<java.lang.Throwable>,1,8,31
org.mockito.internal.invocation.Invocation,isValidReturnType,<java.lang.Class>,1,2,21
org.mockito.internal.invocation.Invocation,isVoid,<>,0,1,9
org.mockito.internal.invocation.Invocation,printMethodReturnType,<>,0,1,5
org.mockito.internal.invocation.Invocation,getMethodName,<>,0,1,4
org.mockito.internal.invocation.Invocation,returnsPrimitive,<>,0,1,5
org.mockito.internal.invocation.Invocation,getLocation,<>,0,1,3
org.mockito.internal.invocation.Invocation,getArgumentsCount,<>,0,1,4
org.mockito.internal.invocation.Invocation,getRawArguments,<>,0,1,3
org.mockito.internal.invocation.Invocation,callRealMethod,<>,0,1,8
org.mockito.internal.invocation.Invocation,toString,<org.mockito.internal.reporting.PrintSettings>,1,2,6
org.mockito.internal.invocation.InvocationMatcher,<init>,<org.mockito.internal.invocation.Invocation;java.util.List>,2,3,17
org.mockito.internal.invocation.InvocationMatcher,<init>,<org.mockito.internal.invocation.Invocation>,1,2,5
org.mockito.internal.invocation.InvocationMatcher,getMethod,<>,0,1,4
org.mockito.internal.invocation.InvocationMatcher,getInvocation,<>,0,1,3
org.mockito.internal.invocation.InvocationMatcher,getMatchers,<>,0,1,3
org.mockito.internal.invocation.InvocationMatcher,toString,<>,0,1,9
org.mockito.internal.invocation.InvocationMatcher,matches,<org.mockito.internal.invocation.Invocation>,1,2,20
org.mockito.internal.invocation.InvocationMatcher,argumentsMatch,<java.lang.Object[]>,1,3,30
org.mockito.internal.invocation.InvocationMatcher,safelyArgumentsMatch,<java.lang.Object[]>,1,3,7
org.mockito.internal.invocation.InvocationMatcher,hasSimilarMethod,<org.mockito.internal.invocation.Invocation>,1,9,56
org.mockito.internal.invocation.InvocationMatcher,hasSameMethod,<org.mockito.internal.invocation.Invocation>,1,2,7
org.mockito.internal.invocation.InvocationMatcher,getLocation,<>,0,1,4
org.mockito.internal.invocation.InvocationMatcher,toString,<org.mockito.internal.reporting.PrintSettings>,1,2,7
org.mockito.internal.invocation.InvocationsFinder$RemoveNotMatching,<init>,<org.mockito.internal.invocation.InvocationsFinder;org.mockito.internal.invocation.InvocationMatcher>,2,2,9
org.mockito.internal.invocation.InvocationsFinder$RemoveNotMatching,isOut,<org.mockito.internal.invocation.Invocation>,1,2,9
org.mockito.internal.invocation.InvocationsFinder$RemoveNotMatching,isOut,<java.lang.Object>,1,2,5
org.mockito.internal.invocation.InvocationsFinder$RemoveNotMatching,<init>,<org.mockito.internal.invocation.InvocationsFinder;org.mockito.internal.invocation.InvocationMatcher;org.mockito.internal.invocation.InvocationsFinder$1>,3,4,5
org.mockito.internal.invocation.InvocationsFinder$RemoveUnverifiedInOrder,<init>,<org.mockito.internal.invocation.InvocationsFinder>,1,1,6
org.mockito.internal.invocation.InvocationsFinder$RemoveUnverifiedInOrder,isOut,<org.mockito.internal.invocation.Invocation>,1,2,7
org.mockito.internal.invocation.InvocationsFinder$RemoveUnverifiedInOrder,isOut,<java.lang.Object>,1,2,5
org.mockito.internal.invocation.InvocationsFinder$RemoveUnverifiedInOrder,<init>,<org.mockito.internal.invocation.InvocationsFinder;org.mockito.internal.invocation.InvocationsFinder$1>,2,3,4
org.mockito.internal.invocation.InvocationsFinder,<init>,<>,0,1,3
org.mockito.internal.invocation.InvocationsFinder,findInvocations,<java.util.List;org.mockito.internal.invocation.InvocationMatcher>,2,3,9
org.mockito.internal.invocation.InvocationsFinder,findAllMatchingUnverifiedChunks,<java.util.List;org.mockito.internal.invocation.InvocationMatcher>,2,4,13
org.mockito.internal.invocation.InvocationsFinder,findMatchingChunk,<java.util.List;org.mockito.internal.invocation.InvocationMatcher;int>,3,6,20
org.mockito.internal.invocation.InvocationsFinder,getFirstMatchingChunk,<org.mockito.internal.invocation.InvocationMatcher;java.util.List>,2,6,30
org.mockito.internal.invocation.InvocationsFinder,findSimilarInvocation,<java.util.List;org.mockito.internal.invocation.InvocationMatcher>,2,6,30
org.mockito.internal.invocation.InvocationsFinder,findFirstUnverified,<java.util.List>,1,2,5
org.mockito.internal.invocation.InvocationsFinder,findFirstUnverified,<java.util.List;java.lang.Object>,2,6,30
org.mockito.internal.invocation.InvocationsFinder,getLastLocation,<java.util.List>,1,3,16
org.mockito.internal.invocation.InvocationsFinder,findPreviousVerifiedInOrder,<java.util.List>,1,3,17
org.mockito.internal.invocation.InvocationsFinder,removeVerifiedInOrder,<java.util.List>,1,5,27
org.mockito.internal.invocation.MatchersBinder,<init>,<>,0,1,3
org.mockito.internal.invocation.MatchersBinder,bindMatchers,<org.mockito.internal.progress.ArgumentMatcherStorage;org.mockito.internal.invocation.Invocation>,2,5,15
org.mockito.internal.invocation.MatchersBinder,validateMatchers,<org.mockito.internal.invocation.Invocation;java.util.List>,2,5,19
org.mockito.internal.invocation.realmethod.CGLIBProxyRealMethod,<init>,<org.mockito.cglib.proxy.MethodProxy>,1,2,6
org.mockito.internal.invocation.realmethod.CGLIBProxyRealMethod,invoke,<java.lang.Object;java.lang.Object[]>,2,3,6
org.mockito.internal.invocation.realmethod.CGLIBProxyRealMethod,getMethodProxy,<>,0,1,3
org.mockito.internal.invocation.realmethod.FilteredCGLIBProxyRealMethod,<init>,<org.mockito.cglib.proxy.MethodProxy>,1,2,7
org.mockito.internal.invocation.realmethod.FilteredCGLIBProxyRealMethod,<init>,<org.mockito.internal.invocation.realmethod.RealMethod>,1,2,6
org.mockito.internal.invocation.realmethod.FilteredCGLIBProxyRealMethod,invoke,<java.lang.Object;java.lang.Object[]>,2,4,14
org.mockito.internal.invocation.realmethod.FilteredCGLIBProxyRealMethod,getMethodProxy,<>,0,1,5
org.mockito.internal.invocation.realmethod.HasCGLIBMethodProxy,getMethodProxy,<>,0,0,0
org.mockito.internal.invocation.realmethod.RealMethod,invoke,<java.lang.Object;java.lang.Object[]>,2,0,0
org.mockito.internal.matchers.And,<init>,<java.util.List>,1,2,6
org.mockito.internal.matchers.And,matches,<java.lang.Object>,1,4,20
org.mockito.internal.matchers.And,describeTo,<org.hamcrest.Description>,1,3,29
org.mockito.internal.matchers.Any,<init>,<>,0,1,3
org.mockito.internal.matchers.Any,matches,<java.lang.Object>,1,2,2
org.mockito.internal.matchers.Any,describeTo,<org.hamcrest.Description>,1,2,5
org.mockito.internal.matchers.Any,<clinit>,<>,0,0,5
org.mockito.internal.matchers.ArrayEquals,<init>,<java.lang.Object>,1,2,4
org.mockito.internal.matchers.ArrayEquals,matches,<java.lang.Object>,1,3,139
org.mockito.internal.matchers.ArrayEquals,describeTo,<org.hamcrest.Description>,1,2,19
org.mockito.internal.matchers.ArrayEquals,appendArray,<java.lang.Object[];org.hamcrest.Description>,2,4,35
org.mockito.internal.matchers.ArrayEquals,createObjectArray,<java.lang.Object>,1,3,27
org.mockito.internal.matchers.CapturingMatcher,<init>,<>,0,1,8
org.mockito.internal.matchers.CapturingMatcher,matches,<java.lang.Object>,1,2,7
org.mockito.internal.matchers.CapturingMatcher,describeTo,<org.hamcrest.Description>,1,2,5
org.mockito.internal.matchers.CapturingMatcher,getLastValue,<>,0,1,16
org.mockito.internal.matchers.CapturingMatcher,getAllValues,<>,0,1,3
org.mockito.internal.matchers.CompareEqual,<init>,<java.lang.Comparable>,1,2,4
org.mockito.internal.matchers.CompareEqual,getName,<>,0,1,2
org.mockito.internal.matchers.CompareEqual,matchResult,<int>,1,2,6
org.mockito.internal.matchers.CompareTo,<init>,<java.lang.Comparable>,1,2,6
org.mockito.internal.matchers.CompareTo,matches,<java.lang.Object>,1,2,13
org.mockito.internal.matchers.CompareTo,describeTo,<org.hamcrest.Description>,1,2,18
org.mockito.internal.matchers.CompareTo,getName,<>,0,0,0
org.mockito.internal.matchers.CompareTo,matchResult,<int>,1,0,0
org.mockito.internal.matchers.Contains,<init>,<java.lang.String>,1,2,6
org.mockito.internal.matchers.Contains,matches,<java.lang.Object>,1,2,12
org.mockito.internal.matchers.Contains,describeTo,<org.hamcrest.Description>,1,2,15
org.mockito.internal.matchers.ContainsExtraTypeInformation,withExtraTypeInfo,<>,0,0,0
org.mockito.internal.matchers.ContainsExtraTypeInformation,typeMatches,<java.lang.Object>,1,0,0
org.mockito.internal.matchers.EndsWith,<init>,<java.lang.String>,1,2,6
org.mockito.internal.matchers.EndsWith,matches,<java.lang.Object>,1,2,12
org.mockito.internal.matchers.EndsWith,describeTo,<org.hamcrest.Description>,1,2,15
org.mockito.internal.matchers.Equals$1,<init>,<org.mockito.internal.matchers.Equals>,1,1,6
org.mockito.internal.matchers.Equals$1,describeTo,<org.hamcrest.Description>,1,2,25
org.mockito.internal.matchers.Equals,<init>,<java.lang.Object>,1,2,6
org.mockito.internal.matchers.Equals,matches,<java.lang.Object>,1,2,14
org.mockito.internal.matchers.Equals,describeTo,<org.hamcrest.Description>,1,2,8
org.mockito.internal.matchers.Equals,describe,<java.lang.Object>,1,3,37
org.mockito.internal.matchers.Equals,quoting,<>,0,1,14
org.mockito.internal.matchers.Equals,getWanted,<>,0,1,3
org.mockito.internal.matchers.Equals,equals,<java.lang.Object>,1,3,32
org.mockito.internal.matchers.Equals,hashCode,<>,0,1,5
org.mockito.internal.matchers.Equals,withExtraTypeInfo,<>,0,1,5
org.mockito.internal.matchers.Equals,typeMatches,<java.lang.Object>,1,2,15
org.mockito.internal.matchers.EqualsWithDelta,<init>,<java.lang.Number;java.lang.Number>,2,3,9
org.mockito.internal.matchers.EqualsWithDelta,matches,<java.lang.Object>,1,3,29
org.mockito.internal.matchers.EqualsWithDelta,describeTo,<org.hamcrest.Description>,1,2,20
org.mockito.internal.matchers.Find,<init>,<java.lang.String>,1,2,6
org.mockito.internal.matchers.Find,matches,<java.lang.Object>,1,2,14
org.mockito.internal.matchers.Find,describeTo,<org.hamcrest.Description>,1,2,18
org.mockito.internal.matchers.GreaterOrEqual,<init>,<java.lang.Comparable>,1,2,4
org.mockito.internal.matchers.GreaterOrEqual,getName,<>,0,1,2
org.mockito.internal.matchers.GreaterOrEqual,matchResult,<int>,1,2,6
org.mockito.internal.matchers.GreaterThan,<init>,<java.lang.Comparable>,1,2,4
org.mockito.internal.matchers.GreaterThan,getName,<>,0,1,2
org.mockito.internal.matchers.GreaterThan,matchResult,<int>,1,2,6
org.mockito.internal.matchers.InstanceOf,<init>,<java.lang.Class>,1,2,6
org.mockito.internal.matchers.InstanceOf,matches,<java.lang.Object>,1,2,12
org.mockito.internal.matchers.InstanceOf,describeTo,<org.hamcrest.Description>,1,2,16
org.mockito.internal.matchers.LessOrEqual,<init>,<java.lang.Comparable>,1,2,4
org.mockito.internal.matchers.LessOrEqual,getName,<>,0,1,2
org.mockito.internal.matchers.LessOrEqual,matchResult,<int>,1,2,6
org.mockito.internal.matchers.LessThan,<init>,<java.lang.Comparable>,1,2,4
org.mockito.internal.matchers.LessThan,getName,<>,0,1,2
org.mockito.internal.matchers.LessThan,matchResult,<int>,1,2,6
org.mockito.internal.matchers.LocalizedMatcher,<init>,<org.hamcrest.Matcher>,1,2,11
org.mockito.internal.matchers.LocalizedMatcher,_dont_implement_Matcher___instead_extend_BaseMatcher_,<>,0,1,1
org.mockito.internal.matchers.LocalizedMatcher,matches,<java.lang.Object>,1,2,5
org.mockito.internal.matchers.LocalizedMatcher,describeTo,<org.hamcrest.Description>,1,2,5
org.mockito.internal.matchers.LocalizedMatcher,getLocation,<>,0,1,3
org.mockito.internal.matchers.LocalizedMatcher,toString,<>,0,1,10
org.mockito.internal.matchers.LocalizedMatcher,withExtraTypeInfo,<>,0,1,11
org.mockito.internal.matchers.LocalizedMatcher,typeMatches,<java.lang.Object>,1,2,12
org.mockito.internal.matchers.MatchersPrinter,<init>,<>,0,1,3
org.mockito.internal.matchers.MatchersPrinter,getArgumentsLine,<java.util.List;org.mockito.internal.reporting.PrintSettings>,2,4,17
org.mockito.internal.matchers.MatchersPrinter,getArgumentsBlock,<java.util.List;org.mockito.internal.reporting.PrintSettings>,2,4,17
org.mockito.internal.matchers.MatchersPrinter,applyPrintSettings,<java.util.List;org.mockito.internal.reporting.PrintSettings>,2,7,38
org.mockito.internal.matchers.Matches,<init>,<java.lang.String>,1,2,6
org.mockito.internal.matchers.Matches,matches,<java.lang.Object>,1,2,13
org.mockito.internal.matchers.Matches,describeTo,<org.hamcrest.Description>,1,2,18
org.mockito.internal.matchers.Not,<init>,<org.hamcrest.Matcher>,1,2,6
org.mockito.internal.matchers.Not,matches,<java.lang.Object>,1,2,9
org.mockito.internal.matchers.Not,describeTo,<org.hamcrest.Description>,1,2,13
org.mockito.internal.matchers.NotNull,<init>,<>,0,1,3
org.mockito.internal.matchers.NotNull,matches,<java.lang.Object>,1,2,6
org.mockito.internal.matchers.NotNull,describeTo,<org.hamcrest.Description>,1,2,5
org.mockito.internal.matchers.NotNull,<clinit>,<>,0,0,5
org.mockito.internal.matchers.Null,<init>,<>,0,1,3
org.mockito.internal.matchers.Null,matches,<java.lang.Object>,1,2,6
org.mockito.internal.matchers.Null,describeTo,<org.hamcrest.Description>,1,2,5
org.mockito.internal.matchers.Null,<clinit>,<>,0,0,5
org.mockito.internal.matchers.Or,<init>,<java.util.List>,1,2,6
org.mockito.internal.matchers.Or,matches,<java.lang.Object>,1,4,20
org.mockito.internal.matchers.Or,describeTo,<org.hamcrest.Description>,1,3,29
org.mockito.internal.matchers.Same,<init>,<java.lang.Object>,1,2,6
org.mockito.internal.matchers.Same,matches,<java.lang.Object>,1,2,8
org.mockito.internal.matchers.Same,describeTo,<org.hamcrest.Description>,1,2,21
org.mockito.internal.matchers.Same,appendQuoting,<org.hamcrest.Description>,1,2,18
org.mockito.internal.matchers.StartsWith,<init>,<java.lang.String>,1,2,6
org.mockito.internal.matchers.StartsWith,matches,<java.lang.Object>,1,2,12
org.mockito.internal.matchers.StartsWith,describeTo,<org.hamcrest.Description>,1,2,15
org.mockito.internal.matchers.apachecommons.EqualsBuilder,<init>,<>,0,1,6
org.mockito.internal.matchers.apachecommons.EqualsBuilder,reflectionEquals,<java.lang.Object;java.lang.Object>,2,2,7
org.mockito.internal.matchers.apachecommons.EqualsBuilder,reflectionEquals,<java.lang.Object;java.lang.Object;java.lang.String[]>,3,3,7
org.mockito.internal.matchers.apachecommons.EqualsBuilder,reflectionEquals,<java.lang.Object;java.lang.Object;boolean>,3,3,7
org.mockito.internal.matchers.apachecommons.EqualsBuilder,reflectionEquals,<java.lang.Object;java.lang.Object;boolean;java.lang.Class>,4,4,7
org.mockito.internal.matchers.apachecommons.EqualsBuilder,reflectionEquals,<java.lang.Object;java.lang.Object;boolean;java.lang.Class;java.lang.String[]>,5,12,80
org.mockito.internal.matchers.apachecommons.EqualsBuilder,reflectionAppend,<java.lang.Object;java.lang.Object;java.lang.Class;org.mockito.internal.matchers.apachecommons.EqualsBuilder;boolean;java.lang.String[]>,6,11,66
org.mockito.internal.matchers.apachecommons.EqualsBuilder,appendSuper,<boolean>,1,2,10
org.mockito.internal.matchers.apachecommons.EqualsBuilder,append,<java.lang.Object;java.lang.Object>,2,4,173
org.mockito.internal.matchers.apachecommons.EqualsBuilder,append,<long;long>,2,3,16
org.mockito.internal.matchers.apachecommons.EqualsBuilder,append,<int;int>,2,3,15
org.mockito.internal.matchers.apachecommons.EqualsBuilder,append,<short;short>,2,3,15
org.mockito.internal.matchers.apachecommons.EqualsBuilder,append,<char;char>,2,3,15
org.mockito.internal.matchers.apachecommons.EqualsBuilder,append,<byte;byte>,2,3,15
org.mockito.internal.matchers.apachecommons.EqualsBuilder,append,<double;double>,2,3,12
org.mockito.internal.matchers.apachecommons.EqualsBuilder,append,<float;float>,2,3,12
org.mockito.internal.matchers.apachecommons.EqualsBuilder,append,<boolean;boolean>,2,3,15
org.mockito.internal.matchers.apachecommons.EqualsBuilder,append,<java.lang.Object[];java.lang.Object[]>,2,4,51
org.mockito.internal.matchers.apachecommons.EqualsBuilder,append,<long[];long[]>,2,4,51
org.mockito.internal.matchers.apachecommons.EqualsBuilder,append,<int[];int[]>,2,4,51
org.mockito.internal.matchers.apachecommons.EqualsBuilder,append,<short[];short[]>,2,4,51
org.mockito.internal.matchers.apachecommons.EqualsBuilder,append,<char[];char[]>,2,4,51
org.mockito.internal.matchers.apachecommons.EqualsBuilder,append,<byte[];byte[]>,2,4,51
org.mockito.internal.matchers.apachecommons.EqualsBuilder,append,<double[];double[]>,2,4,51
org.mockito.internal.matchers.apachecommons.EqualsBuilder,append,<float[];float[]>,2,4,51
org.mockito.internal.matchers.apachecommons.EqualsBuilder,append,<boolean[];boolean[]>,2,4,51
org.mockito.internal.matchers.apachecommons.EqualsBuilder,isEquals,<>,0,1,3
org.mockito.internal.matchers.apachecommons.EqualsBuilder,setEquals,<boolean>,1,2,4
org.mockito.internal.matchers.apachecommons.ReflectionEquals,<init>,<java.lang.Object;java.lang.String[]>,2,3,9
org.mockito.internal.matchers.apachecommons.ReflectionEquals,matches,<java.lang.Object>,1,2,7
org.mockito.internal.matchers.apachecommons.ReflectionEquals,describeTo,<org.hamcrest.Description>,1,2,15
org.mockito.internal.progress.ArgumentMatcherStorage,reportMatcher,<org.hamcrest.Matcher>,1,0,0
org.mockito.internal.progress.ArgumentMatcherStorage,pullMatchers,<>,0,0,0
org.mockito.internal.progress.ArgumentMatcherStorage,reportAnd,<>,0,0,0
org.mockito.internal.progress.ArgumentMatcherStorage,reportNot,<>,0,0,0
org.mockito.internal.progress.ArgumentMatcherStorage,reportOr,<>,0,0,0
org.mockito.internal.progress.ArgumentMatcherStorage,validateState,<>,0,0,0
org.mockito.internal.progress.ArgumentMatcherStorage,reset,<>,0,0,0
org.mockito.internal.progress.ArgumentMatcherStorageImpl,<init>,<>,0,1,8
org.mockito.internal.progress.ArgumentMatcherStorageImpl,reportMatcher,<org.hamcrest.Matcher>,1,2,12
org.mockito.internal.progress.ArgumentMatcherStorageImpl,pullMatchers,<>,0,2,17
org.mockito.internal.progress.ArgumentMatcherStorageImpl,reportAnd,<>,0,2,29
org.mockito.internal.progress.ArgumentMatcherStorageImpl,reportNot,<>,0,2,32
org.mockito.internal.progress.ArgumentMatcherStorageImpl,popLastArgumentMatchers,<int>,1,4,67
org.mockito.internal.progress.ArgumentMatcherStorageImpl,assertState,<boolean;java.lang.String>,2,3,11
org.mockito.internal.progress.ArgumentMatcherStorageImpl,reportOr,<>,0,2,29
org.mockito.internal.progress.ArgumentMatcherStorageImpl,validateState,<>,0,2,19
org.mockito.internal.progress.ArgumentMatcherStorageImpl,reset,<>,0,1,4
org.mockito.internal.progress.HandyReturnValues,<init>,<>,0,1,3
org.mockito.internal.progress.HandyReturnValues,returnZero,<>,0,1,2
org.mockito.internal.progress.HandyReturnValues,returnChar,<>,0,1,2
org.mockito.internal.progress.HandyReturnValues,returnNull,<>,0,1,2
org.mockito.internal.progress.HandyReturnValues,returnFalse,<>,0,1,2
org.mockito.internal.progress.HandyReturnValues,returnString,<>,0,1,2
org.mockito.internal.progress.HandyReturnValues,returnMap,<>,0,1,4
org.mockito.internal.progress.HandyReturnValues,returnList,<>,0,1,4
org.mockito.internal.progress.HandyReturnValues,returnSet,<>,0,1,4
org.mockito.internal.progress.MockingProgress,reportOngoingStubbing,<org.mockito.internal.progress.IOngoingStubbing>,1,0,0
org.mockito.internal.progress.MockingProgress,pullOngoingStubbing,<>,0,0,0
org.mockito.internal.progress.MockingProgress,verificationStarted,<org.mockito.internal.verification.api.VerificationMode>,1,0,0
org.mockito.internal.progress.MockingProgress,pullVerificationMode,<>,0,0,0
org.mockito.internal.progress.MockingProgress,stubbingStarted,<>,0,0,0
org.mockito.internal.progress.MockingProgress,stubbingCompleted,<org.mockito.internal.invocation.Invocation>,1,0,0
org.mockito.internal.progress.MockingProgress,validateState,<>,0,0,0
org.mockito.internal.progress.MockingProgress,reset,<>,0,0,0
org.mockito.internal.progress.MockingProgress,resetOngoingStubbing,<>,0,0,0
org.mockito.internal.progress.MockingProgress,getArgumentMatcherStorage,<>,0,0,0
org.mockito.internal.progress.MockingProgress,getDebuggingInfo,<>,0,0,0
org.mockito.internal.progress.MockingProgressImpl,<init>,<>,0,1,21
org.mockito.internal.progress.MockingProgressImpl,reportOngoingStubbing,<org.mockito.internal.progress.IOngoingStubbing>,1,2,4
org.mockito.internal.progress.MockingProgressImpl,pullOngoingStubbing,<>,0,2,8
org.mockito.internal.progress.MockingProgressImpl,verificationStarted,<org.mockito.internal.verification.api.VerificationMode>,1,2,11
org.mockito.internal.progress.MockingProgressImpl,resetOngoingStubbing,<>,0,1,4
org.mockito.internal.progress.MockingProgressImpl,pullVerificationMode,<>,0,2,15
org.mockito.internal.progress.MockingProgressImpl,stubbingStarted,<>,0,1,8
org.mockito.internal.progress.MockingProgressImpl,validateState,<>,0,3,32
org.mockito.internal.progress.MockingProgressImpl,stubbingCompleted,<org.mockito.internal.invocation.Invocation>,1,2,8
org.mockito.internal.progress.MockingProgressImpl,toString,<>,0,1,20
org.mockito.internal.progress.MockingProgressImpl,reset,<>,0,1,10
org.mockito.internal.progress.MockingProgressImpl,getArgumentMatcherStorage,<>,0,1,3
org.mockito.internal.progress.MockingProgressImpl,getDebuggingInfo,<>,0,1,3
org.mockito.internal.progress.SequenceNumber,<init>,<>,0,1,3
org.mockito.internal.progress.SequenceNumber,next,<>,0,0,6
org.mockito.internal.progress.SequenceNumber,<clinit>,<>,0,0,3
org.mockito.internal.progress.ThreadSafeMockingProgress,<init>,<>,0,1,3
org.mockito.internal.progress.ThreadSafeMockingProgress,threadSafely,<>,0,0,12
org.mockito.internal.progress.ThreadSafeMockingProgress,reportOngoingStubbing,<org.mockito.internal.progress.IOngoingStubbing>,1,2,4
org.mockito.internal.progress.ThreadSafeMockingProgress,pullOngoingStubbing,<>,0,1,3
org.mockito.internal.progress.ThreadSafeMockingProgress,verificationStarted,<org.mockito.internal.verification.api.VerificationMode>,1,2,4
org.mockito.internal.progress.ThreadSafeMockingProgress,pullVerificationMode,<>,0,1,3
org.mockito.internal.progress.ThreadSafeMockingProgress,stubbingStarted,<>,0,1,3
org.mockito.internal.progress.ThreadSafeMockingProgress,validateState,<>,0,1,3
org.mockito.internal.progress.ThreadSafeMockingProgress,stubbingCompleted,<org.mockito.internal.invocation.Invocation>,1,2,4
org.mockito.internal.progress.ThreadSafeMockingProgress,toString,<>,0,1,3
org.mockito.internal.progress.ThreadSafeMockingProgress,reset,<>,0,1,3
org.mockito.internal.progress.ThreadSafeMockingProgress,resetOngoingStubbing,<>,0,1,3
org.mockito.internal.progress.ThreadSafeMockingProgress,getArgumentMatcherStorage,<>,0,1,3
org.mockito.internal.progress.ThreadSafeMockingProgress,getDebuggingInfo,<>,0,1,3
org.mockito.internal.progress.ThreadSafeMockingProgress,<clinit>,<>,0,0,5
org.mockito.internal.reporting.PrintSettings,<init>,<>,0,1,8
org.mockito.internal.reporting.PrintSettings,setMultiline,<boolean>,1,2,4
org.mockito.internal.reporting.PrintSettings,isMultiline,<>,0,1,3
org.mockito.internal.reporting.PrintSettings,verboseMatchers,<java.lang.Integer[]>,1,2,9
org.mockito.internal.reporting.PrintSettings,extraTypeInfoFor,<int>,1,2,6
org.mockito.internal.reporting.PrintSettings,setMatchersToBeDescribedWithExtraTypeInfo,<java.lang.Integer[]>,1,2,5
org.mockito.internal.reporting.PrintingFriendlyInvocation,toString,<org.mockito.internal.reporting.PrintSettings>,1,0,0
org.mockito.internal.reporting.SmartPrinter,<init>,<org.mockito.internal.reporting.PrintingFriendlyInvocation;org.mockito.internal.reporting.PrintingFriendlyInvocation;java.lang.Integer[]>,3,5,35
org.mockito.internal.reporting.SmartPrinter,getWanted,<>,0,1,3
org.mockito.internal.reporting.SmartPrinter,getActual,<>,0,1,3
org.mockito.internal.runners.JUnit44RunnerImpl$1,<init>,<org.mockito.internal.runners.JUnit44RunnerImpl;java.lang.Class>,2,2,7
org.mockito.internal.runners.JUnit44RunnerImpl$1,createTest,<>,0,2,7
org.mockito.internal.runners.JUnit44RunnerImpl,<init>,<java.lang.Class>,1,2,10
org.mockito.internal.runners.JUnit44RunnerImpl,run,<org.junit.runner.notification.RunNotifier>,1,2,11
org.mockito.internal.runners.JUnit44RunnerImpl,getDescription,<>,0,1,4
org.mockito.internal.runners.JUnit45AndHigherRunnerImpl$1,<init>,<org.mockito.internal.runners.JUnit45AndHigherRunnerImpl;java.lang.Class>,2,2,7
org.mockito.internal.runners.JUnit45AndHigherRunnerImpl$1,withBefores,<org.junit.runners.model.FrameworkMethod;java.lang.Object;org.junit.runners.model.Statement>,3,4,8
org.mockito.internal.runners.JUnit45AndHigherRunnerImpl,<init>,<java.lang.Class>,1,2,10
org.mockito.internal.runners.JUnit45AndHigherRunnerImpl,run,<org.junit.runner.notification.RunNotifier>,1,2,11
org.mockito.internal.runners.JUnit45AndHigherRunnerImpl,getDescription,<>,0,1,4
org.mockito.internal.runners.RunnerFactory,<init>,<org.mockito.internal.runners.util.RunnerProvider>,1,2,6
org.mockito.internal.runners.RunnerFactory,<init>,<>,0,1,6
org.mockito.internal.runners.RunnerFactory,create,<java.lang.Class>,1,3,23
org.mockito.internal.runners.RunnerImpl,run,<org.junit.runner.notification.RunNotifier>,1,0,0
org.mockito.internal.runners.RunnerImpl,getDescription,<>,0,0,0
org.mockito.internal.runners.util.FrameworkUsageValidator,<init>,<org.junit.runner.notification.RunNotifier>,1,2,6
org.mockito.internal.runners.util.FrameworkUsageValidator,testFinished,<org.junit.runner.Description>,1,3,15
org.mockito.internal.runners.util.RunnerProvider,<init>,<>,0,1,3
org.mockito.internal.runners.util.RunnerProvider,isJUnit45OrHigherAvailable,<>,0,1,2
org.mockito.internal.runners.util.RunnerProvider,newInstance,<java.lang.String;java.lang.Class>,2,5,23
org.mockito.internal.runners.util.RunnerProvider,<clinit>,<>,0,1,10
org.mockito.internal.stubbing.BaseStubbing,<init>,<>,0,1,3
org.mockito.internal.stubbing.BaseStubbing,thenReturn,<java.lang.Object>,1,2,7
org.mockito.internal.stubbing.BaseStubbing,thenReturn,<java.lang.Object;java.lang.Object[]>,2,8,32
org.mockito.internal.stubbing.BaseStubbing,thenThrow,<java.lang.Throwable>,1,2,7
org.mockito.internal.stubbing.BaseStubbing,thenThrow,<java.lang.Throwable[]>,1,7,43
org.mockito.internal.stubbing.BaseStubbing,thenCallRealMethod,<>,0,1,6
org.mockito.internal.stubbing.BaseStubbing,toReturn,<java.lang.Object>,1,2,7
org.mockito.internal.stubbing.BaseStubbing,toThrow,<java.lang.Throwable>,1,2,7
org.mockito.internal.stubbing.ConsecutiveStubbing,<init>,<org.mockito.internal.stubbing.MockitoStubber>,1,2,6
org.mockito.internal.stubbing.ConsecutiveStubbing,thenAnswer,<org.mockito.stubbing.Answer>,1,2,6
org.mockito.internal.stubbing.ConsecutiveStubbing,toAnswer,<org.mockito.stubbing.Answer>,1,2,6
org.mockito.internal.stubbing.MockitoStubber,<init>,<org.mockito.internal.progress.MockingProgress>,1,2,16
org.mockito.internal.stubbing.MockitoStubber,setInvocationForPotentialStubbing,<org.mockito.internal.invocation.InvocationMatcher>,1,2,4
org.mockito.internal.stubbing.MockitoStubber,addAnswer,<org.mockito.stubbing.Answer>,1,2,5
org.mockito.internal.stubbing.MockitoStubber,addConsecutiveAnswer,<org.mockito.stubbing.Answer>,1,2,5
org.mockito.internal.stubbing.MockitoStubber,addAnswer,<org.mockito.stubbing.Answer;boolean>,2,5,35
org.mockito.internal.stubbing.MockitoStubber,answerTo,<org.mockito.internal.invocation.Invocation>,1,2,6
org.mockito.internal.stubbing.MockitoStubber,findAnswerFor,<org.mockito.internal.invocation.Invocation>,1,4,20
org.mockito.internal.stubbing.MockitoStubber,addAnswerForVoidMethod,<org.mockito.stubbing.Answer>,1,2,6
org.mockito.internal.stubbing.MockitoStubber,setAnswersForStubbing,<java.util.List>,1,2,6
org.mockito.internal.stubbing.MockitoStubber,hasAnswersForStubbing,<>,0,1,8
org.mockito.internal.stubbing.MockitoStubber,setMethodForStubbing,<org.mockito.internal.invocation.InvocationMatcher>,1,3,37
org.mockito.internal.stubbing.MockitoStubber,toString,<>,0,1,10
org.mockito.internal.stubbing.MockitoStubber,<clinit>,<>,0,0,8
org.mockito.internal.stubbing.OngoingStubbingImpl,<init>,<org.mockito.internal.stubbing.MockitoStubber;org.mockito.internal.verification.RegisteredInvocations>,2,3,9
org.mockito.internal.stubbing.OngoingStubbingImpl,thenAnswer,<org.mockito.stubbing.Answer>,1,2,13
org.mockito.internal.stubbing.OngoingStubbingImpl,toAnswer,<org.mockito.stubbing.Answer>,1,2,13
org.mockito.internal.stubbing.OngoingStubbingImpl,getRegisteredInvocations,<>,0,1,3
org.mockito.internal.stubbing.StubbedInvocationMatcher,<init>,<org.mockito.internal.invocation.InvocationMatcher;org.mockito.stubbing.Answer>,2,3,17
org.mockito.internal.stubbing.StubbedInvocationMatcher,answer,<org.mockito.invocation.InvocationOnMock>,1,2,31
org.mockito.internal.stubbing.StubbedInvocationMatcher,addAnswer,<org.mockito.stubbing.Answer>,1,2,6
org.mockito.internal.stubbing.StubbedInvocationMatcher,toString,<>,0,1,13
org.mockito.internal.stubbing.StubberImpl,<init>,<>,0,1,13
org.mockito.internal.stubbing.StubberImpl,when,<java.lang.Object>,1,3,25
org.mockito.internal.stubbing.StubberImpl,doReturn,<java.lang.Object>,1,2,10
org.mockito.internal.stubbing.StubberImpl,doThrow,<java.lang.Throwable>,1,2,10
org.mockito.internal.stubbing.StubberImpl,doNothing,<>,0,1,9
org.mockito.internal.stubbing.StubberImpl,doAnswer,<org.mockito.stubbing.Answer>,1,2,7
org.mockito.internal.stubbing.VoidMethodStubbableImpl,<init>,<java.lang.Object;org.mockito.internal.stubbing.MockitoStubber>,2,3,9
org.mockito.internal.stubbing.VoidMethodStubbableImpl,toThrow,<java.lang.Throwable>,1,2,9
org.mockito.internal.stubbing.VoidMethodStubbableImpl,toReturn,<>,0,1,8
org.mockito.internal.stubbing.VoidMethodStubbableImpl,toAnswer,<org.mockito.stubbing.Answer>,1,2,6
org.mockito.internal.stubbing.VoidMethodStubbableImpl,on,<>,0,1,3
org.mockito.internal.stubbing.answers.AnswerReturnValuesAdapter,<init>,<org.mockito.ReturnValues>,1,2,6
org.mockito.internal.stubbing.answers.AnswerReturnValuesAdapter,answer,<org.mockito.invocation.InvocationOnMock>,1,2,5
org.mockito.internal.stubbing.answers.AnswersValidator,<init>,<>,0,1,8
org.mockito.internal.stubbing.answers.AnswersValidator,validate,<org.mockito.stubbing.Answer;org.mockito.internal.invocation.Invocation>,2,3,25
org.mockito.internal.stubbing.answers.AnswersValidator,validateDoNothing,<org.mockito.internal.stubbing.answers.DoesNothing;org.mockito.internal.invocation.Invocation>,2,3,7
org.mockito.internal.stubbing.answers.AnswersValidator,validateReturnValue,<org.mockito.internal.stubbing.answers.Returns;org.mockito.internal.invocation.Invocation>,2,3,38
org.mockito.internal.stubbing.answers.AnswersValidator,validateException,<org.mockito.internal.stubbing.answers.ThrowsException;org.mockito.internal.invocation.Invocation>,2,4,24
org.mockito.internal.stubbing.answers.CallsRealMethods,<init>,<>,0,1,3
org.mockito.internal.stubbing.answers.CallsRealMethods,answer,<org.mockito.invocation.InvocationOnMock>,1,2,3
org.mockito.internal.stubbing.answers.DoesNothing,<init>,<>,0,1,3
org.mockito.internal.stubbing.answers.DoesNothing,answer,<org.mockito.invocation.InvocationOnMock>,1,2,2
org.mockito.internal.stubbing.answers.Returns,<init>,<java.lang.Object>,1,2,6
org.mockito.internal.stubbing.answers.Returns,answer,<org.mockito.invocation.InvocationOnMock>,1,2,3
org.mockito.internal.stubbing.answers.Returns,printReturnType,<>,0,1,5
org.mockito.internal.stubbing.answers.Returns,getReturnType,<>,0,1,4
org.mockito.internal.stubbing.answers.Returns,returnsNull,<>,0,1,7
org.mockito.internal.stubbing.answers.Returns,toString,<>,0,1,10
org.mockito.internal.stubbing.answers.ThrowsException,<init>,<java.lang.Throwable>,1,2,11
org.mockito.internal.stubbing.answers.ThrowsException,answer,<org.mockito.invocation.InvocationOnMock>,1,3,20
org.mockito.internal.stubbing.answers.ThrowsException,getThrowable,<>,0,1,3
org.mockito.internal.stubbing.defaultanswers.GloballyConfiguredAnswer,<init>,<>,0,1,3
org.mockito.internal.stubbing.defaultanswers.GloballyConfiguredAnswer,answer,<org.mockito.invocation.InvocationOnMock>,1,2,7
org.mockito.internal.stubbing.defaultanswers.ReturnsEmptyValues,<init>,<>,0,1,3
org.mockito.internal.stubbing.defaultanswers.ReturnsEmptyValues,answer,<org.mockito.invocation.InvocationOnMock>,1,5,41
org.mockito.internal.stubbing.defaultanswers.ReturnsEmptyValues,returnValueFor,<java.lang.Class>,1,2,113
org.mockito.internal.stubbing.defaultanswers.ReturnsEmptyValues,primitiveOf,<java.lang.Class>,1,2,15
org.mockito.internal.stubbing.defaultanswers.ReturnsMocks,<init>,<>,0,1,13
org.mockito.internal.stubbing.defaultanswers.ReturnsMocks,answer,<org.mockito.invocation.InvocationOnMock>,1,3,15
org.mockito.internal.stubbing.defaultanswers.ReturnsMocks,returnValueFor,<java.lang.Class>,1,2,16
org.mockito.internal.stubbing.defaultanswers.ReturnsMoreEmptyValues,<init>,<>,0,1,8
org.mockito.internal.stubbing.defaultanswers.ReturnsMoreEmptyValues,answer,<org.mockito.invocation.InvocationOnMock>,1,4,17
org.mockito.internal.stubbing.defaultanswers.ReturnsMoreEmptyValues,returnValueFor,<java.lang.Class>,1,3,17
org.mockito.internal.stubbing.defaultanswers.ReturnsSmartNulls$ThrowingInterceptor,<init>,<org.mockito.internal.stubbing.defaultanswers.ReturnsSmartNulls;org.mockito.invocation.InvocationOnMock>,2,2,14
org.mockito.internal.stubbing.defaultanswers.ReturnsSmartNulls$ThrowingInterceptor,intercept,<java.lang.Object;java.lang.reflect.Method;java.lang.Object[];org.mockito.cglib.proxy.MethodProxy>,4,5,25
org.mockito.internal.stubbing.defaultanswers.ReturnsSmartNulls$ThrowingInterceptor,<init>,<org.mockito.internal.stubbing.defaultanswers.ReturnsSmartNulls;org.mockito.invocation.InvocationOnMock;org.mockito.internal.stubbing.defaultanswers.ReturnsSmartNulls$1>,3,4,5
org.mockito.internal.stubbing.defaultanswers.ReturnsSmartNulls,<init>,<>,0,1,8
org.mockito.internal.stubbing.defaultanswers.ReturnsSmartNulls,answer,<org.mockito.invocation.InvocationOnMock>,1,4,31
org.mockito.internal.util.CreationValidator,<init>,<>,0,1,3
org.mockito.internal.util.CreationValidator,validateType,<java.lang.Class>,1,2,10
org.mockito.internal.util.CreationValidator,validateExtraInterfaces,<java.lang.Class;java.lang.Class[]>,2,7,28
org.mockito.internal.util.Decamelizer,<init>,<>,0,1,3
org.mockito.internal.util.Decamelizer,decamelizeMatcher,<java.lang.String>,1,2,33
org.mockito.internal.util.Decamelizer,decamelizeClassName,<java.lang.String>,1,3,34
org.mockito.internal.util.Decamelizer,<clinit>,<>,0,0,4
org.mockito.internal.util.ListUtil$Filter,isOut,<java.lang.Object>,1,0,0
org.mockito.internal.util.ListUtil,<init>,<>,0,1,3
org.mockito.internal.util.ListUtil,filter,<java.util.Collection;org.mockito.internal.util.ListUtil$Filter>,2,5,24
org.mockito.internal.util.MockName,<init>,<java.lang.String;java.lang.Class>,2,3,16
org.mockito.internal.util.MockName,toInstanceName,<java.lang.Class>,1,2,18
org.mockito.internal.util.MockName,isSurrogate,<>,0,1,3
org.mockito.internal.util.MockName,toString,<>,0,1,3
org.mockito.internal.util.MockUtil,<init>,<org.mockito.internal.util.CreationValidator>,1,2,6
org.mockito.internal.util.MockUtil,<init>,<>,0,1,6
org.mockito.internal.util.MockUtil,createMock,<java.lang.Class;org.mockito.internal.progress.MockingProgress;org.mockito.internal.creation.MockSettingsImpl>,3,11,62
org.mockito.internal.util.MockUtil,resetMock,<java.lang.Object;org.mockito.internal.progress.MockingProgress>,2,6,21
org.mockito.internal.util.MockUtil,getMockHandler,<java.lang.Object>,1,2,30
org.mockito.internal.util.MockUtil,isMockitoMock,<java.lang.Object>,1,2,12
org.mockito.internal.util.MockUtil,isMock,<java.lang.Object>,1,2,10
org.mockito.internal.util.MockUtil,getInterceptor,<java.lang.Object>,1,4,15
org.mockito.internal.util.MockUtil,getMockName,<java.lang.Object>,1,2,5
org.mockito.internal.util.MockitoLogger,log,<java.lang.Object>,1,0,0
org.mockito.internal.util.MockitoLoggerImpl,<init>,<>,0,1,3
org.mockito.internal.util.MockitoLoggerImpl,log,<java.lang.Object>,1,2,5
org.mockito.internal.util.Primitives,<init>,<>,0,1,3
org.mockito.internal.util.Primitives,isPrimitiveWrapper,<java.lang.Class>,1,1,4
org.mockito.internal.util.Primitives,primitiveWrapperOf,<java.lang.Class>,1,1,4
org.mockito.internal.util.Primitives,primitiveTypeOf,<java.lang.Class>,1,1,5
org.mockito.internal.util.Primitives,<clinit>,<>,0,0,110
org.mockito.internal.util.StringJoiner,<init>,<>,0,1,3
org.mockito.internal.util.StringJoiner,join,<java.lang.Object[]>,1,7,41
org.mockito.internal.util.copy.AccessibilityChanger,<init>,<>,0,1,6
org.mockito.internal.util.copy.AccessibilityChanger,safelyDisableAccess,<java.lang.reflect.Field>,1,3,17
org.mockito.internal.util.copy.AccessibilityChanger,enableAccess,<java.lang.reflect.Field>,1,2,9
org.mockito.internal.util.copy.AccessibilityChanger,<clinit>,<>,0,0,8
org.mockito.internal.util.copy.FieldCopier,<init>,<>,0,1,3
org.mockito.internal.util.copy.FieldCopier,copyValue,<java.lang.Object;java.lang.Object;java.lang.reflect.Field>,3,5,9
org.mockito.internal.util.copy.LenientCopyTool,<init>,<>,0,1,8
org.mockito.internal.util.copy.LenientCopyTool,copyToMock,<java.lang.Object;java.lang.Object>,2,5,41
org.mockito.internal.util.copy.LenientCopyTool,copyValues,<java.lang.Object;java.lang.Object;java.lang.Class>,3,9,49
org.mockito.internal.util.copy.LenientCopyTool,<clinit>,<>,0,0,8
org.mockito.internal.verification.AtLeast,<init>,<int>,1,2,13
org.mockito.internal.verification.AtLeast,verify,<org.mockito.internal.verification.api.VerificationData>,1,4,27
org.mockito.internal.verification.AtLeast,verifyInOrder,<org.mockito.internal.verification.api.VerificationData>,1,6,30
org.mockito.internal.verification.AtLeast,toString,<>,0,1,10
org.mockito.internal.verification.AtMost,<init>,<int>,1,2,13
org.mockito.internal.verification.AtMost,verify,<org.mockito.internal.verification.api.VerificationData>,1,9,43
org.mockito.internal.verification.InOrderWrapper,<init>,<org.mockito.internal.verification.api.VerificationInOrderMode;java.util.List>,2,3,9
org.mockito.internal.verification.InOrderWrapper,verify,<org.mockito.internal.verification.api.VerificationData>,1,3,17
org.mockito.internal.verification.NoMoreInteractions,<init>,<>,0,1,3
org.mockito.internal.verification.NoMoreInteractions,verify,<org.mockito.internal.verification.api.VerificationData>,1,3,15
org.mockito.internal.verification.RegisteredInvocations$RemoveToString,<init>,<>,0,1,3
org.mockito.internal.verification.RegisteredInvocations$RemoveToString,isOut,<org.mockito.internal.invocation.Invocation>,1,2,3
org.mockito.internal.verification.RegisteredInvocations$RemoveToString,isOut,<java.lang.Object>,1,2,5
org.mockito.internal.verification.RegisteredInvocations$RemoveToString,<init>,<org.mockito.internal.verification.RegisteredInvocations$1>,1,2,3
org.mockito.internal.verification.RegisteredInvocations,<init>,<>,0,1,9
org.mockito.internal.verification.RegisteredInvocations,add,<org.mockito.internal.invocation.Invocation>,1,2,6
org.mockito.internal.verification.RegisteredInvocations,removeLast,<>,0,1,10
org.mockito.internal.verification.RegisteredInvocations,getAll,<>,0,1,11
org.mockito.internal.verification.Times,<init>,<int>,1,2,13
org.mockito.internal.verification.Times,verify,<org.mockito.internal.verification.api.VerificationData>,1,4,26
org.mockito.internal.verification.Times,verifyInOrder,<org.mockito.internal.verification.api.VerificationData>,1,6,29
org.mockito.internal.verification.Times,toString,<>,0,1,10
org.mockito.internal.verification.VerificationDataImpl,<init>,<java.util.List;org.mockito.internal.invocation.InvocationMatcher>,2,3,9
org.mockito.internal.verification.VerificationDataImpl,getAllInvocations,<>,0,1,3
org.mockito.internal.verification.VerificationDataImpl,getWanted,<>,0,1,3
org.mockito.internal.verification.VerificationModeFactory,<init>,<>,0,1,3
org.mockito.internal.verification.VerificationModeFactory,atLeastOnce,<>,0,0,3
org.mockito.internal.verification.VerificationModeFactory,atLeast,<int>,1,1,5
org.mockito.internal.verification.VerificationModeFactory,times,<int>,1,1,5
org.mockito.internal.verification.VerificationModeFactory,noMoreInteractions,<>,0,0,4
org.mockito.internal.verification.VerificationModeFactory,atMost,<int>,1,1,5
org.mockito.internal.verification.api.VerificationData,getAllInvocations,<>,0,0,0
org.mockito.internal.verification.api.VerificationData,getWanted,<>,0,0,0
org.mockito.internal.verification.api.VerificationInOrderMode,verifyInOrder,<org.mockito.internal.verification.api.VerificationData>,1,0,0
org.mockito.internal.verification.api.VerificationMode,verify,<org.mockito.internal.verification.api.VerificationData>,1,0,0
org.mockito.internal.verification.argumentmatching.ArgumentMatchingTool,<init>,<>,0,1,3
org.mockito.internal.verification.argumentmatching.ArgumentMatchingTool,getSuspiciouslyNotMatchingArgsIndexes,<java.util.List;java.lang.Object[]>,2,7,61
org.mockito.internal.verification.argumentmatching.ArgumentMatchingTool,safelyMatches,<org.hamcrest.Matcher;java.lang.Object>,2,4,7
org.mockito.internal.verification.argumentmatching.ArgumentMatchingTool,toStringEquals,<org.hamcrest.Matcher;java.lang.Object>,2,3,6
org.mockito.internal.verification.checkers.AtLeastDiscrepancy,<init>,<int;int>,2,3,5
org.mockito.internal.verification.checkers.AtLeastDiscrepancy,getPluralizedWantedCount,<>,0,1,10
org.mockito.internal.verification.checkers.AtLeastXNumberOfInvocationsChecker,<init>,<>,0,1,13
org.mockito.internal.verification.checkers.AtLeastXNumberOfInvocationsChecker,check,<java.util.List;org.mockito.internal.invocation.InvocationMatcher;int>,3,9,41
org.mockito.internal.verification.checkers.AtLeastXNumberOfInvocationsInOrderChecker,<init>,<>,0,1,13
org.mockito.internal.verification.checkers.AtLeastXNumberOfInvocationsInOrderChecker,check,<java.util.List;org.mockito.internal.invocation.InvocationMatcher;int>,3,9,41
org.mockito.internal.verification.checkers.MissingInvocationChecker,<init>,<>,0,1,9
org.mockito.internal.verification.checkers.MissingInvocationChecker,<init>,<org.mockito.internal.invocation.InvocationsFinder;org.mockito.exceptions.Reporter>,2,3,9
org.mockito.internal.verification.checkers.MissingInvocationChecker,check,<java.util.List;org.mockito.internal.invocation.InvocationMatcher>,2,8,51
org.mockito.internal.verification.checkers.MissingInvocationInOrderChecker,<init>,<>,0,1,9
org.mockito.internal.verification.checkers.MissingInvocationInOrderChecker,<init>,<org.mockito.internal.invocation.InvocationsFinder;org.mockito.exceptions.Reporter>,2,3,9
org.mockito.internal.verification.checkers.MissingInvocationInOrderChecker,check,<java.util.List;org.mockito.internal.invocation.InvocationMatcher;org.mockito.internal.verification.api.VerificationMode>,3,6,28
org.mockito.internal.verification.checkers.NumberOfInvocationsChecker,<init>,<>,0,1,9
org.mockito.internal.verification.checkers.NumberOfInvocationsChecker,<init>,<org.mockito.exceptions.Reporter;org.mockito.internal.invocation.InvocationsFinder>,2,3,9
org.mockito.internal.verification.checkers.NumberOfInvocationsChecker,check,<java.util.List;org.mockito.internal.invocation.InvocationMatcher;int>,3,11,74
org.mockito.internal.verification.checkers.NumberOfInvocationsInOrderChecker,<init>,<>,0,1,9
org.mockito.internal.verification.checkers.NumberOfInvocationsInOrderChecker,<init>,<org.mockito.internal.invocation.InvocationsFinder;org.mockito.exceptions.Reporter>,2,3,9
org.mockito.internal.verification.checkers.NumberOfInvocationsInOrderChecker,check,<java.util.List;org.mockito.internal.invocation.InvocationMatcher;int>,3,10,59
org.mockito.invocation.InvocationOnMock,getMock,<>,0,0,0
org.mockito.invocation.InvocationOnMock,getMethod,<>,0,0,0
org.mockito.invocation.InvocationOnMock,getArguments,<>,0,0,0
org.mockito.invocation.InvocationOnMock,callRealMethod,<>,0,0,0
org.mockito.runners.ConsoleSpammingMockitoJUnitRunner$1,<init>,<org.mockito.runners.ConsoleSpammingMockitoJUnitRunner;org.mockito.internal.debugging.DebuggingInfo>,2,1,9
org.mockito.runners.ConsoleSpammingMockitoJUnitRunner$1,testFailure,<org.junit.runner.notification.Failure>,1,2,7
org.mockito.runners.ConsoleSpammingMockitoJUnitRunner,<init>,<java.lang.Class>,1,2,12
org.mockito.runners.ConsoleSpammingMockitoJUnitRunner,<init>,<java.lang.Class;org.mockito.internal.util.MockitoLogger;org.mockito.internal.runners.RunnerImpl>,3,4,9
org.mockito.runners.ConsoleSpammingMockitoJUnitRunner,run,<org.junit.runner.notification.RunNotifier>,1,4,19
org.mockito.runners.ConsoleSpammingMockitoJUnitRunner,afterRun,<org.mockito.internal.debugging.DebuggingInfo>,1,2,3
org.mockito.runners.ConsoleSpammingMockitoJUnitRunner,beforeRun,<org.junit.runner.notification.RunNotifier;org.mockito.internal.debugging.DebuggingInfo>,2,4,12
org.mockito.runners.ConsoleSpammingMockitoJUnitRunner,getDescription,<>,0,1,4
org.mockito.runners.MockitoJUnit44Runner,<init>,<java.lang.Class>,1,2,4
org.mockito.runners.MockitoJUnitRunner,<init>,<java.lang.Class>,1,2,10
org.mockito.runners.MockitoJUnitRunner,run,<org.junit.runner.notification.RunNotifier>,1,2,5
org.mockito.runners.MockitoJUnitRunner,getDescription,<>,0,1,4
org.mockito.stubbing.Answer,answer,<org.mockito.invocation.InvocationOnMock>,1,0,0
org.mockito.stubbing.DeprecatedOngoingStubbing,toReturn,<java.lang.Object>,1,0,0
org.mockito.stubbing.DeprecatedOngoingStubbing,toThrow,<java.lang.Throwable>,1,0,0
org.mockito.stubbing.DeprecatedOngoingStubbing,toAnswer,<org.mockito.stubbing.Answer>,1,0,0
org.mockito.stubbing.OngoingStubbing,thenReturn,<java.lang.Object>,1,0,0
org.mockito.stubbing.OngoingStubbing,thenReturn,<java.lang.Object;java.lang.Object[]>,2,0,0
org.mockito.stubbing.OngoingStubbing,thenThrow,<java.lang.Throwable[]>,1,0,0
org.mockito.stubbing.OngoingStubbing,thenCallRealMethod,<>,0,0,0
org.mockito.stubbing.OngoingStubbing,thenAnswer,<org.mockito.stubbing.Answer>,1,0,0
org.mockito.stubbing.Stubber,when,<java.lang.Object>,1,0,0
org.mockito.stubbing.Stubber,doThrow,<java.lang.Throwable>,1,0,0
org.mockito.stubbing.Stubber,doAnswer,<org.mockito.stubbing.Answer>,1,0,0
org.mockito.stubbing.Stubber,doNothing,<>,0,0,0
org.mockito.stubbing.Stubber,doReturn,<java.lang.Object>,1,0,0
org.mockito.stubbing.VoidMethodStubbable,toThrow,<java.lang.Throwable>,1,0,0
org.mockito.stubbing.VoidMethodStubbable,toReturn,<>,0,0,0
org.mockito.stubbing.VoidMethodStubbable,toAnswer,<org.mockito.stubbing.Answer>,1,0,0
org.mockito.stubbing.VoidMethodStubbable,on,<>,0,0,0
