org.mockito.AdditionalMatchers,<init>,<>,0,1,3
org.mockito.AdditionalMatchers,geq,<Ljava/lang/Comparable;>,1,1,8
org.mockito.AdditionalMatchers,geq,<B>,1,1,8
org.mockito.AdditionalMatchers,geq,<D>,1,1,9
org.mockito.AdditionalMatchers,geq,<F>,1,1,9
org.mockito.AdditionalMatchers,geq,<I>,1,1,8
org.mockito.AdditionalMatchers,geq,<J>,1,1,9
org.mockito.AdditionalMatchers,geq,<S>,1,1,9
org.mockito.AdditionalMatchers,leq,<Ljava/lang/Comparable;>,1,1,8
org.mockito.AdditionalMatchers,leq,<B>,1,1,8
org.mockito.AdditionalMatchers,leq,<D>,1,1,9
org.mockito.AdditionalMatchers,leq,<F>,1,1,9
org.mockito.AdditionalMatchers,leq,<I>,1,1,8
org.mockito.AdditionalMatchers,leq,<J>,1,1,9
org.mockito.AdditionalMatchers,leq,<S>,1,1,9
org.mockito.AdditionalMatchers,gt,<Ljava/lang/Comparable;>,1,1,8
org.mockito.AdditionalMatchers,gt,<B>,1,1,8
org.mockito.AdditionalMatchers,gt,<D>,1,1,9
org.mockito.AdditionalMatchers,gt,<F>,1,1,9
org.mockito.AdditionalMatchers,gt,<I>,1,1,8
org.mockito.AdditionalMatchers,gt,<J>,1,1,9
org.mockito.AdditionalMatchers,gt,<S>,1,1,9
org.mockito.AdditionalMatchers,lt,<Ljava/lang/Comparable;>,1,1,8
org.mockito.AdditionalMatchers,lt,<B>,1,1,8
org.mockito.AdditionalMatchers,lt,<D>,1,1,9
org.mockito.AdditionalMatchers,lt,<F>,1,1,9
org.mockito.AdditionalMatchers,lt,<I>,1,1,8
org.mockito.AdditionalMatchers,lt,<J>,1,1,9
org.mockito.AdditionalMatchers,lt,<S>,1,1,9
org.mockito.AdditionalMatchers,cmpEq,<Ljava/lang/Comparable;>,1,1,8
org.mockito.AdditionalMatchers,find,<Ljava/lang/String;>,1,1,8
org.mockito.AdditionalMatchers,aryEq,<[Ljava/lang/Object;>,1,1,8
org.mockito.AdditionalMatchers,aryEq,<[S>,1,1,8
org.mockito.AdditionalMatchers,aryEq,<[J>,1,1,8
org.mockito.AdditionalMatchers,aryEq,<[I>,1,1,8
org.mockito.AdditionalMatchers,aryEq,<[F>,1,1,8
org.mockito.AdditionalMatchers,aryEq,<[D>,1,1,8
org.mockito.AdditionalMatchers,aryEq,<[C>,1,1,8
org.mockito.AdditionalMatchers,aryEq,<[B>,1,1,8
org.mockito.AdditionalMatchers,aryEq,<[Z>,1,1,8
org.mockito.AdditionalMatchers,and,<ZZ>,2,2,5
org.mockito.AdditionalMatchers,and,<BB>,2,2,5
org.mockito.AdditionalMatchers,and,<CC>,2,2,5
org.mockito.AdditionalMatchers,and,<DD>,2,2,6
org.mockito.AdditionalMatchers,and,<FF>,2,2,6
org.mockito.AdditionalMatchers,and,<II>,2,2,5
org.mockito.AdditionalMatchers,and,<JJ>,2,2,6
org.mockito.AdditionalMatchers,and,<SS>,2,2,6
org.mockito.AdditionalMatchers,and,<Ljava/lang/Object;Ljava/lang/Object;>,2,2,5
org.mockito.AdditionalMatchers,or,<ZZ>,2,2,5
org.mockito.AdditionalMatchers,or,<Ljava/lang/Object;Ljava/lang/Object;>,2,2,5
org.mockito.AdditionalMatchers,or,<SS>,2,2,6
org.mockito.AdditionalMatchers,or,<JJ>,2,2,6
org.mockito.AdditionalMatchers,or,<II>,2,2,5
org.mockito.AdditionalMatchers,or,<FF>,2,2,6
org.mockito.AdditionalMatchers,or,<DD>,2,2,6
org.mockito.AdditionalMatchers,or,<CC>,2,2,5
org.mockito.AdditionalMatchers,or,<BB>,2,2,5
org.mockito.AdditionalMatchers,not,<Ljava/lang/Object;>,1,1,5
org.mockito.AdditionalMatchers,not,<S>,1,1,6
org.mockito.AdditionalMatchers,not,<I>,1,1,5
org.mockito.AdditionalMatchers,not,<J>,1,1,6
org.mockito.AdditionalMatchers,not,<F>,1,1,6
org.mockito.AdditionalMatchers,not,<D>,1,1,6
org.mockito.AdditionalMatchers,not,<C>,1,1,5
org.mockito.AdditionalMatchers,not,<Z>,1,1,5
org.mockito.AdditionalMatchers,not,<B>,1,1,5
org.mockito.AdditionalMatchers,eq,<DD>,2,2,11
org.mockito.AdditionalMatchers,eq,<FF>,2,2,11
org.mockito.AdditionalMatchers,reportMatcher,<Lorg/mockito/ArgumentMatcher;>,1,1,5
org.mockito.AdditionalMatchers,<clinit>,<>,0,0,5
org.mockito.ArgumentCaptor,<init>,<>,0,1,16
org.mockito.ArgumentCaptor,<init>,<Ljava/lang/Class;>,1,2,16
org.mockito.ArgumentCaptor,capture,<>,0,1,10
org.mockito.ArgumentCaptor,getValue,<>,0,1,4
org.mockito.ArgumentCaptor,getAllValues,<>,0,1,4
org.mockito.ArgumentCaptor,forClass,<Ljava/lang/Class;>,1,1,5
org.mockito.ArgumentMatcher,<init>,<>,0,1,3
org.mockito.ArgumentMatcher,matches,<Ljava/lang/Object;>,1,0,0
org.mockito.ArgumentMatcher,describeTo,<Lorg/hamcrest/Description;>,1,3,10
org.mockito.BDDMockito$BDDMyOngoingStubbing,willAnswer,<Lorg/mockito/stubbing/Answer;>,1,0,0
org.mockito.BDDMockito$BDDMyOngoingStubbing,willReturn,<Ljava/lang/Object;>,1,0,0
org.mockito.BDDMockito$BDDMyOngoingStubbing,willReturn,<Ljava/lang/Object;[Ljava/lang/Object;>,2,0,0
org.mockito.BDDMockito$BDDMyOngoingStubbing,willThrow,<[Ljava/lang/Throwable;>,1,0,0
org.mockito.BDDMockito$BDDMyOngoingStubbing,willCallRealMethod,<>,0,0,0
org.mockito.BDDMockito$BDDOngoingStubbingImpl,<init>,<Lorg/mockito/stubbing/OngoingStubbing;>,1,2,6
org.mockito.BDDMockito$BDDOngoingStubbingImpl,willAnswer,<Lorg/mockito/stubbing/Answer;>,1,2,8
org.mockito.BDDMockito$BDDOngoingStubbingImpl,willReturn,<Ljava/lang/Object;>,1,2,8
org.mockito.BDDMockito$BDDOngoingStubbingImpl,willReturn,<Ljava/lang/Object;[Ljava/lang/Object;>,2,3,9
org.mockito.BDDMockito$BDDOngoingStubbingImpl,willThrow,<[Ljava/lang/Throwable;>,1,2,8
org.mockito.BDDMockito$BDDOngoingStubbingImpl,willCallRealMethod,<>,0,1,7
org.mockito.BDDMockito$BDDStubber,willAnswer,<Lorg/mockito/stubbing/Answer;>,1,0,0
org.mockito.BDDMockito$BDDStubber,willNothing,<>,0,0,0
org.mockito.BDDMockito$BDDStubber,willReturn,<Ljava/lang/Object;>,1,0,0
org.mockito.BDDMockito$BDDStubber,willThrow,<Ljava/lang/Throwable;>,1,0,0
org.mockito.BDDMockito$BDDStubber,given,<Ljava/lang/Object;>,1,0,0
org.mockito.BDDMockito$BDDStubberImpl,<init>,<Lorg/mockito/stubbing/Stubber;>,1,2,6
org.mockito.BDDMockito$BDDStubberImpl,given,<Ljava/lang/Object;>,1,2,5
org.mockito.BDDMockito$BDDStubberImpl,willAnswer,<Lorg/mockito/stubbing/Answer;>,1,2,8
org.mockito.BDDMockito$BDDStubberImpl,willNothing,<>,0,1,7
org.mockito.BDDMockito$BDDStubberImpl,willReturn,<Ljava/lang/Object;>,1,2,8
org.mockito.BDDMockito$BDDStubberImpl,willThrow,<Ljava/lang/Throwable;>,1,2,8
org.mockito.BDDMockito,<init>,<>,0,1,3
org.mockito.BDDMockito,given,<Ljava/lang/Object;>,1,1,6
org.mockito.BDDMockito,willThrow,<Ljava/lang/Throwable;>,1,1,6
org.mockito.BDDMockito,willAnswer,<Lorg/mockito/stubbing/Answer;>,1,1,6
org.mockito.BDDMockito,willDoNothing,<>,0,0,5
org.mockito.BDDMockito,willReturn,<Ljava/lang/Object;>,1,1,6
org.mockito.BDDMockito,willCallRealMethod,<>,0,0,5
org.mockito.InOrder,verify,<Ljava/lang/Object;>,1,0,0
org.mockito.InOrder,verify,<Ljava/lang/Object;Lorg/mockito/internal/verification/api/VerificationMode;>,2,0,0
org.mockito.Matchers,<init>,<>,0,1,3
org.mockito.Matchers,anyBoolean,<>,0,0,4
org.mockito.Matchers,anyByte,<>,0,0,4
org.mockito.Matchers,anyChar,<>,0,0,4
org.mockito.Matchers,anyInt,<>,0,0,4
org.mockito.Matchers,anyLong,<>,0,0,5
org.mockito.Matchers,anyFloat,<>,0,0,5
org.mockito.Matchers,anyDouble,<>,0,0,5
org.mockito.Matchers,anyShort,<>,0,0,5
org.mockito.Matchers,anyObject,<>,0,0,4
org.mockito.Matchers,anyVararg,<>,0,0,4
org.mockito.Matchers,any,<Ljava/lang/Class;>,1,1,2
org.mockito.Matchers,any,<>,0,0,2
org.mockito.Matchers,anyString,<>,0,0,4
org.mockito.Matchers,anyList,<>,0,0,4
org.mockito.Matchers,anyListOf,<Ljava/lang/Class;>,1,1,4
org.mockito.Matchers,anySet,<>,0,0,4
org.mockito.Matchers,anySetOf,<Ljava/lang/Class;>,1,1,4
org.mockito.Matchers,anyMap,<>,0,0,4
org.mockito.Matchers,anyCollection,<>,0,0,4
org.mockito.Matchers,anyCollectionOf,<Ljava/lang/Class;>,1,1,4
org.mockito.Matchers,isA,<Ljava/lang/Class;>,1,1,8
org.mockito.Matchers,eq,<Z>,1,1,8
org.mockito.Matchers,eq,<B>,1,1,8
org.mockito.Matchers,eq,<C>,1,1,8
org.mockito.Matchers,eq,<D>,1,1,9
org.mockito.Matchers,eq,<F>,1,1,9
org.mockito.Matchers,eq,<I>,1,1,8
org.mockito.Matchers,eq,<J>,1,1,9
org.mockito.Matchers,eq,<S>,1,1,9
org.mockito.Matchers,eq,<Ljava/lang/Object;>,1,1,8
org.mockito.Matchers,refEq,<Ljava/lang/Object;[Ljava/lang/String;>,2,2,8
org.mockito.Matchers,same,<Ljava/lang/Object;>,1,1,8
org.mockito.Matchers,isNull,<>,0,0,4
org.mockito.Matchers,notNull,<>,0,0,4
org.mockito.Matchers,isNotNull,<>,0,0,2
org.mockito.Matchers,contains,<Ljava/lang/String;>,1,1,7
org.mockito.Matchers,matches,<Ljava/lang/String;>,1,1,7
org.mockito.Matchers,endsWith,<Ljava/lang/String;>,1,1,7
org.mockito.Matchers,startsWith,<Ljava/lang/String;>,1,1,7
org.mockito.Matchers,argThat,<Lorg/hamcrest/Matcher;>,1,1,4
org.mockito.Matchers,charThat,<Lorg/hamcrest/Matcher;>,1,1,4
org.mockito.Matchers,booleanThat,<Lorg/hamcrest/Matcher;>,1,1,4
org.mockito.Matchers,byteThat,<Lorg/hamcrest/Matcher;>,1,1,4
org.mockito.Matchers,shortThat,<Lorg/hamcrest/Matcher;>,1,1,5
org.mockito.Matchers,intThat,<Lorg/hamcrest/Matcher;>,1,1,4
org.mockito.Matchers,longThat,<Lorg/hamcrest/Matcher;>,1,1,5
org.mockito.Matchers,floatThat,<Lorg/hamcrest/Matcher;>,1,1,5
org.mockito.Matchers,doubleThat,<Lorg/hamcrest/Matcher;>,1,1,5
org.mockito.Matchers,reportMatcher,<Lorg/hamcrest/Matcher;>,1,1,5
org.mockito.Matchers,<clinit>,<>,0,0,5
org.mockito.MockSettings,extraInterfaces,<[Ljava/lang/Class;>,1,0,0
org.mockito.MockSettings,name,<Ljava/lang/String;>,1,0,0
org.mockito.MockSettings,spiedInstance,<Ljava/lang/Object;>,1,0,0
org.mockito.MockSettings,defaultAnswer,<Lorg/mockito/stubbing/Answer;>,1,0,0
org.mockito.MockSettings,serializable,<>,0,0,0
org.mockito.Mockito,<init>,<>,0,1,3
org.mockito.Mockito,mock,<Ljava/lang/Class;>,1,1,6
org.mockito.Mockito,mock,<Ljava/lang/Class;Ljava/lang/String;>,2,2,8
org.mockito.Mockito,mock,<Ljava/lang/Class;Lorg/mockito/ReturnValues;>,2,2,9
org.mockito.Mockito,mock,<Ljava/lang/Class;Lorg/mockito/stubbing/Answer;>,2,2,6
org.mockito.Mockito,mock,<Ljava/lang/Class;Lorg/mockito/MockSettings;>,2,2,5
org.mockito.Mockito,spy,<Ljava/lang/Object;>,1,1,10
org.mockito.Mockito,stub,<Ljava/lang/Object;>,1,1,4
org.mockito.Mockito,when,<Ljava/lang/Object;>,1,1,4
org.mockito.Mockito,verify,<Ljava/lang/Object;>,1,1,6
org.mockito.Mockito,verify,<Ljava/lang/Object;Lorg/mockito/internal/verification/api/VerificationMode;>,2,2,5
org.mockito.Mockito,reset,<[Ljava/lang/Object;>,1,1,4
org.mockito.Mockito,verifyNoMoreInteractions,<[Ljava/lang/Object;>,1,1,4
org.mockito.Mockito,verifyZeroInteractions,<[Ljava/lang/Object;>,1,1,4
org.mockito.Mockito,stubVoid,<Ljava/lang/Object;>,1,1,4
org.mockito.Mockito,doThrow,<Ljava/lang/Throwable;>,1,1,7
org.mockito.Mockito,doCallRealMethod,<>,0,0,6
org.mockito.Mockito,doAnswer,<Lorg/mockito/stubbing/Answer;>,1,1,4
org.mockito.Mockito,doNothing,<>,0,0,6
org.mockito.Mockito,doReturn,<Ljava/lang/Object;>,1,1,7
org.mockito.Mockito,inOrder,<[Ljava/lang/Object;>,1,1,4
org.mockito.Mockito,times,<I>,1,1,3
org.mockito.Mockito,never,<>,0,0,3
org.mockito.Mockito,atLeastOnce,<>,0,0,2
org.mockito.Mockito,atLeast,<I>,1,1,3
org.mockito.Mockito,atMost,<I>,1,1,3
org.mockito.Mockito,only,<>,0,0,2
org.mockito.Mockito,validateMockitoUsage,<>,0,0,3
org.mockito.Mockito,withSettings,<>,0,0,6
org.mockito.Mockito,debug,<>,0,0,4
org.mockito.Mockito,<clinit>,<>,0,0,21
org.mockito.MockitoAnnotations,<init>,<>,0,1,3
org.mockito.MockitoAnnotations,initMocks,<Ljava/lang/Object;>,1,2,21
org.mockito.MockitoAnnotations,scan,<Ljava/lang/Object;Ljava/lang/Class;>,2,15,83
org.mockito.MockitoDebugger,printInvocations,<[Ljava/lang/Object;>,1,0,0
org.mockito.ReturnValues,valueFor,<Lorg/mockito/invocation/InvocationOnMock;>,1,0,0
org.mockito.configuration.AnnotationEngine,createMockFor,<Ljava/lang/annotation/Annotation;Ljava/lang/reflect/Field;>,2,0,0
org.mockito.configuration.DefaultMockitoConfiguration,<init>,<>,0,1,3
org.mockito.configuration.DefaultMockitoConfiguration,getReturnValues,<>,0,1,5
org.mockito.configuration.DefaultMockitoConfiguration,getDefaultAnswer,<>,0,1,4
org.mockito.configuration.DefaultMockitoConfiguration,getAnnotationEngine,<>,0,1,4
org.mockito.configuration.DefaultMockitoConfiguration,cleansStackTrace,<>,0,1,2
org.mockito.configuration.IMockitoConfiguration,getReturnValues,<>,0,0,0
org.mockito.configuration.IMockitoConfiguration,getDefaultAnswer,<>,0,0,0
org.mockito.configuration.IMockitoConfiguration,getAnnotationEngine,<>,0,0,0
org.mockito.configuration.IMockitoConfiguration,cleansStackTrace,<>,0,0,0
org.mockito.exceptions.Discrepancy,<init>,<II>,2,3,9
org.mockito.exceptions.Discrepancy,getWantedCount,<>,0,1,3
org.mockito.exceptions.Discrepancy,getPluralizedWantedCount,<>,0,1,4
org.mockito.exceptions.Discrepancy,getActualCount,<>,0,1,3
org.mockito.exceptions.Discrepancy,getPluralizedActualCount,<>,0,1,4
org.mockito.exceptions.Pluralizer,<init>,<>,0,1,3
org.mockito.exceptions.Pluralizer,pluralize,<I>,1,1,14
org.mockito.exceptions.PrintableInvocation,toString,<>,0,0,0
org.mockito.exceptions.PrintableInvocation,getLocation,<>,0,0,0
org.mockito.exceptions.Reporter,<init>,<>,0,1,3
org.mockito.exceptions.Reporter,checkedExceptionInvalid,<Ljava/lang/Throwable;>,1,2,22
org.mockito.exceptions.Reporter,cannotStubWithNullThrowable,<>,0,1,11
org.mockito.exceptions.Reporter,unfinishedStubbing,<Lorg/mockito/internal/debugging/Location;>,1,2,55
org.mockito.exceptions.Reporter,missingMethodInvocation,<>,0,1,35
org.mockito.exceptions.Reporter,unfinishedVerificationException,<Lorg/mockito/internal/debugging/Location;>,1,3,45
org.mockito.exceptions.Reporter,notAMockPassedToVerify,<>,0,1,27
org.mockito.exceptions.Reporter,nullPassedToVerify,<>,0,1,31
org.mockito.exceptions.Reporter,notAMockPassedToWhenMethod,<>,0,1,19
org.mockito.exceptions.Reporter,nullPassedToWhenMethod,<>,0,1,23
org.mockito.exceptions.Reporter,mocksHaveToBePassedToVerifyNoMoreInteractions,<>,0,1,23
org.mockito.exceptions.Reporter,notAMockPassedToVerifyNoMoreInteractions,<>,0,1,23
org.mockito.exceptions.Reporter,nullPassedToVerifyNoMoreInteractions,<>,0,1,23
org.mockito.exceptions.Reporter,notAMockPassedWhenCreatingInOrder,<>,0,1,23
org.mockito.exceptions.Reporter,nullPassedWhenCreatingInOrder,<>,0,1,23
org.mockito.exceptions.Reporter,mocksHaveToBePassedWhenCreatingInOrder,<>,0,1,23
org.mockito.exceptions.Reporter,inOrderRequiresFamiliarMock,<>,0,1,23
org.mockito.exceptions.Reporter,invalidUseOfMatchers,<II>,2,3,62
org.mockito.exceptions.Reporter,argumentsAreDifferent,<Ljava/lang/String;Ljava/lang/String;Lorg/mockito/internal/debugging/Location;>,3,5,46
org.mockito.exceptions.Reporter,wantedButNotInvoked,<Lorg/mockito/exceptions/PrintableInvocation;>,1,2,7
org.mockito.exceptions.Reporter,wantedButNotInvoked,<Lorg/mockito/exceptions/PrintableInvocation;Ljava/util/List;>,2,9,50
org.mockito.exceptions.Reporter,createWantedButNotInvokedMessage,<Lorg/mockito/exceptions/PrintableInvocation;>,1,2,23
org.mockito.exceptions.Reporter,wantedButNotInvokedInOrder,<Lorg/mockito/exceptions/PrintableInvocation;Lorg/mockito/exceptions/PrintableInvocation;>,2,3,44
org.mockito.exceptions.Reporter,tooManyActualInvocations,<IILorg/mockito/exceptions/PrintableInvocation;Lorg/mockito/internal/debugging/Location;>,4,6,12
org.mockito.exceptions.Reporter,createTooManyInvocationsMessage,<IILorg/mockito/exceptions/PrintableInvocation;Lorg/mockito/internal/debugging/Location;>,4,5,51
org.mockito.exceptions.Reporter,neverWantedButInvoked,<Lorg/mockito/exceptions/PrintableInvocation;Lorg/mockito/internal/debugging/Location;>,2,3,34
org.mockito.exceptions.Reporter,tooManyActualInvocationsInOrder,<IILorg/mockito/exceptions/PrintableInvocation;Lorg/mockito/internal/debugging/Location;>,4,6,25
org.mockito.exceptions.Reporter,createTooLittleInvocationsMessage,<Lorg/mockito/exceptions/Discrepancy;Lorg/mockito/exceptions/PrintableInvocation;Lorg/mockito/internal/debugging/Location;>,3,6,62
org.mockito.exceptions.Reporter,tooLittleActualInvocations,<Lorg/mockito/exceptions/Discrepancy;Lorg/mockito/exceptions/PrintableInvocation;Lorg/mockito/internal/debugging/Location;>,3,5,11
org.mockito.exceptions.Reporter,tooLittleActualInvocationsInOrder,<Lorg/mockito/exceptions/Discrepancy;Lorg/mockito/exceptions/PrintableInvocation;Lorg/mockito/internal/debugging/Location;>,3,5,24
org.mockito.exceptions.Reporter,noMoreInteractionsWanted,<Lorg/mockito/exceptions/PrintableInvocation;>,1,2,30
org.mockito.exceptions.Reporter,cannotMockFinalClass,<Ljava/lang/Class;>,1,2,35
org.mockito.exceptions.Reporter,cannotStubVoidMethodWithAReturnValue,<>,0,1,19
org.mockito.exceptions.Reporter,onlyVoidMethodsCanBeSetToDoNothing,<>,0,1,35
org.mockito.exceptions.Reporter,wrongTypeOfReturnValue,<Ljava/lang/String;Ljava/lang/String;Ljava/lang/String;>,3,4,35
org.mockito.exceptions.Reporter,wantedAtMostX,<II>,2,3,23
org.mockito.exceptions.Reporter,misplacedArgumentMatcher,<Lorg/mockito/internal/debugging/Location;>,1,2,55
org.mockito.exceptions.Reporter,smartNullPointerException,<Lorg/mockito/internal/debugging/Location;>,1,2,29
org.mockito.exceptions.Reporter,noArgumentValueWasCaptured,<>,0,1,47
org.mockito.exceptions.Reporter,extraInterfacesDoesNotAcceptNullParameters,<>,0,1,11
org.mockito.exceptions.Reporter,extraInterfacesAcceptsOnlyInterfaces,<Ljava/lang/Class;>,1,2,25
org.mockito.exceptions.Reporter,extraInterfacesCannotContainMockedType,<Ljava/lang/Class;>,1,2,27
org.mockito.exceptions.Reporter,extraInterfacesRequiresAtLeastOneInterface,<>,0,1,11
org.mockito.exceptions.Reporter,mockedTypeIsInconsistentWithSpiedInstanceType,<Ljava/lang/Class;Ljava/lang/Object;>,2,3,45
org.mockito.exceptions.Reporter,cannotCallRealMethodOnInterface,<>,0,1,23
org.mockito.exceptions.base.MockitoAssertionError,<init>,<Ljava/lang/String;>,1,3,15
org.mockito.exceptions.base.MockitoAssertionError,getUnfilteredStackTrace,<>,0,1,3
org.mockito.exceptions.base.MockitoException,<init>,<Ljava/lang/String;Ljava/lang/Throwable;>,2,3,7
org.mockito.exceptions.base.MockitoException,<init>,<Ljava/lang/String;>,1,2,6
org.mockito.exceptions.base.MockitoException,filterStackTrace,<>,0,2,12
org.mockito.exceptions.base.MockitoException,getUnfilteredStackTrace,<>,0,1,3
org.mockito.exceptions.misusing.InvalidUseOfMatchersException,<init>,<Ljava/lang/String;>,1,2,4
org.mockito.exceptions.misusing.InvalidUseOfMatchersException,<init>,<>,0,1,4
org.mockito.exceptions.misusing.MissingMethodInvocationException,<init>,<Ljava/lang/String;>,1,2,4
org.mockito.exceptions.misusing.MockitoConfigurationException,<init>,<Ljava/lang/String;>,1,2,4
org.mockito.exceptions.misusing.MockitoConfigurationException,<init>,<Ljava/lang/String;Ljava/lang/Exception;>,2,3,5
org.mockito.exceptions.misusing.NotAMockException,<init>,<Ljava/lang/String;>,1,2,4
org.mockito.exceptions.misusing.NullInsteadOfMockException,<init>,<Ljava/lang/String;>,1,2,4
org.mockito.exceptions.misusing.UnfinishedStubbingException,<init>,<Ljava/lang/String;>,1,2,4
org.mockito.exceptions.misusing.UnfinishedVerificationException,<init>,<Ljava/lang/String;>,1,2,4
org.mockito.exceptions.misusing.WrongTypeOfReturnValue,<init>,<Ljava/lang/String;>,1,2,4
org.mockito.exceptions.verification.ArgumentsAreDifferent,<init>,<Ljava/lang/String;>,1,2,4
org.mockito.exceptions.verification.ArgumentsAreDifferent,toString,<>,0,1,7
org.mockito.exceptions.verification.NeverWantedButInvoked,<init>,<Ljava/lang/String;>,1,2,4
org.mockito.exceptions.verification.NoInteractionsWanted,<init>,<Ljava/lang/String;>,1,2,4
org.mockito.exceptions.verification.SmartNullPointerException,<init>,<Ljava/lang/String;>,1,2,4
org.mockito.exceptions.verification.TooLittleActualInvocations,<init>,<Ljava/lang/String;>,1,2,4
org.mockito.exceptions.verification.TooManyActualInvocations,<init>,<Ljava/lang/String;>,1,2,4
org.mockito.exceptions.verification.VerificationInOrderFailure,<init>,<Ljava/lang/String;>,1,2,4
org.mockito.exceptions.verification.WantedButNotInvoked,<init>,<Ljava/lang/String;>,1,2,4
org.mockito.exceptions.verification.WantedButNotInvoked,toString,<>,0,1,7
org.mockito.exceptions.verification.junit.ArgumentsAreDifferent,<init>,<Ljava/lang/String;Ljava/lang/String;Ljava/lang/String;>,3,5,20
org.mockito.exceptions.verification.junit.ArgumentsAreDifferent,getMessage,<>,0,1,3
org.mockito.exceptions.verification.junit.ArgumentsAreDifferent,getUnfilteredStackTrace,<>,0,1,3
org.mockito.exceptions.verification.junit.ArgumentsAreDifferent,toString,<>,0,1,7
org.mockito.exceptions.verification.junit.JUnitTool,<init>,<>,0,1,3
org.mockito.exceptions.verification.junit.JUnitTool,hasJUnit,<>,0,0,2
org.mockito.exceptions.verification.junit.JUnitTool,createArgumentsAreDifferentException,<Ljava/lang/String;Ljava/lang/String;Ljava/lang/String;>,3,6,32
org.mockito.exceptions.verification.junit.JUnitTool,<clinit>,<>,0,1,10
org.mockito.internal.InOrderImpl,<init>,<Ljava/util/List;>,1,2,23
org.mockito.internal.InOrderImpl,verify,<Ljava/lang/Object;>,1,2,6
org.mockito.internal.InOrderImpl,verify,<Ljava/lang/Object;Lorg/mockito/internal/verification/api/VerificationMode;>,2,3,38
org.mockito.internal.MockHandler,<init>,<Lorg/mockito/internal/creation/MockSettingsImpl;>,1,2,33
org.mockito.internal.MockHandler,<init>,<>,0,1,6
org.mockito.internal.MockHandler,<init>,<Lorg/mockito/internal/MockHandlerInterface;>,1,2,5
org.mockito.internal.MockHandler,handle,<Lorg/mockito/internal/invocation/Invocation;>,1,9,103
org.mockito.internal.MockHandler,verifyNoMoreInteractions,<>,0,2,12
org.mockito.internal.MockHandler,voidMethodStubbable,<Ljava/lang/Object;>,1,2,7
org.mockito.internal.MockHandler,getMockSettings,<>,0,1,3
org.mockito.internal.MockHandler,setAnswersForStubbing,<Ljava/util/List;>,1,2,5
org.mockito.internal.MockHandler,getInvocationContainer,<>,0,1,3
org.mockito.internal.MockHandlerInterface,getMockSettings,<>,0,0,0
org.mockito.internal.MockHandlerInterface,verifyNoMoreInteractions,<>,0,0,0
org.mockito.internal.MockHandlerInterface,voidMethodStubbable,<Ljava/lang/Object;>,1,0,0
org.mockito.internal.MockHandlerInterface,setAnswersForStubbing,<Ljava/util/List;>,1,0,0
org.mockito.internal.MockHandlerInterface,getInvocationContainer,<>,0,0,0
org.mockito.internal.MockitoCore,<init>,<>,0,1,18
org.mockito.internal.MockitoCore,mock,<Ljava/lang/Class;Lorg/mockito/MockSettings;>,2,3,10
org.mockito.internal.MockitoCore,stub,<>,0,2,14
org.mockito.internal.MockitoCore,stub,<Ljava/lang/Object;>,1,2,7
org.mockito.internal.MockitoCore,when,<Ljava/lang/Object;>,1,2,7
org.mockito.internal.MockitoCore,verify,<Ljava/lang/Object;Lorg/mockito/internal/verification/api/VerificationMode;>,2,3,20
org.mockito.internal.MockitoCore,reset,<[Ljava/lang/Object;>,1,6,30
org.mockito.internal.MockitoCore,verifyNoMoreInteractions,<[Ljava/lang/Object;>,1,7,38
org.mockito.internal.MockitoCore,assertMocksNotEmpty,<[Ljava/lang/Object;>,1,2,9
org.mockito.internal.MockitoCore,inOrder,<[Ljava/lang/Object;>,1,6,44
org.mockito.internal.MockitoCore,doAnswer,<Lorg/mockito/stubbing/Answer;>,1,2,12
org.mockito.internal.MockitoCore,stubVoid,<Ljava/lang/Object;>,1,3,12
org.mockito.internal.MockitoCore,validateMockitoUsage,<>,0,1,4
org.mockito.internal.MockitoCore,getLastInvocation,<>,0,3,16
org.mockito.internal.MockitoInvocationHandler,handle,<Lorg/mockito/internal/invocation/Invocation;>,1,0,0
org.mockito.internal.configuration.ClassPathLoader,<init>,<>,0,1,3
org.mockito.internal.configuration.ClassPathLoader,loadConfiguration,<>,0,5,27
org.mockito.internal.configuration.DefaultAnnotationEngine,<init>,<>,0,1,3
org.mockito.internal.configuration.DefaultAnnotationEngine,createMockFor,<Ljava/lang/annotation/Annotation;Ljava/lang/reflect/Field;>,2,3,14
org.mockito.internal.configuration.GlobalConfiguration,getIt,<>,0,1,4
org.mockito.internal.configuration.GlobalConfiguration,<init>,<>,0,1,10
org.mockito.internal.configuration.GlobalConfiguration,createConfig,<>,0,3,15
org.mockito.internal.configuration.GlobalConfiguration,validate,<>,0,0,5
org.mockito.internal.configuration.GlobalConfiguration,getReturnValues,<>,0,1,5
org.mockito.internal.configuration.GlobalConfiguration,getAnnotationEngine,<>,0,1,5
org.mockito.internal.configuration.GlobalConfiguration,cleansStackTrace,<>,0,1,5
org.mockito.internal.configuration.GlobalConfiguration,getDefaultAnswer,<>,0,1,5
org.mockito.internal.configuration.GlobalConfiguration,<clinit>,<>,0,0,5
org.mockito.internal.creation.AbstractMockitoMethodProxy,<init>,<>,0,1,3
org.mockito.internal.creation.AbstractMockitoMethodProxy,invokeSuper,<Ljava/lang/Object;[Ljava/lang/Object;>,2,3,6
org.mockito.internal.creation.ClassNameFinder,<init>,<>,0,1,3
org.mockito.internal.creation.ClassNameFinder,classNameForMock,<Ljava/lang/Object;>,1,1,18
org.mockito.internal.creation.DelegatingMethod,<init>,<Ljava/lang/reflect/Method;>,1,2,15
org.mockito.internal.creation.DelegatingMethod,getExceptionTypes,<>,0,1,4
org.mockito.internal.creation.DelegatingMethod,getJavaMethod,<>,0,1,3
org.mockito.internal.creation.DelegatingMethod,getName,<>,0,1,4
org.mockito.internal.creation.DelegatingMethod,getParameterTypes,<>,0,1,4
org.mockito.internal.creation.DelegatingMethod,getReturnType,<>,0,1,4
org.mockito.internal.creation.DelegatingMethod,isVarArgs,<>,0,1,4
org.mockito.internal.creation.DelegatingMethod,hashCode,<>,0,1,5
org.mockito.internal.creation.DelegatingMethod,equals,<Ljava/lang/Object;>,1,2,5
org.mockito.internal.creation.DelegatingMethod,<clinit>,<>,0,0,8
org.mockito.internal.creation.DelegatingMockitoMethodProxy,<init>,<Lorg/mockito/cglib/proxy/MethodProxy;>,1,2,6
org.mockito.internal.creation.DelegatingMockitoMethodProxy,getMethodProxy,<>,0,1,3
org.mockito.internal.creation.MethodInterceptorFilter,<init>,<Lorg/mockito/internal/MockitoInvocationHandler;Lorg/mockito/internal/creation/MockSettingsImpl;>,2,3,19
org.mockito.internal.creation.MethodInterceptorFilter,intercept,<Ljava/lang/Object;Ljava/lang/reflect/Method;[Ljava/lang/Object;Lorg/mockito/cglib/proxy/MethodProxy;>,4,9,56
org.mockito.internal.creation.MethodInterceptorFilter,getHandler,<>,0,1,3
org.mockito.internal.creation.MethodInterceptorFilter,hashCodeForMock,<Ljava/lang/Object;>,1,2,3
org.mockito.internal.creation.MethodInterceptorFilter,createMockitoMethodProxy,<Lorg/mockito/cglib/proxy/MethodProxy;>,1,2,14
org.mockito.internal.creation.MethodInterceptorFilter,createMockitoMethod,<Ljava/lang/reflect/Method;>,1,2,14
org.mockito.internal.creation.MockSettingsImpl,<init>,<>,0,1,3
org.mockito.internal.creation.MockSettingsImpl,serializable,<>,0,1,5
org.mockito.internal.creation.MockSettingsImpl,extraInterfaces,<[Ljava/lang/Class;>,1,6,45
org.mockito.internal.creation.MockSettingsImpl,getMockName,<>,0,1,3
org.mockito.internal.creation.MockSettingsImpl,getExtraInterfaces,<>,0,1,3
org.mockito.internal.creation.MockSettingsImpl,getSpiedInstance,<>,0,1,3
org.mockito.internal.creation.MockSettingsImpl,name,<Ljava/lang/String;>,1,2,5
org.mockito.internal.creation.MockSettingsImpl,spiedInstance,<Ljava/lang/Object;>,1,2,5
org.mockito.internal.creation.MockSettingsImpl,defaultAnswer,<Lorg/mockito/stubbing/Answer;>,1,2,5
org.mockito.internal.creation.MockSettingsImpl,getDefaultAnswer,<>,0,1,3
org.mockito.internal.creation.MockSettingsImpl,isSerializable,<>,0,1,3
org.mockito.internal.creation.MockSettingsImpl,initiateMockName,<Ljava/lang/Class;>,1,2,9
org.mockito.internal.creation.MockitoMethodProxy,invokeSuper,<Ljava/lang/Object;[Ljava/lang/Object;>,2,0,0
org.mockito.internal.creation.MockitoMethodProxy,getMethodProxy,<>,0,0,0
org.mockito.internal.creation.SerializableMockitoMethodProxy,<init>,<Lorg/mockito/cglib/proxy/MethodProxy;>,1,3,36
org.mockito.internal.creation.SerializableMockitoMethodProxy,getMethodProxy,<>,0,1,19
org.mockito.internal.creation.cglib.CGLIBHacker,<init>,<>,0,1,3
org.mockito.internal.creation.cglib.CGLIBHacker,setMockitoNamingPolicy,<Lorg/mockito/internal/creation/MockitoMethodProxy;>,1,7,39
org.mockito.internal.creation.cglib.CGLIBHacker,reflectOnCreateInfo,<Lorg/mockito/cglib/proxy/MethodProxy;>,1,3,15
org.mockito.internal.creation.cglib.MockitoNamingPolicy,<init>,<>,0,1,3
org.mockito.internal.creation.cglib.MockitoNamingPolicy,getTag,<>,0,1,2
org.mockito.internal.creation.cglib.MockitoNamingPolicy,<clinit>,<>,0,0,5
org.mockito.internal.creation.jmock.ClassImposterizer$1,<init>,<>,0,1,3
org.mockito.internal.creation.jmock.ClassImposterizer$1,getClassName,<Ljava/lang/String;Ljava/lang/String;Ljava/lang/Object;Lorg/mockito/cglib/core/Predicate;>,4,5,14
org.mockito.internal.creation.jmock.ClassImposterizer$2,<init>,<>,0,1,3
org.mockito.internal.creation.jmock.ClassImposterizer$2,accept,<Ljava/lang/reflect/Method;>,1,2,7
org.mockito.internal.creation.jmock.ClassImposterizer$3,<init>,<Lorg/mockito/internal/creation/jmock/ClassImposterizer;>,1,1,6
org.mockito.internal.creation.jmock.ClassImposterizer$3,filterConstructors,<Ljava/lang/Class;Ljava/util/List;>,2,3,1
org.mockito.internal.creation.jmock.ClassImposterizer$ClassWithSuperclassToWorkAroundCglibBug,<init>,<>,0,1,3
org.mockito.internal.creation.jmock.ClassImposterizer,<init>,<>,0,1,8
org.mockito.internal.creation.jmock.ClassImposterizer,canImposterise,<Ljava/lang/Class;>,1,2,11
org.mockito.internal.creation.jmock.ClassImposterizer,imposterise,<Lorg/mockito/cglib/proxy/MethodInterceptor;Ljava/lang/Class;[Ljava/lang/Class;>,3,5,29
org.mockito.internal.creation.jmock.ClassImposterizer,setConstructorsAccessible,<Ljava/lang/Class;Z>,2,7,21
org.mockito.internal.creation.jmock.ClassImposterizer,createProxyClass,<Ljava/lang/Class;[Ljava/lang/Class;>,2,5,111
org.mockito.internal.creation.jmock.ClassImposterizer,createProxy,<Ljava/lang/Class;Lorg/mockito/cglib/proxy/MethodInterceptor;>,2,4,20
org.mockito.internal.creation.jmock.ClassImposterizer,prepend,<Ljava/lang/Class;[Ljava/lang/Class;>,2,4,19
org.mockito.internal.creation.jmock.ClassImposterizer,<clinit>,<>,0,0,13
org.mockito.internal.creation.jmock.SearchingClassLoader,<init>,<Ljava/lang/ClassLoader;Ljava/lang/ClassLoader;>,2,3,7
org.mockito.internal.creation.jmock.SearchingClassLoader,combineLoadersOf,<[Ljava/lang/Class;>,1,1,6
org.mockito.internal.creation.jmock.SearchingClassLoader,combineLoadersOf,<Ljava/lang/Class;[Ljava/lang/Class;>,2,7,39
org.mockito.internal.creation.jmock.SearchingClassLoader,combine,<Ljava/util/List;>,1,3,28
org.mockito.internal.creation.jmock.SearchingClassLoader,addIfNewElement,<Ljava/util/List;Ljava/lang/ClassLoader;>,2,2,11
org.mockito.internal.creation.jmock.SearchingClassLoader,findClass,<Ljava/lang/String;>,1,2,12
org.mockito.internal.creation.jmock.SerializableNoOp,<init>,<>,0,1,3
org.mockito.internal.creation.jmock.SerializableNoOp,<clinit>,<>,0,0,5
org.mockito.internal.debugging.DebuggingInfo$1,<init>,<Lorg/mockito/internal/debugging/DebuggingInfo;Ljava/lang/StringBuilder;>,2,1,9
org.mockito.internal.debugging.DebuggingInfo$1,log,<Ljava/lang/Object;>,1,2,6
org.mockito.internal.debugging.DebuggingInfo,<init>,<>,0,1,13
org.mockito.internal.debugging.DebuggingInfo,addStubbedInvocation,<Lorg/mockito/internal/invocation/Invocation;>,1,4,29
org.mockito.internal.debugging.DebuggingInfo,addPotentiallyUnstubbed,<Lorg/mockito/internal/invocation/InvocationMatcher;>,1,2,10
org.mockito.internal.debugging.DebuggingInfo,reportUsedStub,<Lorg/mockito/internal/invocation/InvocationMatcher;>,1,4,19
org.mockito.internal.debugging.DebuggingInfo,collectData,<>,0,1,4
org.mockito.internal.debugging.DebuggingInfo,clearData,<>,0,1,10
org.mockito.internal.debugging.DebuggingInfo,printWarnings,<Lorg/mockito/internal/util/MockitoLogger;>,1,2,14
org.mockito.internal.debugging.DebuggingInfo,hasData,<>,0,1,12
org.mockito.internal.debugging.DebuggingInfo,getWarnings,<Z>,1,3,24
org.mockito.internal.debugging.Localized,<init>,<Ljava/lang/Object;>,1,2,11
org.mockito.internal.debugging.Localized,getObject,<>,0,1,3
org.mockito.internal.debugging.Localized,getLocation,<>,0,1,3
org.mockito.internal.debugging.Location,<init>,<>,0,1,6
org.mockito.internal.debugging.Location,<init>,<Lorg/mockito/internal/exceptions/base/StackTraceFilter;>,1,4,31
org.mockito.internal.debugging.Location,toString,<>,0,1,3
org.mockito.internal.debugging.MockitoDebuggerImpl,<init>,<>,0,1,3
org.mockito.internal.debugging.MockitoDebuggerImpl,printInvocations,<[Ljava/lang/Object;>,1,9,205
org.mockito.internal.debugging.MockitoDebuggerImpl,line,<Ljava/lang/String;>,1,2,9
org.mockito.internal.debugging.MockitoDebuggerImpl,print,<Ljava/lang/String;>,1,2,5
org.mockito.internal.debugging.WarningsPrinterImpl,<init>,<Ljava/util/List;Ljava/util/List;>,2,3,6
org.mockito.internal.debugging.WarningsPrinterImpl,<init>,<Ljava/util/List;Ljava/util/List;Z>,3,4,18
org.mockito.internal.debugging.WarningsPrinterImpl,print,<Lorg/mockito/internal/util/MockitoLogger;>,1,10,76
org.mockito.internal.debugging.WarningsPrinterImpl,thisStubWasNotUsed,<Lorg/mockito/internal/invocation/Invocation;>,1,2,12
org.mockito.internal.debugging.WarningsPrinterImpl,thisMethodWasNotStubbed,<Lorg/mockito/internal/invocation/InvocationMatcher;>,1,2,22
org.mockito.internal.debugging.WarningsPrinterImpl,stubbedMethodCalledWithDifferentArguments,<Lorg/mockito/internal/invocation/Invocation;Lorg/mockito/internal/invocation/InvocationMatcher;>,2,3,37
org.mockito.internal.exceptions.base.ConditionalStackTraceFilter,<init>,<>,0,1,13
org.mockito.internal.exceptions.base.ConditionalStackTraceFilter,filter,<Ljava/lang/Throwable;>,1,3,16
org.mockito.internal.exceptions.base.StackTraceFilter,<init>,<>,0,1,3
org.mockito.internal.exceptions.base.StackTraceFilter,isBad,<Ljava/lang/StackTraceElement;>,1,6,32
org.mockito.internal.exceptions.base.StackTraceFilter,filter,<[Ljava/lang/StackTraceElement;Z>,2,11,68
org.mockito.internal.invocation.AllInvocationsFinder$SequenceNumberComparator,<init>,<Lorg/mockito/internal/invocation/AllInvocationsFinder;>,1,1,6
org.mockito.internal.invocation.AllInvocationsFinder$SequenceNumberComparator,compare,<Lorg/mockito/internal/invocation/Invocation;Lorg/mockito/internal/invocation/Invocation;>,2,3,6
org.mockito.internal.invocation.AllInvocationsFinder$SequenceNumberComparator,compare,<Ljava/lang/Object;Ljava/lang/Object;>,2,3,7
org.mockito.internal.invocation.AllInvocationsFinder$SequenceNumberComparator,<init>,<Lorg/mockito/internal/invocation/AllInvocationsFinder;Lorg/mockito/internal/invocation/AllInvocationsFinder$1;>,2,3,4
org.mockito.internal.invocation.AllInvocationsFinder,<init>,<>,0,1,3
org.mockito.internal.invocation.AllInvocationsFinder,getAllInvocations,<Ljava/util/List;>,1,7,38
org.mockito.internal.invocation.AllInvocationsFinder,getAllUnusedStubs,<Ljava/util/List;>,1,9,45
org.mockito.internal.invocation.ArgumentsComparator,<init>,<>,0,1,3
org.mockito.internal.invocation.ArgumentsComparator,argumentsMatch,<Lorg/mockito/internal/invocation/InvocationMatcher;Lorg/mockito/internal/invocation/Invocation;>,2,4,17
org.mockito.internal.invocation.ArgumentsComparator,argumentsMatch,<Lorg/mockito/internal/invocation/InvocationMatcher;[Ljava/lang/Object;>,2,4,30
org.mockito.internal.invocation.ArgumentsComparator,varArgsMatch,<Lorg/mockito/internal/invocation/InvocationMatcher;Lorg/mockito/internal/invocation/Invocation;>,2,9,80
org.mockito.internal.invocation.CapturesArgumensFromInvocation,captureArgumentsFrom,<Lorg/mockito/internal/invocation/Invocation;>,1,0,0
org.mockito.internal.invocation.Invocation,<init>,<Ljava/lang/Object;Lorg/mockito/internal/invocation/MockitoMethod;[Ljava/lang/Object;ILorg/mockito/internal/invocation/realmethod/RealMethod;>,5,6,29
org.mockito.internal.invocation.Invocation,expandVarArgs,<Z[Ljava/lang/Object;>,2,7,69
org.mockito.internal.invocation.Invocation,getMock,<>,0,1,3
org.mockito.internal.invocation.Invocation,getMethod,<>,0,1,4
org.mockito.internal.invocation.Invocation,getArguments,<>,0,1,3
org.mockito.internal.invocation.Invocation,isVerified,<>,0,1,3
org.mockito.internal.invocation.Invocation,getSequenceNumber,<>,0,1,4
org.mockito.internal.invocation.Invocation,isVerifiedInOrder,<>,0,1,3
org.mockito.internal.invocation.Invocation,equals,<Ljava/lang/Object;>,1,3,34
org.mockito.internal.invocation.Invocation,equalArguments,<[Ljava/lang/Object;>,1,2,5
org.mockito.internal.invocation.Invocation,hashCode,<>,0,1,5
org.mockito.internal.invocation.Invocation,toString,<>,0,1,8
org.mockito.internal.invocation.Invocation,toString,<Ljava/util/List;Lorg/mockito/internal/reporting/PrintSettings;>,2,6,43
org.mockito.internal.invocation.Invocation,qualifiedMethodName,<>,0,1,18
org.mockito.internal.invocation.Invocation,argumentsToMatchers,<>,0,6,47
org.mockito.internal.invocation.Invocation,isToString,<Lorg/mockito/invocation/InvocationOnMock;>,1,1,7
org.mockito.internal.invocation.Invocation,isValidException,<Ljava/lang/Throwable;>,1,8,31
org.mockito.internal.invocation.Invocation,isValidReturnType,<Ljava/lang/Class;>,1,2,21
org.mockito.internal.invocation.Invocation,isVoid,<>,0,1,9
org.mockito.internal.invocation.Invocation,printMethodReturnType,<>,0,1,5
org.mockito.internal.invocation.Invocation,getMethodName,<>,0,1,4
org.mockito.internal.invocation.Invocation,returnsPrimitive,<>,0,1,5
org.mockito.internal.invocation.Invocation,getLocation,<>,0,1,3
org.mockito.internal.invocation.Invocation,getArgumentsCount,<>,0,1,4
org.mockito.internal.invocation.Invocation,getRawArguments,<>,0,1,3
org.mockito.internal.invocation.Invocation,callRealMethod,<>,0,1,15
org.mockito.internal.invocation.Invocation,isDeclaredOnInterface,<>,0,1,5
org.mockito.internal.invocation.Invocation,toString,<Lorg/mockito/internal/reporting/PrintSettings;>,1,2,6
org.mockito.internal.invocation.Invocation,markVerified,<>,0,1,4
org.mockito.internal.invocation.Invocation,markVerifiedInOrder,<>,0,1,6
org.mockito.internal.invocation.Invocation,stubInfo,<>,0,1,3
org.mockito.internal.invocation.Invocation,markStubbed,<Lorg/mockito/internal/invocation/StubInfo;>,1,2,4
org.mockito.internal.invocation.InvocationMarker,<init>,<>,0,1,3
org.mockito.internal.invocation.InvocationMarker,markVerified,<Ljava/util/List;Lorg/mockito/internal/invocation/CapturesArgumensFromInvocation;>,2,5,16
org.mockito.internal.invocation.InvocationMarker,markVerified,<Lorg/mockito/internal/invocation/Invocation;Lorg/mockito/internal/invocation/CapturesArgumensFromInvocation;>,2,3,6
org.mockito.internal.invocation.InvocationMarker,markVerifiedInOrder,<Ljava/util/List;Lorg/mockito/internal/invocation/CapturesArgumensFromInvocation;>,2,5,18
org.mockito.internal.invocation.InvocationMatcher,<init>,<Lorg/mockito/internal/invocation/Invocation;Ljava/util/List;>,2,3,17
org.mockito.internal.invocation.InvocationMatcher,<init>,<Lorg/mockito/internal/invocation/Invocation;>,1,2,5
org.mockito.internal.invocation.InvocationMatcher,getMethod,<>,0,1,4
org.mockito.internal.invocation.InvocationMatcher,getInvocation,<>,0,1,3
org.mockito.internal.invocation.InvocationMatcher,getMatchers,<>,0,1,3
org.mockito.internal.invocation.InvocationMatcher,toString,<>,0,1,9
org.mockito.internal.invocation.InvocationMatcher,matches,<Lorg/mockito/internal/invocation/Invocation;>,1,2,22
org.mockito.internal.invocation.InvocationMatcher,safelyArgumentsMatch,<[Ljava/lang/Object;>,1,3,10
org.mockito.internal.invocation.InvocationMatcher,hasSimilarMethod,<Lorg/mockito/internal/invocation/Invocation;>,1,9,58
org.mockito.internal.invocation.InvocationMatcher,hasSameMethod,<Lorg/mockito/internal/invocation/Invocation;>,1,2,7
org.mockito.internal.invocation.InvocationMatcher,getLocation,<>,0,1,4
org.mockito.internal.invocation.InvocationMatcher,toString,<Lorg/mockito/internal/reporting/PrintSettings;>,1,2,7
org.mockito.internal.invocation.InvocationMatcher,captureArgumentsFrom,<Lorg/mockito/internal/invocation/Invocation;>,1,5,26
org.mockito.internal.invocation.InvocationsFinder$RemoveNotMatching,<init>,<Lorg/mockito/internal/invocation/InvocationsFinder;Lorg/mockito/internal/invocation/InvocationMatcher;>,2,2,9
org.mockito.internal.invocation.InvocationsFinder$RemoveNotMatching,isOut,<Lorg/mockito/internal/invocation/Invocation;>,1,2,9
org.mockito.internal.invocation.InvocationsFinder$RemoveNotMatching,isOut,<Ljava/lang/Object;>,1,2,5
org.mockito.internal.invocation.InvocationsFinder$RemoveNotMatching,<init>,<Lorg/mockito/internal/invocation/InvocationsFinder;Lorg/mockito/internal/invocation/InvocationMatcher;Lorg/mockito/internal/invocation/InvocationsFinder$1;>,3,4,5
org.mockito.internal.invocation.InvocationsFinder$RemoveUnverifiedInOrder,<init>,<Lorg/mockito/internal/invocation/InvocationsFinder;>,1,1,6
org.mockito.internal.invocation.InvocationsFinder$RemoveUnverifiedInOrder,isOut,<Lorg/mockito/internal/invocation/Invocation;>,1,2,7
org.mockito.internal.invocation.InvocationsFinder$RemoveUnverifiedInOrder,isOut,<Ljava/lang/Object;>,1,2,5
org.mockito.internal.invocation.InvocationsFinder$RemoveUnverifiedInOrder,<init>,<Lorg/mockito/internal/invocation/InvocationsFinder;Lorg/mockito/internal/invocation/InvocationsFinder$1;>,2,3,4
org.mockito.internal.invocation.InvocationsFinder,<init>,<>,0,1,3
org.mockito.internal.invocation.InvocationsFinder,findInvocations,<Ljava/util/List;Lorg/mockito/internal/invocation/InvocationMatcher;>,2,3,9
org.mockito.internal.invocation.InvocationsFinder,findAllMatchingUnverifiedChunks,<Ljava/util/List;Lorg/mockito/internal/invocation/InvocationMatcher;>,2,4,13
org.mockito.internal.invocation.InvocationsFinder,findMatchingChunk,<Ljava/util/List;Lorg/mockito/internal/invocation/InvocationMatcher;I>,3,6,20
org.mockito.internal.invocation.InvocationsFinder,getFirstMatchingChunk,<Lorg/mockito/internal/invocation/InvocationMatcher;Ljava/util/List;>,2,6,30
org.mockito.internal.invocation.InvocationsFinder,findSimilarInvocation,<Ljava/util/List;Lorg/mockito/internal/invocation/InvocationMatcher;>,2,6,30
org.mockito.internal.invocation.InvocationsFinder,findFirstUnverified,<Ljava/util/List;>,1,2,5
org.mockito.internal.invocation.InvocationsFinder,findFirstUnverified,<Ljava/util/List;Ljava/lang/Object;>,2,6,30
org.mockito.internal.invocation.InvocationsFinder,getLastLocation,<Ljava/util/List;>,1,3,16
org.mockito.internal.invocation.InvocationsFinder,findPreviousVerifiedInOrder,<Ljava/util/List;>,1,3,17
org.mockito.internal.invocation.InvocationsFinder,removeVerifiedInOrder,<Ljava/util/List;>,1,5,27
org.mockito.internal.invocation.MatchersBinder,<init>,<>,0,1,3
org.mockito.internal.invocation.MatchersBinder,bindMatchers,<Lorg/mockito/internal/progress/ArgumentMatcherStorage;Lorg/mockito/internal/invocation/Invocation;>,2,5,15
org.mockito.internal.invocation.MatchersBinder,validateMatchers,<Lorg/mockito/internal/invocation/Invocation;Ljava/util/List;>,2,5,19
org.mockito.internal.invocation.MockitoMethod,getName,<>,0,0,0
org.mockito.internal.invocation.MockitoMethod,getReturnType,<>,0,0,0
org.mockito.internal.invocation.MockitoMethod,getParameterTypes,<>,0,0,0
org.mockito.internal.invocation.MockitoMethod,getExceptionTypes,<>,0,0,0
org.mockito.internal.invocation.MockitoMethod,isVarArgs,<>,0,0,0
org.mockito.internal.invocation.MockitoMethod,getJavaMethod,<>,0,0,0
org.mockito.internal.invocation.SerializableMethod,<init>,<Ljava/lang/reflect/Method;>,1,2,27
org.mockito.internal.invocation.SerializableMethod,getName,<>,0,1,3
org.mockito.internal.invocation.SerializableMethod,getReturnType,<>,0,1,3
org.mockito.internal.invocation.SerializableMethod,getParameterTypes,<>,0,1,3
org.mockito.internal.invocation.SerializableMethod,getExceptionTypes,<>,0,1,3
org.mockito.internal.invocation.SerializableMethod,isVarArgs,<>,0,1,3
org.mockito.internal.invocation.SerializableMethod,getJavaMethod,<>,0,5,52
org.mockito.internal.invocation.SerializableMethod,hashCode,<>,0,1,5
org.mockito.internal.invocation.SerializableMethod,equals,<Ljava/lang/Object;>,1,3,77
org.mockito.internal.invocation.StubInfo,<init>,<Lorg/mockito/exceptions/PrintableInvocation;>,1,2,6
org.mockito.internal.invocation.StubInfo,stubbedAt,<>,0,1,5
org.mockito.internal.invocation.realmethod.CGLIBProxyRealMethod,<init>,<Lorg/mockito/internal/creation/MockitoMethodProxy;>,1,2,6
org.mockito.internal.invocation.realmethod.CGLIBProxyRealMethod,invoke,<Ljava/lang/Object;[Ljava/lang/Object;>,2,3,6
org.mockito.internal.invocation.realmethod.CGLIBProxyRealMethod,getMethodProxy,<>,0,1,3
org.mockito.internal.invocation.realmethod.FilteredCGLIBProxyRealMethod,<init>,<Lorg/mockito/internal/creation/MockitoMethodProxy;>,1,2,7
org.mockito.internal.invocation.realmethod.FilteredCGLIBProxyRealMethod,<init>,<Lorg/mockito/internal/invocation/realmethod/RealMethod;>,1,2,6
org.mockito.internal.invocation.realmethod.FilteredCGLIBProxyRealMethod,invoke,<Ljava/lang/Object;[Ljava/lang/Object;>,2,4,14
org.mockito.internal.invocation.realmethod.FilteredCGLIBProxyRealMethod,getMethodProxy,<>,0,1,5
org.mockito.internal.invocation.realmethod.HasCGLIBMethodProxy,getMethodProxy,<>,0,0,0
org.mockito.internal.invocation.realmethod.RealMethod,invoke,<Ljava/lang/Object;[Ljava/lang/Object;>,2,0,0
org.mockito.internal.matchers.And,<init>,<Ljava/util/List;>,1,2,6
org.mockito.internal.matchers.And,matches,<Ljava/lang/Object;>,1,4,20
org.mockito.internal.matchers.And,describeTo,<Lorg/hamcrest/Description;>,1,3,29
org.mockito.internal.matchers.Any,<init>,<>,0,1,3
org.mockito.internal.matchers.Any,matches,<Ljava/lang/Object;>,1,2,2
org.mockito.internal.matchers.Any,describeTo,<Lorg/hamcrest/Description;>,1,2,5
org.mockito.internal.matchers.Any,<clinit>,<>,0,0,5
org.mockito.internal.matchers.AnyVararg,<init>,<>,0,1,3
org.mockito.internal.matchers.AnyVararg,matches,<Ljava/lang/Object;>,1,2,2
org.mockito.internal.matchers.AnyVararg,<clinit>,<>,0,0,5
org.mockito.internal.matchers.ArrayEquals,<init>,<Ljava/lang/Object;>,1,2,4
org.mockito.internal.matchers.ArrayEquals,matches,<Ljava/lang/Object;>,1,3,139
org.mockito.internal.matchers.ArrayEquals,describeTo,<Lorg/hamcrest/Description;>,1,2,19
org.mockito.internal.matchers.ArrayEquals,appendArray,<[Ljava/lang/Object;Lorg/hamcrest/Description;>,2,4,35
org.mockito.internal.matchers.ArrayEquals,createObjectArray,<Ljava/lang/Object;>,1,3,27
org.mockito.internal.matchers.CapturesArguments,captureFrom,<Ljava/lang/Object;>,1,0,0
org.mockito.internal.matchers.CapturingMatcher,<init>,<>,0,1,8
org.mockito.internal.matchers.CapturingMatcher,matches,<Ljava/lang/Object;>,1,2,2
org.mockito.internal.matchers.CapturingMatcher,describeTo,<Lorg/hamcrest/Description;>,1,2,5
org.mockito.internal.matchers.CapturingMatcher,getLastValue,<>,0,1,14
org.mockito.internal.matchers.CapturingMatcher,getAllValues,<>,0,1,3
org.mockito.internal.matchers.CapturingMatcher,captureFrom,<Ljava/lang/Object;>,1,2,6
org.mockito.internal.matchers.CompareEqual,<init>,<Ljava/lang/Comparable;>,1,2,4
org.mockito.internal.matchers.CompareEqual,getName,<>,0,1,2
org.mockito.internal.matchers.CompareEqual,matchResult,<I>,1,2,6
org.mockito.internal.matchers.CompareTo,<init>,<Ljava/lang/Comparable;>,1,2,6
org.mockito.internal.matchers.CompareTo,matches,<Ljava/lang/Object;>,1,2,13
org.mockito.internal.matchers.CompareTo,describeTo,<Lorg/hamcrest/Description;>,1,2,18
org.mockito.internal.matchers.CompareTo,getName,<>,0,0,0
org.mockito.internal.matchers.CompareTo,matchResult,<I>,1,0,0
org.mockito.internal.matchers.Contains,<init>,<Ljava/lang/String;>,1,2,6
org.mockito.internal.matchers.Contains,matches,<Ljava/lang/Object;>,1,2,12
org.mockito.internal.matchers.Contains,describeTo,<Lorg/hamcrest/Description;>,1,2,15
org.mockito.internal.matchers.ContainsExtraTypeInformation,withExtraTypeInfo,<>,0,0,0
org.mockito.internal.matchers.ContainsExtraTypeInformation,typeMatches,<Ljava/lang/Object;>,1,0,0
org.mockito.internal.matchers.EndsWith,<init>,<Ljava/lang/String;>,1,2,6
org.mockito.internal.matchers.EndsWith,matches,<Ljava/lang/Object;>,1,2,12
org.mockito.internal.matchers.EndsWith,describeTo,<Lorg/hamcrest/Description;>,1,2,15
org.mockito.internal.matchers.Equality,<init>,<>,0,1,3
org.mockito.internal.matchers.Equality,areEqual,<Ljava/lang/Object;Ljava/lang/Object;>,2,2,30
org.mockito.internal.matchers.Equality,areArraysEqual,<Ljava/lang/Object;Ljava/lang/Object;>,2,2,12
org.mockito.internal.matchers.Equality,areArrayLengthsEqual,<Ljava/lang/Object;Ljava/lang/Object;>,2,2,9
org.mockito.internal.matchers.Equality,areArrayElementsEqual,<Ljava/lang/Object;Ljava/lang/Object;>,2,3,20
org.mockito.internal.matchers.Equality,isArray,<Ljava/lang/Object;>,1,1,4
org.mockito.internal.matchers.Equals$1,<init>,<Lorg/mockito/internal/matchers/Equals;>,1,1,6
org.mockito.internal.matchers.Equals$1,describeTo,<Lorg/hamcrest/Description;>,1,2,25
org.mockito.internal.matchers.Equals,<init>,<Ljava/lang/Object;>,1,2,6
org.mockito.internal.matchers.Equals,matches,<Ljava/lang/Object;>,1,2,5
org.mockito.internal.matchers.Equals,describeTo,<Lorg/hamcrest/Description;>,1,2,8
org.mockito.internal.matchers.Equals,describe,<Ljava/lang/Object;>,1,3,37
org.mockito.internal.matchers.Equals,quoting,<>,0,1,14
org.mockito.internal.matchers.Equals,getWanted,<>,0,1,3
org.mockito.internal.matchers.Equals,equals,<Ljava/lang/Object;>,1,3,32
org.mockito.internal.matchers.Equals,hashCode,<>,0,1,5
org.mockito.internal.matchers.Equals,withExtraTypeInfo,<>,0,1,5
org.mockito.internal.matchers.Equals,typeMatches,<Ljava/lang/Object;>,1,2,15
org.mockito.internal.matchers.EqualsWithDelta,<init>,<Ljava/lang/Number;Ljava/lang/Number;>,2,3,9
org.mockito.internal.matchers.EqualsWithDelta,matches,<Ljava/lang/Object;>,1,3,29
org.mockito.internal.matchers.EqualsWithDelta,describeTo,<Lorg/hamcrest/Description;>,1,2,20
org.mockito.internal.matchers.Find,<init>,<Ljava/lang/String;>,1,2,6
org.mockito.internal.matchers.Find,matches,<Ljava/lang/Object;>,1,2,14
org.mockito.internal.matchers.Find,describeTo,<Lorg/hamcrest/Description;>,1,2,18
org.mockito.internal.matchers.GreaterOrEqual,<init>,<Ljava/lang/Comparable;>,1,2,4
org.mockito.internal.matchers.GreaterOrEqual,getName,<>,0,1,2
org.mockito.internal.matchers.GreaterOrEqual,matchResult,<I>,1,2,6
org.mockito.internal.matchers.GreaterThan,<init>,<Ljava/lang/Comparable;>,1,2,4
org.mockito.internal.matchers.GreaterThan,getName,<>,0,1,2
org.mockito.internal.matchers.GreaterThan,matchResult,<I>,1,2,6
org.mockito.internal.matchers.InstanceOf,<init>,<Ljava/lang/Class;>,1,2,6
org.mockito.internal.matchers.InstanceOf,matches,<Ljava/lang/Object;>,1,2,12
org.mockito.internal.matchers.InstanceOf,describeTo,<Lorg/hamcrest/Description;>,1,2,16
org.mockito.internal.matchers.LessOrEqual,<init>,<Ljava/lang/Comparable;>,1,2,4
org.mockito.internal.matchers.LessOrEqual,getName,<>,0,1,2
org.mockito.internal.matchers.LessOrEqual,matchResult,<I>,1,2,6
org.mockito.internal.matchers.LessThan,<init>,<Ljava/lang/Comparable;>,1,2,4
org.mockito.internal.matchers.LessThan,getName,<>,0,1,2
org.mockito.internal.matchers.LessThan,matchResult,<I>,1,2,6
org.mockito.internal.matchers.LocalizedMatcher,<init>,<Lorg/hamcrest/Matcher;>,1,2,11
org.mockito.internal.matchers.LocalizedMatcher,_dont_implement_Matcher___instead_extend_BaseMatcher_,<>,0,1,1
org.mockito.internal.matchers.LocalizedMatcher,matches,<Ljava/lang/Object;>,1,2,5
org.mockito.internal.matchers.LocalizedMatcher,describeTo,<Lorg/hamcrest/Description;>,1,2,5
org.mockito.internal.matchers.LocalizedMatcher,getLocation,<>,0,1,3
org.mockito.internal.matchers.LocalizedMatcher,toString,<>,0,1,10
org.mockito.internal.matchers.LocalizedMatcher,withExtraTypeInfo,<>,0,1,11
org.mockito.internal.matchers.LocalizedMatcher,typeMatches,<Ljava/lang/Object;>,1,2,14
org.mockito.internal.matchers.LocalizedMatcher,captureFrom,<Ljava/lang/Object;>,1,2,10
org.mockito.internal.matchers.LocalizedMatcher,getActualMatcher,<>,0,1,3
org.mockito.internal.matchers.MatcherDecorator,getActualMatcher,<>,0,0,0
org.mockito.internal.matchers.MatchersPrinter,<init>,<>,0,1,3
org.mockito.internal.matchers.MatchersPrinter,getArgumentsLine,<Ljava/util/List;Lorg/mockito/internal/reporting/PrintSettings;>,2,4,17
org.mockito.internal.matchers.MatchersPrinter,getArgumentsBlock,<Ljava/util/List;Lorg/mockito/internal/reporting/PrintSettings;>,2,4,17
org.mockito.internal.matchers.MatchersPrinter,applyPrintSettings,<Ljava/util/List;Lorg/mockito/internal/reporting/PrintSettings;>,2,7,38
org.mockito.internal.matchers.Matches,<init>,<Ljava/lang/String;>,1,2,6
org.mockito.internal.matchers.Matches,matches,<Ljava/lang/Object;>,1,2,13
org.mockito.internal.matchers.Matches,describeTo,<Lorg/hamcrest/Description;>,1,2,18
org.mockito.internal.matchers.Not,<init>,<Lorg/hamcrest/Matcher;>,1,2,6
org.mockito.internal.matchers.Not,matches,<Ljava/lang/Object;>,1,2,9
org.mockito.internal.matchers.Not,describeTo,<Lorg/hamcrest/Description;>,1,2,13
org.mockito.internal.matchers.NotNull,<init>,<>,0,1,3
org.mockito.internal.matchers.NotNull,matches,<Ljava/lang/Object;>,1,2,6
org.mockito.internal.matchers.NotNull,describeTo,<Lorg/hamcrest/Description;>,1,2,5
org.mockito.internal.matchers.NotNull,<clinit>,<>,0,0,5
org.mockito.internal.matchers.Null,<init>,<>,0,1,3
org.mockito.internal.matchers.Null,matches,<Ljava/lang/Object;>,1,2,6
org.mockito.internal.matchers.Null,describeTo,<Lorg/hamcrest/Description;>,1,2,5
org.mockito.internal.matchers.Null,<clinit>,<>,0,0,5
org.mockito.internal.matchers.Or,<init>,<Ljava/util/List;>,1,2,6
org.mockito.internal.matchers.Or,matches,<Ljava/lang/Object;>,1,4,20
org.mockito.internal.matchers.Or,describeTo,<Lorg/hamcrest/Description;>,1,3,29
org.mockito.internal.matchers.Same,<init>,<Ljava/lang/Object;>,1,2,6
org.mockito.internal.matchers.Same,matches,<Ljava/lang/Object;>,1,2,8
org.mockito.internal.matchers.Same,describeTo,<Lorg/hamcrest/Description;>,1,2,21
org.mockito.internal.matchers.Same,appendQuoting,<Lorg/hamcrest/Description;>,1,2,18
org.mockito.internal.matchers.StartsWith,<init>,<Ljava/lang/String;>,1,2,6
org.mockito.internal.matchers.StartsWith,matches,<Ljava/lang/Object;>,1,2,12
org.mockito.internal.matchers.StartsWith,describeTo,<Lorg/hamcrest/Description;>,1,2,15
org.mockito.internal.matchers.apachecommons.EqualsBuilder,<init>,<>,0,1,6
org.mockito.internal.matchers.apachecommons.EqualsBuilder,reflectionEquals,<Ljava/lang/Object;Ljava/lang/Object;>,2,2,7
org.mockito.internal.matchers.apachecommons.EqualsBuilder,reflectionEquals,<Ljava/lang/Object;Ljava/lang/Object;[Ljava/lang/String;>,3,3,7
org.mockito.internal.matchers.apachecommons.EqualsBuilder,reflectionEquals,<Ljava/lang/Object;Ljava/lang/Object;Z>,3,3,7
org.mockito.internal.matchers.apachecommons.EqualsBuilder,reflectionEquals,<Ljava/lang/Object;Ljava/lang/Object;ZLjava/lang/Class;>,4,4,7
org.mockito.internal.matchers.apachecommons.EqualsBuilder,reflectionEquals,<Ljava/lang/Object;Ljava/lang/Object;ZLjava/lang/Class;[Ljava/lang/String;>,5,12,80
org.mockito.internal.matchers.apachecommons.EqualsBuilder,reflectionAppend,<Ljava/lang/Object;Ljava/lang/Object;Ljava/lang/Class;Lorg/mockito/internal/matchers/apachecommons/EqualsBuilder;Z[Ljava/lang/String;>,6,11,66
org.mockito.internal.matchers.apachecommons.EqualsBuilder,appendSuper,<Z>,1,2,10
org.mockito.internal.matchers.apachecommons.EqualsBuilder,append,<Ljava/lang/Object;Ljava/lang/Object;>,2,4,173
org.mockito.internal.matchers.apachecommons.EqualsBuilder,append,<JJ>,2,3,16
org.mockito.internal.matchers.apachecommons.EqualsBuilder,append,<II>,2,3,15
org.mockito.internal.matchers.apachecommons.EqualsBuilder,append,<SS>,2,3,15
org.mockito.internal.matchers.apachecommons.EqualsBuilder,append,<CC>,2,3,15
org.mockito.internal.matchers.apachecommons.EqualsBuilder,append,<BB>,2,3,15
org.mockito.internal.matchers.apachecommons.EqualsBuilder,append,<DD>,2,3,12
org.mockito.internal.matchers.apachecommons.EqualsBuilder,append,<FF>,2,3,12
org.mockito.internal.matchers.apachecommons.EqualsBuilder,append,<ZZ>,2,3,15
org.mockito.internal.matchers.apachecommons.EqualsBuilder,append,<[Ljava/lang/Object;[Ljava/lang/Object;>,2,4,51
org.mockito.internal.matchers.apachecommons.EqualsBuilder,append,<[J[J>,2,4,51
org.mockito.internal.matchers.apachecommons.EqualsBuilder,append,<[I[I>,2,4,51
org.mockito.internal.matchers.apachecommons.EqualsBuilder,append,<[S[S>,2,4,51
org.mockito.internal.matchers.apachecommons.EqualsBuilder,append,<[C[C>,2,4,51
org.mockito.internal.matchers.apachecommons.EqualsBuilder,append,<[B[B>,2,4,51
org.mockito.internal.matchers.apachecommons.EqualsBuilder,append,<[D[D>,2,4,51
org.mockito.internal.matchers.apachecommons.EqualsBuilder,append,<[F[F>,2,4,51
org.mockito.internal.matchers.apachecommons.EqualsBuilder,append,<[Z[Z>,2,4,51
org.mockito.internal.matchers.apachecommons.EqualsBuilder,isEquals,<>,0,1,3
org.mockito.internal.matchers.apachecommons.EqualsBuilder,setEquals,<Z>,1,2,4
org.mockito.internal.matchers.apachecommons.ReflectionEquals,<init>,<Ljava/lang/Object;[Ljava/lang/String;>,2,3,9
org.mockito.internal.matchers.apachecommons.ReflectionEquals,matches,<Ljava/lang/Object;>,1,2,7
org.mockito.internal.matchers.apachecommons.ReflectionEquals,describeTo,<Lorg/hamcrest/Description;>,1,2,15
org.mockito.internal.progress.ArgumentMatcherStorage,reportMatcher,<Lorg/hamcrest/Matcher;>,1,0,0
org.mockito.internal.progress.ArgumentMatcherStorage,pullMatchers,<>,0,0,0
org.mockito.internal.progress.ArgumentMatcherStorage,reportAnd,<>,0,0,0
org.mockito.internal.progress.ArgumentMatcherStorage,reportNot,<>,0,0,0
org.mockito.internal.progress.ArgumentMatcherStorage,reportOr,<>,0,0,0
org.mockito.internal.progress.ArgumentMatcherStorage,validateState,<>,0,0,0
org.mockito.internal.progress.ArgumentMatcherStorage,reset,<>,0,0,0
org.mockito.internal.progress.ArgumentMatcherStorageImpl,<init>,<>,0,1,8
org.mockito.internal.progress.ArgumentMatcherStorageImpl,reportMatcher,<Lorg/hamcrest/Matcher;>,1,2,12
org.mockito.internal.progress.ArgumentMatcherStorageImpl,pullMatchers,<>,0,2,17
org.mockito.internal.progress.ArgumentMatcherStorageImpl,reportAnd,<>,0,2,29
org.mockito.internal.progress.ArgumentMatcherStorageImpl,reportNot,<>,0,2,32
org.mockito.internal.progress.ArgumentMatcherStorageImpl,popLastArgumentMatchers,<I>,1,4,67
org.mockito.internal.progress.ArgumentMatcherStorageImpl,assertState,<ZLjava/lang/String;>,2,3,11
org.mockito.internal.progress.ArgumentMatcherStorageImpl,reportOr,<>,0,2,29
org.mockito.internal.progress.ArgumentMatcherStorageImpl,validateState,<>,0,2,19
org.mockito.internal.progress.ArgumentMatcherStorageImpl,reset,<>,0,1,4
org.mockito.internal.progress.HandyReturnValues,<init>,<>,0,1,3
org.mockito.internal.progress.HandyReturnValues,returnZero,<>,0,1,2
org.mockito.internal.progress.HandyReturnValues,returnChar,<>,0,1,2
org.mockito.internal.progress.HandyReturnValues,returnNull,<>,0,1,2
org.mockito.internal.progress.HandyReturnValues,returnFalse,<>,0,1,2
org.mockito.internal.progress.HandyReturnValues,returnString,<>,0,1,2
org.mockito.internal.progress.HandyReturnValues,returnFor,<Ljava/lang/Class;>,1,2,9
org.mockito.internal.progress.HandyReturnValues,returnMap,<>,0,1,4
org.mockito.internal.progress.HandyReturnValues,returnList,<>,0,1,4
org.mockito.internal.progress.HandyReturnValues,returnSet,<>,0,1,4
org.mockito.internal.progress.HandyReturnValues,returnFor,<Ljava/lang/Object;>,1,2,9
org.mockito.internal.progress.MockingProgress,reportOngoingStubbing,<Lorg/mockito/internal/progress/IOngoingStubbing;>,1,0,0
org.mockito.internal.progress.MockingProgress,pullOngoingStubbing,<>,0,0,0
org.mockito.internal.progress.MockingProgress,verificationStarted,<Lorg/mockito/internal/verification/api/VerificationMode;>,1,0,0
org.mockito.internal.progress.MockingProgress,pullVerificationMode,<>,0,0,0
org.mockito.internal.progress.MockingProgress,stubbingStarted,<>,0,0,0
org.mockito.internal.progress.MockingProgress,stubbingCompleted,<Lorg/mockito/internal/invocation/Invocation;>,1,0,0
org.mockito.internal.progress.MockingProgress,validateState,<>,0,0,0
org.mockito.internal.progress.MockingProgress,reset,<>,0,0,0
org.mockito.internal.progress.MockingProgress,resetOngoingStubbing,<>,0,0,0
org.mockito.internal.progress.MockingProgress,getArgumentMatcherStorage,<>,0,0,0
org.mockito.internal.progress.MockingProgress,getDebuggingInfo,<>,0,0,0
org.mockito.internal.progress.MockingProgressImpl,<init>,<>,0,1,21
org.mockito.internal.progress.MockingProgressImpl,reportOngoingStubbing,<Lorg/mockito/internal/progress/IOngoingStubbing;>,1,2,4
org.mockito.internal.progress.MockingProgressImpl,pullOngoingStubbing,<>,0,2,8
org.mockito.internal.progress.MockingProgressImpl,verificationStarted,<Lorg/mockito/internal/verification/api/VerificationMode;>,1,2,11
org.mockito.internal.progress.MockingProgressImpl,resetOngoingStubbing,<>,0,1,4
org.mockito.internal.progress.MockingProgressImpl,pullVerificationMode,<>,0,2,15
org.mockito.internal.progress.MockingProgressImpl,stubbingStarted,<>,0,1,8
org.mockito.internal.progress.MockingProgressImpl,validateState,<>,0,3,32
org.mockito.internal.progress.MockingProgressImpl,stubbingCompleted,<Lorg/mockito/internal/invocation/Invocation;>,1,2,8
org.mockito.internal.progress.MockingProgressImpl,toString,<>,0,1,20
org.mockito.internal.progress.MockingProgressImpl,reset,<>,0,1,10
org.mockito.internal.progress.MockingProgressImpl,getArgumentMatcherStorage,<>,0,1,3
org.mockito.internal.progress.MockingProgressImpl,getDebuggingInfo,<>,0,1,3
org.mockito.internal.progress.SequenceNumber,<init>,<>,0,1,3
org.mockito.internal.progress.SequenceNumber,next,<>,0,0,6
org.mockito.internal.progress.SequenceNumber,<clinit>,<>,0,0,3
org.mockito.internal.progress.ThreadSafeMockingProgress,<init>,<>,0,1,3
org.mockito.internal.progress.ThreadSafeMockingProgress,threadSafely,<>,0,0,12
org.mockito.internal.progress.ThreadSafeMockingProgress,reportOngoingStubbing,<Lorg/mockito/internal/progress/IOngoingStubbing;>,1,2,4
org.mockito.internal.progress.ThreadSafeMockingProgress,pullOngoingStubbing,<>,0,1,3
org.mockito.internal.progress.ThreadSafeMockingProgress,verificationStarted,<Lorg/mockito/internal/verification/api/VerificationMode;>,1,2,4
org.mockito.internal.progress.ThreadSafeMockingProgress,pullVerificationMode,<>,0,1,3
org.mockito.internal.progress.ThreadSafeMockingProgress,stubbingStarted,<>,0,1,3
org.mockito.internal.progress.ThreadSafeMockingProgress,validateState,<>,0,1,3
org.mockito.internal.progress.ThreadSafeMockingProgress,stubbingCompleted,<Lorg/mockito/internal/invocation/Invocation;>,1,2,4
org.mockito.internal.progress.ThreadSafeMockingProgress,toString,<>,0,1,3
org.mockito.internal.progress.ThreadSafeMockingProgress,reset,<>,0,1,3
org.mockito.internal.progress.ThreadSafeMockingProgress,resetOngoingStubbing,<>,0,1,3
org.mockito.internal.progress.ThreadSafeMockingProgress,getArgumentMatcherStorage,<>,0,1,3
org.mockito.internal.progress.ThreadSafeMockingProgress,getDebuggingInfo,<>,0,1,3
org.mockito.internal.progress.ThreadSafeMockingProgress,<clinit>,<>,0,0,5
org.mockito.internal.reporting.PrintSettings,<init>,<>,0,1,8
org.mockito.internal.reporting.PrintSettings,setMultiline,<Z>,1,2,4
org.mockito.internal.reporting.PrintSettings,isMultiline,<>,0,1,3
org.mockito.internal.reporting.PrintSettings,verboseMatchers,<[Ljava/lang/Integer;>,1,2,9
org.mockito.internal.reporting.PrintSettings,extraTypeInfoFor,<I>,1,2,6
org.mockito.internal.reporting.PrintSettings,setMatchersToBeDescribedWithExtraTypeInfo,<[Ljava/lang/Integer;>,1,2,5
org.mockito.internal.reporting.PrintingFriendlyInvocation,toString,<Lorg/mockito/internal/reporting/PrintSettings;>,1,0,0
org.mockito.internal.reporting.SmartPrinter,<init>,<Lorg/mockito/internal/reporting/PrintingFriendlyInvocation;Lorg/mockito/internal/reporting/PrintingFriendlyInvocation;[Ljava/lang/Integer;>,3,5,35
org.mockito.internal.reporting.SmartPrinter,getWanted,<>,0,1,3
org.mockito.internal.reporting.SmartPrinter,getActual,<>,0,1,3
org.mockito.internal.runners.JUnit44RunnerImpl$1,<init>,<Lorg/mockito/internal/runners/JUnit44RunnerImpl;Ljava/lang/Class;>,2,2,7
org.mockito.internal.runners.JUnit44RunnerImpl$1,createTest,<>,0,2,7
org.mockito.internal.runners.JUnit44RunnerImpl,<init>,<Ljava/lang/Class;>,1,2,10
org.mockito.internal.runners.JUnit44RunnerImpl,run,<Lorg/junit/runner/notification/RunNotifier;>,1,2,11
org.mockito.internal.runners.JUnit44RunnerImpl,getDescription,<>,0,1,4
org.mockito.internal.runners.JUnit45AndHigherRunnerImpl$1,<init>,<Lorg/mockito/internal/runners/JUnit45AndHigherRunnerImpl;Ljava/lang/Class;>,2,2,7
org.mockito.internal.runners.JUnit45AndHigherRunnerImpl$1,withBefores,<Lorg/junit/runners/model/FrameworkMethod;Ljava/lang/Object;Lorg/junit/runners/model/Statement;>,3,4,8
org.mockito.internal.runners.JUnit45AndHigherRunnerImpl,<init>,<Ljava/lang/Class;>,1,2,10
org.mockito.internal.runners.JUnit45AndHigherRunnerImpl,run,<Lorg/junit/runner/notification/RunNotifier;>,1,2,11
org.mockito.internal.runners.JUnit45AndHigherRunnerImpl,getDescription,<>,0,1,4
org.mockito.internal.runners.RunnerFactory,<init>,<Lorg/mockito/internal/runners/util/RunnerProvider;>,1,2,6
org.mockito.internal.runners.RunnerFactory,<init>,<>,0,1,6
org.mockito.internal.runners.RunnerFactory,create,<Ljava/lang/Class;>,1,4,50
org.mockito.internal.runners.RunnerImpl,run,<Lorg/junit/runner/notification/RunNotifier;>,1,0,0
org.mockito.internal.runners.RunnerImpl,getDescription,<>,0,0,0
org.mockito.internal.runners.util.FrameworkUsageValidator,<init>,<Lorg/junit/runner/notification/RunNotifier;>,1,2,6
org.mockito.internal.runners.util.FrameworkUsageValidator,testFinished,<Lorg/junit/runner/Description;>,1,3,15
org.mockito.internal.runners.util.RunnerProvider,<init>,<>,0,1,3
org.mockito.internal.runners.util.RunnerProvider,isJUnit45OrHigherAvailable,<>,0,1,2
org.mockito.internal.runners.util.RunnerProvider,newInstance,<Ljava/lang/String;Ljava/lang/Class;>,2,8,39
org.mockito.internal.runners.util.RunnerProvider,<clinit>,<>,0,1,10
org.mockito.internal.runners.util.TestMethodsFinder,<init>,<>,0,1,3
org.mockito.internal.runners.util.TestMethodsFinder,hasTestMethods,<Ljava/lang/Class;>,1,7,27
org.mockito.internal.stubbing.BaseStubbing,<init>,<>,0,1,3
org.mockito.internal.stubbing.BaseStubbing,thenReturn,<Ljava/lang/Object;>,1,2,7
org.mockito.internal.stubbing.BaseStubbing,thenReturn,<Ljava/lang/Object;[Ljava/lang/Object;>,2,8,32
org.mockito.internal.stubbing.BaseStubbing,thenThrow,<Ljava/lang/Throwable;>,1,2,7
org.mockito.internal.stubbing.BaseStubbing,thenThrow,<[Ljava/lang/Throwable;>,1,7,43
org.mockito.internal.stubbing.BaseStubbing,thenCallRealMethod,<>,0,1,6
org.mockito.internal.stubbing.BaseStubbing,toReturn,<Ljava/lang/Object;>,1,2,7
org.mockito.internal.stubbing.BaseStubbing,toThrow,<Ljava/lang/Throwable;>,1,2,7
org.mockito.internal.stubbing.ConsecutiveStubbing,<init>,<Lorg/mockito/internal/stubbing/InvocationContainerImpl;>,1,2,6
org.mockito.internal.stubbing.ConsecutiveStubbing,thenAnswer,<Lorg/mockito/stubbing/Answer;>,1,2,6
org.mockito.internal.stubbing.ConsecutiveStubbing,toAnswer,<Lorg/mockito/stubbing/Answer;>,1,2,6
org.mockito.internal.stubbing.InvocationContainer,getInvocations,<>,0,0,0
org.mockito.internal.stubbing.InvocationContainer,getStubbedInvocations,<>,0,0,0
org.mockito.internal.stubbing.InvocationContainerImpl,<init>,<Lorg/mockito/internal/progress/MockingProgress;>,1,2,21
org.mockito.internal.stubbing.InvocationContainerImpl,setInvocationForPotentialStubbing,<Lorg/mockito/internal/invocation/InvocationMatcher;>,1,2,9
org.mockito.internal.stubbing.InvocationContainerImpl,resetInvocationForPotentialStubbing,<Lorg/mockito/internal/invocation/InvocationMatcher;>,1,2,4
org.mockito.internal.stubbing.InvocationContainerImpl,addAnswer,<Lorg/mockito/stubbing/Answer;>,1,2,8
org.mockito.internal.stubbing.InvocationContainerImpl,addConsecutiveAnswer,<Lorg/mockito/stubbing/Answer;>,1,2,5
org.mockito.internal.stubbing.InvocationContainerImpl,addAnswer,<Lorg/mockito/stubbing/Answer;Z>,2,5,35
org.mockito.internal.stubbing.InvocationContainerImpl,answerTo,<Lorg/mockito/internal/invocation/Invocation;>,1,2,6
org.mockito.internal.stubbing.InvocationContainerImpl,findAnswerFor,<Lorg/mockito/internal/invocation/Invocation;>,1,4,29
org.mockito.internal.stubbing.InvocationContainerImpl,addAnswerForVoidMethod,<Lorg/mockito/stubbing/Answer;>,1,2,6
org.mockito.internal.stubbing.InvocationContainerImpl,setAnswersForStubbing,<Ljava/util/List;>,1,2,6
org.mockito.internal.stubbing.InvocationContainerImpl,hasAnswersForStubbing,<>,0,1,8
org.mockito.internal.stubbing.InvocationContainerImpl,setMethodForStubbing,<Lorg/mockito/internal/invocation/InvocationMatcher;>,1,3,37
org.mockito.internal.stubbing.InvocationContainerImpl,toString,<>,0,1,10
org.mockito.internal.stubbing.InvocationContainerImpl,getInvocations,<>,0,1,4
org.mockito.internal.stubbing.InvocationContainerImpl,getStubbedInvocations,<>,0,1,3
org.mockito.internal.stubbing.InvocationContainerImpl,<clinit>,<>,0,0,8
org.mockito.internal.stubbing.OngoingStubbingImpl,<init>,<Lorg/mockito/internal/stubbing/InvocationContainerImpl;>,1,2,6
org.mockito.internal.stubbing.OngoingStubbingImpl,thenAnswer,<Lorg/mockito/stubbing/Answer;>,1,2,10
org.mockito.internal.stubbing.OngoingStubbingImpl,toAnswer,<Lorg/mockito/stubbing/Answer;>,1,2,10
org.mockito.internal.stubbing.OngoingStubbingImpl,getRegisteredInvocations,<>,0,1,4
org.mockito.internal.stubbing.StubbedInvocationMatcher,<init>,<Lorg/mockito/internal/invocation/InvocationMatcher;Lorg/mockito/stubbing/Answer;>,2,3,17
org.mockito.internal.stubbing.StubbedInvocationMatcher,answer,<Lorg/mockito/invocation/InvocationOnMock;>,1,2,31
org.mockito.internal.stubbing.StubbedInvocationMatcher,addAnswer,<Lorg/mockito/stubbing/Answer;>,1,2,6
org.mockito.internal.stubbing.StubbedInvocationMatcher,markStubUsed,<Lorg/mockito/exceptions/PrintableInvocation;>,1,2,4
org.mockito.internal.stubbing.StubbedInvocationMatcher,wasUsed,<>,0,1,7
org.mockito.internal.stubbing.StubbedInvocationMatcher,toString,<>,0,1,13
org.mockito.internal.stubbing.StubberImpl,<init>,<>,0,1,13
org.mockito.internal.stubbing.StubberImpl,when,<Ljava/lang/Object;>,1,3,25
org.mockito.internal.stubbing.StubberImpl,doReturn,<Ljava/lang/Object;>,1,2,10
org.mockito.internal.stubbing.StubberImpl,doThrow,<Ljava/lang/Throwable;>,1,2,10
org.mockito.internal.stubbing.StubberImpl,doNothing,<>,0,1,9
org.mockito.internal.stubbing.StubberImpl,doAnswer,<Lorg/mockito/stubbing/Answer;>,1,2,7
org.mockito.internal.stubbing.VoidMethodStubbableImpl,<init>,<Ljava/lang/Object;Lorg/mockito/internal/stubbing/InvocationContainerImpl;>,2,3,9
org.mockito.internal.stubbing.VoidMethodStubbableImpl,toThrow,<Ljava/lang/Throwable;>,1,2,9
org.mockito.internal.stubbing.VoidMethodStubbableImpl,toReturn,<>,0,1,8
org.mockito.internal.stubbing.VoidMethodStubbableImpl,toAnswer,<Lorg/mockito/stubbing/Answer;>,1,2,6
org.mockito.internal.stubbing.VoidMethodStubbableImpl,on,<>,0,1,3
org.mockito.internal.stubbing.answers.AnswerReturnValuesAdapter,<init>,<Lorg/mockito/ReturnValues;>,1,2,6
org.mockito.internal.stubbing.answers.AnswerReturnValuesAdapter,answer,<Lorg/mockito/invocation/InvocationOnMock;>,1,2,5
org.mockito.internal.stubbing.answers.AnswersValidator,<init>,<>,0,1,8
org.mockito.internal.stubbing.answers.AnswersValidator,validate,<Lorg/mockito/stubbing/Answer;Lorg/mockito/internal/invocation/Invocation;>,2,3,33
org.mockito.internal.stubbing.answers.AnswersValidator,validateMockingConcreteClass,<Lorg/mockito/internal/stubbing/answers/CallsRealMethods;Lorg/mockito/internal/invocation/Invocation;>,2,3,7
org.mockito.internal.stubbing.answers.AnswersValidator,validateDoNothing,<Lorg/mockito/internal/stubbing/answers/DoesNothing;Lorg/mockito/internal/invocation/Invocation;>,2,3,7
org.mockito.internal.stubbing.answers.AnswersValidator,validateReturnValue,<Lorg/mockito/internal/stubbing/answers/Returns;Lorg/mockito/internal/invocation/Invocation;>,2,3,38
org.mockito.internal.stubbing.answers.AnswersValidator,validateException,<Lorg/mockito/internal/stubbing/answers/ThrowsException;Lorg/mockito/internal/invocation/Invocation;>,2,4,24
org.mockito.internal.stubbing.answers.CallsRealMethods,<init>,<>,0,1,3
org.mockito.internal.stubbing.answers.CallsRealMethods,answer,<Lorg/mockito/invocation/InvocationOnMock;>,1,2,3
org.mockito.internal.stubbing.answers.DoesNothing,<init>,<>,0,1,3
org.mockito.internal.stubbing.answers.DoesNothing,answer,<Lorg/mockito/invocation/InvocationOnMock;>,1,2,2
org.mockito.internal.stubbing.answers.Returns,<init>,<Ljava/lang/Object;>,1,2,6
org.mockito.internal.stubbing.answers.Returns,answer,<Lorg/mockito/invocation/InvocationOnMock;>,1,2,3
org.mockito.internal.stubbing.answers.Returns,printReturnType,<>,0,1,5
org.mockito.internal.stubbing.answers.Returns,getReturnType,<>,0,1,4
org.mockito.internal.stubbing.answers.Returns,returnsNull,<>,0,1,7
org.mockito.internal.stubbing.answers.Returns,toString,<>,0,1,10
org.mockito.internal.stubbing.answers.ThrowsException,<init>,<Ljava/lang/Throwable;>,1,2,11
org.mockito.internal.stubbing.answers.ThrowsException,answer,<Lorg/mockito/invocation/InvocationOnMock;>,1,3,20
org.mockito.internal.stubbing.answers.ThrowsException,getThrowable,<>,0,1,3
org.mockito.internal.stubbing.defaultanswers.GloballyConfiguredAnswer,<init>,<>,0,1,3
org.mockito.internal.stubbing.defaultanswers.GloballyConfiguredAnswer,answer,<Lorg/mockito/invocation/InvocationOnMock;>,1,2,7
org.mockito.internal.stubbing.defaultanswers.ReturnsEmptyValues,<init>,<>,0,1,3
org.mockito.internal.stubbing.defaultanswers.ReturnsEmptyValues,answer,<Lorg/mockito/invocation/InvocationOnMock;>,1,5,41
org.mockito.internal.stubbing.defaultanswers.ReturnsEmptyValues,returnValueFor,<Ljava/lang/Class;>,1,2,113
org.mockito.internal.stubbing.defaultanswers.ReturnsEmptyValues,primitiveOf,<Ljava/lang/Class;>,1,2,15
org.mockito.internal.stubbing.defaultanswers.ReturnsMocks,<init>,<>,0,1,13
org.mockito.internal.stubbing.defaultanswers.ReturnsMocks,answer,<Lorg/mockito/invocation/InvocationOnMock;>,1,3,15
org.mockito.internal.stubbing.defaultanswers.ReturnsMocks,returnValueFor,<Ljava/lang/Class;>,1,2,16
org.mockito.internal.stubbing.defaultanswers.ReturnsMoreEmptyValues,<init>,<>,0,1,8
org.mockito.internal.stubbing.defaultanswers.ReturnsMoreEmptyValues,answer,<Lorg/mockito/invocation/InvocationOnMock;>,1,4,17
org.mockito.internal.stubbing.defaultanswers.ReturnsMoreEmptyValues,returnValueFor,<Ljava/lang/Class;>,1,3,17
org.mockito.internal.stubbing.defaultanswers.ReturnsSmartNulls$ThrowingInterceptor,<init>,<Lorg/mockito/internal/stubbing/defaultanswers/ReturnsSmartNulls;Lorg/mockito/invocation/InvocationOnMock;>,2,2,14
org.mockito.internal.stubbing.defaultanswers.ReturnsSmartNulls$ThrowingInterceptor,intercept,<Ljava/lang/Object;Ljava/lang/reflect/Method;[Ljava/lang/Object;Lorg/mockito/cglib/proxy/MethodProxy;>,4,5,28
org.mockito.internal.stubbing.defaultanswers.ReturnsSmartNulls$ThrowingInterceptor,<init>,<Lorg/mockito/internal/stubbing/defaultanswers/ReturnsSmartNulls;Lorg/mockito/invocation/InvocationOnMock;Lorg/mockito/internal/stubbing/defaultanswers/ReturnsSmartNulls$1;>,3,4,5
org.mockito.internal.stubbing.defaultanswers.ReturnsSmartNulls,<init>,<>,0,1,8
org.mockito.internal.stubbing.defaultanswers.ReturnsSmartNulls,answer,<Lorg/mockito/invocation/InvocationOnMock;>,1,4,31
org.mockito.internal.util.ArrayUtils,<init>,<>,0,1,3
org.mockito.internal.util.ArrayUtils,concat,<[Ljava/lang/Class;Ljava/lang/Class;>,2,5,20
org.mockito.internal.util.CreationValidator,<init>,<>,0,1,3
org.mockito.internal.util.CreationValidator,validateType,<Ljava/lang/Class;>,1,2,10
org.mockito.internal.util.CreationValidator,validateExtraInterfaces,<Ljava/lang/Class;[Ljava/lang/Class;>,2,7,28
org.mockito.internal.util.CreationValidator,validateMockedType,<Ljava/lang/Class;Ljava/lang/Object;>,2,3,17
org.mockito.internal.util.Decamelizer,<init>,<>,0,1,3
org.mockito.internal.util.Decamelizer,decamelizeMatcher,<Ljava/lang/String;>,1,2,33
org.mockito.internal.util.Decamelizer,decamelizeClassName,<Ljava/lang/String;>,1,3,34
org.mockito.internal.util.Decamelizer,<clinit>,<>,0,0,4
org.mockito.internal.util.ListUtil$Filter,isOut,<Ljava/lang/Object;>,1,0,0
org.mockito.internal.util.ListUtil,<init>,<>,0,1,3
org.mockito.internal.util.ListUtil,filter,<Ljava/util/Collection;Lorg/mockito/internal/util/ListUtil$Filter;>,2,5,24
org.mockito.internal.util.MockName,<init>,<Ljava/lang/String;Ljava/lang/Class;>,2,3,16
org.mockito.internal.util.MockName,toInstanceName,<Ljava/lang/Class;>,1,2,25
org.mockito.internal.util.MockName,isSurrogate,<>,0,1,3
org.mockito.internal.util.MockName,toString,<>,0,1,3
org.mockito.internal.util.MockUtil,<init>,<Lorg/mockito/internal/util/CreationValidator;>,1,2,6
org.mockito.internal.util.MockUtil,<init>,<>,0,1,6
org.mockito.internal.util.MockUtil,createMock,<Ljava/lang/Class;Lorg/mockito/internal/creation/MockSettingsImpl;>,2,10,79
org.mockito.internal.util.MockUtil,resetMock,<Ljava/lang/Object;>,1,5,24
org.mockito.internal.util.MockUtil,getMockHandler,<Ljava/lang/Object;>,1,2,30
org.mockito.internal.util.MockUtil,isMockitoMock,<Ljava/lang/Object;>,1,2,12
org.mockito.internal.util.MockUtil,isMock,<Ljava/lang/Object;>,1,2,10
org.mockito.internal.util.MockUtil,getInterceptor,<Ljava/lang/Object;>,1,4,15
org.mockito.internal.util.MockUtil,getMockName,<Ljava/lang/Object;>,1,2,6
org.mockito.internal.util.MockitoLogger,log,<Ljava/lang/Object;>,1,0,0
org.mockito.internal.util.MockitoLoggerImpl,<init>,<>,0,1,3
org.mockito.internal.util.MockitoLoggerImpl,log,<Ljava/lang/Object;>,1,2,5
org.mockito.internal.util.ObjectMethodsGuru,<init>,<>,0,1,3
org.mockito.internal.util.ObjectMethodsGuru,isToString,<Ljava/lang/reflect/Method;>,1,2,7
org.mockito.internal.util.ObjectMethodsGuru,isToString,<Lorg/mockito/internal/invocation/MockitoMethod;>,1,2,17
org.mockito.internal.util.ObjectMethodsGuru,isEqualsMethod,<Ljava/lang/reflect/Method;>,1,2,20
org.mockito.internal.util.ObjectMethodsGuru,isHashCodeMethod,<Ljava/lang/reflect/Method;>,1,2,13
org.mockito.internal.util.Primitives,<init>,<>,0,1,3
org.mockito.internal.util.Primitives,isPrimitiveWrapper,<Ljava/lang/Class;>,1,1,4
org.mockito.internal.util.Primitives,primitiveWrapperOf,<Ljava/lang/Class;>,1,1,4
org.mockito.internal.util.Primitives,primitiveTypeOf,<Ljava/lang/Class;>,1,1,5
org.mockito.internal.util.Primitives,primitiveValueOrNullFor,<Ljava/lang/Class;>,1,1,4
org.mockito.internal.util.Primitives,<clinit>,<>,0,0,162
org.mockito.internal.util.RemoveFirstLine,<init>,<>,0,1,3
org.mockito.internal.util.RemoveFirstLine,of,<Ljava/lang/String;>,1,2,5
org.mockito.internal.util.StringJoiner,<init>,<>,0,1,3
org.mockito.internal.util.StringJoiner,join,<[Ljava/lang/Object;>,1,7,41
org.mockito.internal.util.reflection.AccessibilityChanger,<init>,<>,0,1,6
org.mockito.internal.util.reflection.AccessibilityChanger,safelyDisableAccess,<Ljava/lang/reflect/Field;>,1,3,17
org.mockito.internal.util.reflection.AccessibilityChanger,enableAccess,<Ljava/lang/reflect/Field;>,1,2,9
org.mockito.internal.util.reflection.AccessibilityChanger,<clinit>,<>,0,0,8
org.mockito.internal.util.reflection.FieldCopier,<init>,<>,0,1,3
org.mockito.internal.util.reflection.FieldCopier,copyValue,<Ljava/lang/Object;Ljava/lang/Object;Ljava/lang/reflect/Field;>,3,5,9
org.mockito.internal.util.reflection.LenientCopyTool,<init>,<>,0,1,8
org.mockito.internal.util.reflection.LenientCopyTool,copyToMock,<Ljava/lang/Object;Ljava/lang/Object;>,2,3,10
org.mockito.internal.util.reflection.LenientCopyTool,copyToRealObject,<Ljava/lang/Object;Ljava/lang/Object;>,2,3,9
org.mockito.internal.util.reflection.LenientCopyTool,copy,<Ljava/lang/Object;Ljava/lang/Object;Ljava/lang/Class;Ljava/lang/Class;>,4,5,34
org.mockito.internal.util.reflection.LenientCopyTool,copyValues,<Ljava/lang/Object;Ljava/lang/Object;Ljava/lang/Class;>,3,9,49
org.mockito.internal.util.reflection.LenientCopyTool,<clinit>,<>,0,0,8
org.mockito.internal.util.reflection.Whitebox,<init>,<>,0,1,3
org.mockito.internal.util.reflection.Whitebox,getInternalState,<Ljava/lang/Object;Ljava/lang/String;>,2,5,21
org.mockito.internal.util.reflection.Whitebox,setInternalState,<Ljava/lang/Object;Ljava/lang/String;Ljava/lang/Object;>,3,6,23
org.mockito.internal.util.reflection.Whitebox,getFieldFromHierarchy,<Ljava/lang/Class;Ljava/lang/String;>,2,3,40
org.mockito.internal.util.reflection.Whitebox,getField,<Ljava/lang/Class;Ljava/lang/String;>,2,3,7
org.mockito.internal.verification.AtLeast,<init>,<I>,1,2,13
org.mockito.internal.verification.AtLeast,verify,<Lorg/mockito/internal/verification/api/VerificationData;>,1,4,27
org.mockito.internal.verification.AtLeast,verifyInOrder,<Lorg/mockito/internal/verification/api/VerificationData;>,1,6,30
org.mockito.internal.verification.AtLeast,toString,<>,0,1,10
org.mockito.internal.verification.AtMost,<init>,<I>,1,2,18
org.mockito.internal.verification.AtMost,verify,<Lorg/mockito/internal/verification/api/VerificationData;>,1,7,35
org.mockito.internal.verification.InOrderWrapper,<init>,<Lorg/mockito/internal/verification/api/VerificationInOrderMode;Ljava/util/List;>,2,3,9
org.mockito.internal.verification.InOrderWrapper,verify,<Lorg/mockito/internal/verification/api/VerificationData;>,1,3,17
org.mockito.internal.verification.NoMoreInteractions,<init>,<>,0,1,3
org.mockito.internal.verification.NoMoreInteractions,verify,<Lorg/mockito/internal/verification/api/VerificationData;>,1,3,15
org.mockito.internal.verification.Only,<init>,<>,0,1,18
org.mockito.internal.verification.Only,verify,<Lorg/mockito/internal/verification/api/VerificationData;>,1,6,49
org.mockito.internal.verification.RegisteredInvocations$RemoveToString,<init>,<>,0,1,3
org.mockito.internal.verification.RegisteredInvocations$RemoveToString,isOut,<Lorg/mockito/internal/invocation/Invocation;>,1,2,3
org.mockito.internal.verification.RegisteredInvocations$RemoveToString,isOut,<Ljava/lang/Object;>,1,2,5
org.mockito.internal.verification.RegisteredInvocations$RemoveToString,<init>,<Lorg/mockito/internal/verification/RegisteredInvocations$1;>,1,2,3
org.mockito.internal.verification.RegisteredInvocations,<init>,<>,0,1,9
org.mockito.internal.verification.RegisteredInvocations,add,<Lorg/mockito/internal/invocation/Invocation;>,1,2,6
org.mockito.internal.verification.RegisteredInvocations,removeLast,<>,0,2,12
org.mockito.internal.verification.RegisteredInvocations,getAll,<>,0,1,11
org.mockito.internal.verification.Times,<init>,<I>,1,2,13
org.mockito.internal.verification.Times,verify,<Lorg/mockito/internal/verification/api/VerificationData;>,1,4,26
org.mockito.internal.verification.Times,verifyInOrder,<Lorg/mockito/internal/verification/api/VerificationData;>,1,6,29
org.mockito.internal.verification.Times,toString,<>,0,1,10
org.mockito.internal.verification.VerificationDataImpl,<init>,<Ljava/util/List;Lorg/mockito/internal/invocation/InvocationMatcher;>,2,3,9
org.mockito.internal.verification.VerificationDataImpl,getAllInvocations,<>,0,1,3
org.mockito.internal.verification.VerificationDataImpl,getWanted,<>,0,1,3
org.mockito.internal.verification.VerificationModeFactory,<init>,<>,0,1,3
org.mockito.internal.verification.VerificationModeFactory,atLeastOnce,<>,0,0,3
org.mockito.internal.verification.VerificationModeFactory,atLeast,<I>,1,1,5
org.mockito.internal.verification.VerificationModeFactory,only,<>,0,0,4
org.mockito.internal.verification.VerificationModeFactory,times,<I>,1,1,5
org.mockito.internal.verification.VerificationModeFactory,noMoreInteractions,<>,0,0,4
org.mockito.internal.verification.VerificationModeFactory,atMost,<I>,1,1,5
org.mockito.internal.verification.api.VerificationData,getAllInvocations,<>,0,0,0
org.mockito.internal.verification.api.VerificationData,getWanted,<>,0,0,0
org.mockito.internal.verification.api.VerificationInOrderMode,verifyInOrder,<Lorg/mockito/internal/verification/api/VerificationData;>,1,0,0
org.mockito.internal.verification.api.VerificationMode,verify,<Lorg/mockito/internal/verification/api/VerificationData;>,1,0,0
org.mockito.internal.verification.argumentmatching.ArgumentMatchingTool,<init>,<>,0,1,3
org.mockito.internal.verification.argumentmatching.ArgumentMatchingTool,getSuspiciouslyNotMatchingArgsIndexes,<Ljava/util/List;[Ljava/lang/Object;>,2,7,61
org.mockito.internal.verification.argumentmatching.ArgumentMatchingTool,safelyMatches,<Lorg/hamcrest/Matcher;Ljava/lang/Object;>,2,4,7
org.mockito.internal.verification.argumentmatching.ArgumentMatchingTool,toStringEquals,<Lorg/hamcrest/Matcher;Ljava/lang/Object;>,2,3,10
org.mockito.internal.verification.checkers.AtLeastDiscrepancy,<init>,<II>,2,3,5
org.mockito.internal.verification.checkers.AtLeastDiscrepancy,getPluralizedWantedCount,<>,0,1,10
org.mockito.internal.verification.checkers.AtLeastXNumberOfInvocationsChecker,<init>,<>,0,1,18
org.mockito.internal.verification.checkers.AtLeastXNumberOfInvocationsChecker,check,<Ljava/util/List;Lorg/mockito/internal/invocation/InvocationMatcher;I>,3,7,33
org.mockito.internal.verification.checkers.AtLeastXNumberOfInvocationsInOrderChecker,<init>,<>,0,1,18
org.mockito.internal.verification.checkers.AtLeastXNumberOfInvocationsInOrderChecker,check,<Ljava/util/List;Lorg/mockito/internal/invocation/InvocationMatcher;I>,3,7,33
org.mockito.internal.verification.checkers.MissingInvocationChecker,<init>,<>,0,1,9
org.mockito.internal.verification.checkers.MissingInvocationChecker,<init>,<Lorg/mockito/internal/invocation/InvocationsFinder;Lorg/mockito/exceptions/Reporter;>,2,3,9
org.mockito.internal.verification.checkers.MissingInvocationChecker,check,<Ljava/util/List;Lorg/mockito/internal/invocation/InvocationMatcher;>,2,8,51
org.mockito.internal.verification.checkers.MissingInvocationInOrderChecker,<init>,<>,0,1,9
org.mockito.internal.verification.checkers.MissingInvocationInOrderChecker,<init>,<Lorg/mockito/internal/invocation/InvocationsFinder;Lorg/mockito/exceptions/Reporter;>,2,3,9
org.mockito.internal.verification.checkers.MissingInvocationInOrderChecker,check,<Ljava/util/List;Lorg/mockito/internal/invocation/InvocationMatcher;Lorg/mockito/internal/verification/api/VerificationMode;>,3,6,28
org.mockito.internal.verification.checkers.NumberOfInvocationsChecker,<init>,<>,0,1,9
org.mockito.internal.verification.checkers.NumberOfInvocationsChecker,<init>,<Lorg/mockito/exceptions/Reporter;Lorg/mockito/internal/invocation/InvocationsFinder;>,2,3,14
org.mockito.internal.verification.checkers.NumberOfInvocationsChecker,check,<Ljava/util/List;Lorg/mockito/internal/invocation/InvocationMatcher;I>,3,9,66
org.mockito.internal.verification.checkers.NumberOfInvocationsInOrderChecker,<init>,<>,0,1,9
org.mockito.internal.verification.checkers.NumberOfInvocationsInOrderChecker,<init>,<Lorg/mockito/internal/invocation/InvocationsFinder;Lorg/mockito/exceptions/Reporter;>,2,3,14
org.mockito.internal.verification.checkers.NumberOfInvocationsInOrderChecker,check,<Ljava/util/List;Lorg/mockito/internal/invocation/InvocationMatcher;I>,3,8,51
org.mockito.invocation.InvocationOnMock,getMock,<>,0,0,0
org.mockito.invocation.InvocationOnMock,getMethod,<>,0,0,0
org.mockito.invocation.InvocationOnMock,getArguments,<>,0,0,0
org.mockito.invocation.InvocationOnMock,callRealMethod,<>,0,0,0
org.mockito.runners.ConsoleSpammingMockitoJUnitRunner$1,<init>,<Lorg/mockito/runners/ConsoleSpammingMockitoJUnitRunner;Lorg/mockito/internal/debugging/DebuggingInfo;>,2,1,9
org.mockito.runners.ConsoleSpammingMockitoJUnitRunner$1,testFailure,<Lorg/junit/runner/notification/Failure;>,1,2,7
org.mockito.runners.ConsoleSpammingMockitoJUnitRunner,<init>,<Ljava/lang/Class;>,1,2,11
org.mockito.runners.ConsoleSpammingMockitoJUnitRunner,<init>,<Lorg/mockito/internal/util/MockitoLogger;Lorg/mockito/internal/runners/RunnerImpl;>,2,3,9
org.mockito.runners.ConsoleSpammingMockitoJUnitRunner,run,<Lorg/junit/runner/notification/RunNotifier;>,1,4,19
org.mockito.runners.ConsoleSpammingMockitoJUnitRunner,afterRun,<Lorg/mockito/internal/debugging/DebuggingInfo;>,1,2,3
org.mockito.runners.ConsoleSpammingMockitoJUnitRunner,beforeRun,<Lorg/junit/runner/notification/RunNotifier;Lorg/mockito/internal/debugging/DebuggingInfo;>,2,4,12
org.mockito.runners.ConsoleSpammingMockitoJUnitRunner,getDescription,<>,0,1,4
org.mockito.runners.MockitoJUnit44Runner,<init>,<Ljava/lang/Class;>,1,2,4
org.mockito.runners.MockitoJUnitRunner,<init>,<Ljava/lang/Class;>,1,2,10
org.mockito.runners.MockitoJUnitRunner,run,<Lorg/junit/runner/notification/RunNotifier;>,1,2,5
org.mockito.runners.MockitoJUnitRunner,getDescription,<>,0,1,4
org.mockito.runners.VerboseMockitoJUnitRunner$1,<init>,<Lorg/mockito/runners/VerboseMockitoJUnitRunner;Lorg/mockito/internal/debugging/DebuggingInfo;>,2,1,9
org.mockito.runners.VerboseMockitoJUnitRunner$1,testFailure,<Lorg/junit/runner/notification/Failure;>,1,4,29
org.mockito.runners.VerboseMockitoJUnitRunner,<init>,<Ljava/lang/Class;>,1,2,8
org.mockito.runners.VerboseMockitoJUnitRunner,<init>,<Lorg/mockito/internal/runners/RunnerImpl;>,1,2,6
org.mockito.runners.VerboseMockitoJUnitRunner,run,<Lorg/junit/runner/notification/RunNotifier;>,1,4,19
org.mockito.runners.VerboseMockitoJUnitRunner,afterRun,<Lorg/mockito/internal/debugging/DebuggingInfo;>,1,2,3
org.mockito.runners.VerboseMockitoJUnitRunner,beforeRun,<Lorg/junit/runner/notification/RunNotifier;Lorg/mockito/internal/debugging/DebuggingInfo;>,2,4,12
org.mockito.runners.VerboseMockitoJUnitRunner,getDescription,<>,0,1,4
org.mockito.stubbing.Answer,answer,<Lorg/mockito/invocation/InvocationOnMock;>,1,0,0
org.mockito.stubbing.ClonesArguments,<init>,<>,0,1,3
org.mockito.stubbing.ClonesArguments,answer,<Lorg/mockito/invocation/InvocationOnMock;>,1,6,35
org.mockito.stubbing.DeprecatedOngoingStubbing,toReturn,<Ljava/lang/Object;>,1,0,0
org.mockito.stubbing.DeprecatedOngoingStubbing,toThrow,<Ljava/lang/Throwable;>,1,0,0
org.mockito.stubbing.DeprecatedOngoingStubbing,toAnswer,<Lorg/mockito/stubbing/Answer;>,1,0,0
org.mockito.stubbing.OngoingStubbing,thenReturn,<Ljava/lang/Object;>,1,0,0
org.mockito.stubbing.OngoingStubbing,thenReturn,<Ljava/lang/Object;[Ljava/lang/Object;>,2,0,0
org.mockito.stubbing.OngoingStubbing,thenThrow,<[Ljava/lang/Throwable;>,1,0,0
org.mockito.stubbing.OngoingStubbing,thenCallRealMethod,<>,0,0,0
org.mockito.stubbing.OngoingStubbing,thenAnswer,<Lorg/mockito/stubbing/Answer;>,1,0,0
org.mockito.stubbing.Stubber,when,<Ljava/lang/Object;>,1,0,0
org.mockito.stubbing.Stubber,doThrow,<Ljava/lang/Throwable;>,1,0,0
org.mockito.stubbing.Stubber,doAnswer,<Lorg/mockito/stubbing/Answer;>,1,0,0
org.mockito.stubbing.Stubber,doNothing,<>,0,0,0
org.mockito.stubbing.Stubber,doReturn,<Ljava/lang/Object;>,1,0,0
org.mockito.stubbing.VoidMethodStubbable,toThrow,<Ljava/lang/Throwable;>,1,0,0
org.mockito.stubbing.VoidMethodStubbable,toReturn,<>,0,0,0
org.mockito.stubbing.VoidMethodStubbable,toAnswer,<Lorg/mockito/stubbing/Answer;>,1,0,0
org.mockito.stubbing.VoidMethodStubbable,on,<>,0,0,0
