FLUCCS/codeAndchange/GetParameterOrArgumentType.class
FLUCCS/codeAndchange/ExtractMethods.class
FLUCCS/codeAndchange/Parsing.class
FLUCCS/codeAndchange/NodeIterator.class
FLUCCS/codeAndchange/MethodVisitor.class
FLUCCS/codeAndchange/PackageVisitor.class
FLUCCS/codeAndchange/GenMethodCodeAndChange.class
FLUCCS/codeAndchange/GetRange.class
FLUCCS/codeAndchange/MethodCodeAndChageM.class
FLUCCS/codeAndchange/ObjectCreationVisitor.class
FLUCCS/codeAndchange/ConstructorVisitor.class
FLUCCS/codeAndchange/MethodProp.class
